seq_processor_tb.vcd
$date
	Sun Mar  2 20:53:30 2025
$end
$version
	Icarus Verilog
$end
$timescale
	1ps
$end
$scope module seq_processor_tb $end
$scope module uut $end
$var wire 1 ! clk $end
$var wire 1 " reset $end
$var wire 1 # z_flag $end
$var wire 64 $ write_data [63:0] $end
$var wire 1 % tmp_carry_2 $end
$var wire 1 & tmp_carry $end
$var wire 1 ' reg_write_en $end
$var wire 64 ( read_data2 [63:0] $end
$var wire 64 ) read_data1 [63:0] $end
$var wire 64 * read_data [63:0] $end
$var wire 64 + pc_out [63:0] $end
$var wire 64 , pc_in [63:0] $end
$var wire 4 - op [3:0] $end
$var wire 64 . mux_pc_2 [63:0] $end
$var wire 64 / mux_pc_1 [63:0] $end
$var wire 1 0 mem_write $end
$var wire 1 1 mem_to_reg $end
$var wire 1 2 mem_read $end
$var wire 32 3 instr [31:0] $end
$var wire 64 4 imm_shifted [63:0] $end
$var wire 64 5 imm [63:0] $end
$var wire 1 6 branch $end
$var wire 1 7 and_out $end
$var wire 1 8 alu_src $end
$var wire 64 9 alu_out [63:0] $end
$var wire 2 : alu_op [1:0] $end
$var wire 64 ; alu_in_2 [63:0] $end
$upscope $end
$upscope $end
$enddefinitions $end
$comment Show the parameter values. $end
$dumpall
$end
#0
$dumpvars
b101 ;
b0 :
b101 9
18
07
06
b101 5
b1010 4
b10100000000000100010011 3
02
01
00
b100 /
b1010 .
b10 -
b100 ,
b0 +
b0 *
b0 )
b0 (
1'
0&
0%
b101 $
0#
1"
0!
$end
#2000
0"
#5000
b1010 $
b1010 9
b1010 ;
b10100 4
b1010 5
b101000000000000110010011 3
b1000 ,
b1000 /
b11000 .
b100 +
1!
#10000
0!
#15000
b1111 $
b1111 9
08
b10 :
b1010 ;
b0 4
b1010 (
b101 )
b0 5
b1100010000000010110011 3
b1100 ,
b1100 /
b1000 .
b1000 +
1!
#20000
0!
#25000
b1111111111111111111111111111111111111111111111111111111111111011 $
b1111111111111111111111111111111111111111111111111111111111111011 9
b110 -
b1000000001100010000000100110011 3
b10000 ,
b10000 /
b1100 .
b1100 +
1!
#30000
0!
#35000
b0 -
0#
b1100011111001000110011 3
b10100 ,
b10100 /
b10000 .
b1010 $
b1010 9
b10000 +
b1010 )
1!
#40000
0!
#45000
b10000011111001010110011 3
b11000 ,
b11000 /
b10100 .
b10100 +
1!
#50000
0!
#55000
b1111111111111111111111111111111111111111111111111111111111111011 $
b1111111111111111111111111111111111111111111111111111111111111011 9
b1 -
b1111111111111111111111111111111111111111111111111111111111111011 )
b10000010110001100110011 3
b11100 ,
b11100 /
b11000 .
b11000 +
1!
#60000
0!
#65000
b1100010110001110110011 3
b100000 ,
b100000 /
b11100 .
b11100 +
1!
#70000
0!
#75000
0#
b1010 $
b10 -
b1010 9
b0 ;
0'
18
10
b0 :
b1111 (
b1010 )
b100101011000000100011 3
b100100 ,
b100100 /
b100000 .
b100000 +
1!
#80000
0!
#85000
0#
b1010 9
b1111 $
b1111 *
1'
00
11
12
b0 ;
b0 4
b0 (
b0 5
b101011010100000011 3
b101000 ,
b101000 /
b100100 .
b100100 +
1!
#90000
0!
#95000
b1101 9
b1101 $
b0 *
0'
10
01
02
b11 ;
b110 4
b1111111111111111111111111111111111111111111111111111111111111011 (
b11 5
b11000101011000110100011 3
b101100 ,
b101100 /
b101110 .
b101000 +
1!
#100000
0!
#105000
b1101 9
b1111111111111111111111111111111111111111111111111111111111111011 $
b1111111111111111111111111111111111111111111111111111111111111011 *
1'
00
11
12
b11 ;
b110 4
b1010 (
b11 5
b1100101011010110000011 3
b110000 ,
b110000 /
b110010 .
b101100 +
1!
#110000
0!
#115000
17
1#
b0 9
b110 -
b0 $
b0 *
0'
08
b1 :
01
02
16
b1010 ;
b1000 4
b100 5
b10100100000001001100011 3
b111000 ,
b110100 /
b111000 .
b110000 +
1!
#120000
0!
#125000
b11110 $
0#
b11110 9
b10 -
07
b1111 ;
1'
b10 :
06
b0 4
b1111 (
b1111 )
b0 5
b101000001000011010110011 3
b111100 ,
b111100 /
b111000 .
b111000 +
1!
#130000
0!
#135000
1#
b0 $
b0 9
b0 ;
0'
b0 :
b0 (
b0 )
b0 3
b1000000 ,
b1000000 /
b111100 .
b111100 +
1!
#140000
0!
#145000
b1000100 ,
b1000100 /
b1000000 .
b1000000 +
1!
#150000
0!
#155000
b1001000 ,
b1001000 /
b1000100 .
b1000100 +
1!
#160000
0!
#165000
b1001100 ,
b1001100 /
b1001000 .
b1001000 +
1!
#170000
0!
#175000
b1010000 ,
b1010000 /
b1001100 .
b1001100 +
1!
#180000
0!
#185000
b1010100 ,
b1010100 /
b1010000 .
b1010000 +
1!
#190000
0!
#195000
b1011000 ,
b1011000 /
b1010100 .
b1010100 +
1!
#200000
0!
#205000
b1011100 ,
b1011100 /
b1011000 .
b1011000 +
1!
#210000
0!
#215000
b1100000 ,
b1100000 /
b1011100 .
b1011100 +
1!
#220000
0!
#225000
b1100100 ,
b1100100 /
b1100000 .
b1100000 +
1!
#230000
0!
#235000
b1101000 ,
b1101000 /
b1100100 .
b1100100 +
1!
#240000
0!
#245000
b1101100 ,
b1101100 /
b1101000 .
b1101000 +
1!
