seq_processor_tb.vcd
$date
	Wed Feb 19 23:49:11 2025
$end
$version
	Icarus Verilog
$end
$timescale
	1ps
$end
$scope module seq_processor_tb $end
$scope module uut $end
$var wire 1 ! clk $end
$var wire 1 " reset $end
$var wire 1 # z_flag $end
$var wire 64 $ write_data [63:0] $end
$var wire 1 % tmp_carry_2 $end
$var wire 1 & tmp_carry $end
$var wire 1 ' reg_write_en $end
$var wire 64 ( read_data2 [63:0] $end
$var wire 64 ) read_data1 [63:0] $end
$var wire 64 * read_data [63:0] $end
$var wire 64 + pc_out [63:0] $end
$var wire 64 , pc_in [63:0] $end
$var wire 4 - op [3:0] $end
$var wire 64 . mux_pc_2 [63:0] $end
$var wire 64 / mux_pc_1 [63:0] $end
$var wire 1 0 mem_write $end
$var wire 1 1 mem_to_reg $end
$var wire 1 2 mem_read $end
$var wire 32 3 instr [31:0] $end
$var wire 64 4 imm_shifted [63:0] $end
$var wire 64 5 imm [63:0] $end
$var wire 1 6 branch $end
$var wire 1 7 and_out $end
$var wire 1 8 alu_src $end
$var wire 64 9 alu_out [63:0] $end
$var wire 2 : alu_op [1:0] $end
$var wire 64 ; alu_in_2 [63:0] $end
$upscope $end
$upscope $end
$enddefinitions $end
$comment Show the parameter values. $end
$dumpall
$end
#0
$dumpvars
b0 ;
b0 :
b0 9
08
07
06
b0 5
b0 4
b0 3
02
01
00
b100 /
b0 .
b10 -
b100 ,
b0 +
b0 *
b0 )
b0 (
0'
0&
0%
b0 $
1#
1"
0!
$end
#5000
1!
#7000
0"
#10000
0!
#15000
b101 $
b1000 ,
0#
b101 9
b1000 /
b1110 .
b1010 4
b101 ;
b101 5
1'
18
b100 +
b10100000000001000010011 3
1!
#20000
0!
#25000
b1100 ,
b1010 $
b1100 /
b1000 .
b1010 9
08
b10 :
b101 ;
b0 4
b101 (
b101 )
b0 5
b10000100000001010110011 3
b1000 +
1!
#30000
0!
#35000
b10000 ,
0#
b10000 /
b1100 .
b10100 $
b10100 9
b1010 ;
b1010 (
b1010 )
b1100 +
b10100101000001100110011 3
1!
#40000
0!
#45000
0#
b10100 ,
b101000 $
b10100 /
b10000 .
b101000 9
b10100 ;
b10100 (
b10100 )
b11000110000001110110011 3
b10000 +
1!
#50000
0!
#55000
b11000 ,
0#
b11000 /
b10110 .
b1 $
b1 9
b10 4
b1 5
b1 ;
18
b0 :
b0 (
b0 )
b10100 +
b100000000010100010011 3
1!
#60000
0!
#65000
b111 $
b11100 ,
b111 9
b11100 /
b100110 .
b111 ;
b1110 4
b101000 (
b111 5
b11100000000010110010011 3
b11000 +
1!
#70000
0!
#75000
b100000 ,
b100000 /
b11100 .
0#
b1010 $
b1010 9
0'
10
b0 ;
b0 4
b1 (
b1010 )
b0 5
b11100 +
b101000101011000000100011 3
1!
#80000
0!
#85000
b100100 ,
b10100 $
b100100 /
b100000 .
b10100 9
b111 (
b10100 )
b101100110011000000100011 3
b100000 +
1!
#90000
0!
#95000
b101000 ,
b101000 /
b100100 .
b10 $
0#
b10 9
1'
08
00
b10 :
b1 ;
b0 4
b1 (
b1 )
b0 5
b100100 +
b101001010000010110110011 3
1!
#100000
0!
#105000
b101100 ,
b101100 /
b101000 .
b101001010000010100110011 3
b101000 +
1!
#110000
0!
#115000
b110000 ,
b1011 $
b110000 /
b101110 .
b1011 9
b10 4
b1 5
0'
18
10
b0 :
b1 ;
b101100 +
b101000101011000010100011 3
b1010 )
b10 (
1!
#120000
0!
#125000
b110100 ,
b10101 $
b110100 /
b110010 .
b10101 9
b10100 )
b101100110011000010100011 3
b110000 +
1!
#130000
0!
#135000
b111000 ,
b111000 /
b111010 .
b11 $
b11 9
1'
00
b11 ;
b110 4
b0 (
b0 )
b11 5
b110100 +
b1100000000010100010011 3
1!
#140000
0!
#145000
b1001 $
b111100 ,
b1001 9
b111100 /
b1001010 .
b1001 ;
b10010 4
b1001 5
b100100000000010110010011 3
b111000 +
1!
#150000
0!
#155000
b1000000 ,
b1000000 /
b1000000 .
0#
b1100 $
b1100 9
0'
10
b10 ;
b100 4
b11 (
b1010 )
b10 5
b111100 +
b101000101011000100100011 3
1!
#160000
0!
#165000
b1000100 ,
b10110 $
b1000100 /
b1000100 .
b10110 9
b1001 (
b10100 )
b101100110011000100100011 3
b1000000 +
1!
#170000
0!
#175000
b1001000 ,
b1001000 /
b1000100 .
b1010 $
b1010 9
1'
08
00
b10 :
b0 ;
b0 4
b0 (
b1010 )
b0 5
b1000100 +
b1100101000101000110011 3
1!
#180000
0!
#185000
b1001100 ,
b10100 $
b1001100 /
b1001000 .
b10100 9
b10100 )
b1100110000101010110011 3
b1001000 +
1!
#190000
0!
#195000
b1010000 ,
b1010000 /
b1001100 .
b1010 9
b1 $
b1 *
18
b0 :
11
12
b1010 )
b1001100 +
b10100011101100000011 3
1!
#200000
0!
#205000
b111 $
b111 *
b1010100 ,
b1010100 /
b1010000 .
b10100 9
b10100 )
b10101011101110000011 3
b1010000 +
1!
#210000
0!
#215000
0#
b1011000 ,
b1011000 /
b1010100 .
b1000 9
b1000 $
b0 *
08
b10 :
01
02
b111 ;
b0 4
b111 (
b1 )
b0 5
b1010100 +
b1011110110000110000110011 3
1!
#220000
0!
#225000
b1011100 ,
b101000 $
b1011100 /
b1011000 .
b101000 9
b0 ;
b0 (
b101000 )
b1100111000110010110011 3
b1011000 +
1!
#230000
0!
#235000
b1100000 ,
b1100000 /
b1011100 .
0'
18
10
b0 :
b1000 (
b1011100 +
b1100011001011000000100011 3
1!
#240000
0!
#245000
b1100100 ,
b1 $
b1100100 /
b1100010 .
0#
b1 9
1'
00
b1 ;
b10 4
b0 (
b0 )
b1 5
b100011000000110010011 3
b1100000 +
1!
#250000
0!
#255000
b1101000 /
b1101100 .
b110 -
b1101000 ,
b100 $
07
0#
b100 9
0'
08
b1 :
16
b1 ;
b1000 4
b1 (
b100 5
b1100100 +
b1100100000010001100011 3
b101 )
1!
#260000
0!
#265000
17
1#
1%
b0 $
b111000 ,
b0 9
b1101100 /
b111000 .
b0 ;
b1111111111111111111111111111111111111111111111111111111111010000 4
b0 (
b0 )
b1111111111111111111111111111111111111111111111111111111111101000 5
b11111100000000000000100011100011 3
b1101000 +
1!
#270000
0!
#275000
0%
b111100 /
b111000 .
b10 -
b111100 ,
07
1'
b10 :
06
b0 4
b0 5
b111000 +
b111110110011 3
1!
#280000
0!
#285000
b1000000 ,
b1100 $
b1000000 /
b1000000 .
0#
b1100 9
b10 ;
b100 4
b10 5
0'
18
10
b0 :
b11 (
b1010 )
b101000101011000100100011 3
b111100 +
1!
#290000
0!
#295000
b1000100 ,
b1000100 /
b1000100 .
b10110 $
b10110 9
b1001 (
b10100 )
b1000000 +
b101100110011000100100011 3
1!
#300000
0!
#305000
b1001000 ,
b1011 $
b1001000 /
b1000100 .
b1011 9
1'
08
00
b10 :
b1 ;
b0 4
b1 (
b1010 )
b0 5
b1100101000101000110011 3
b1000100 +
1!
#310000
0!
#315000
b1001100 ,
b1001100 /
b1001000 .
b10101 $
b10101 9
b10100 )
b1001000 +
b1100110000101010110011 3
1!
#320000
0!
#325000
b1010000 ,
b1010000 /
b1001100 .
b1011 9
b10 $
b10 *
b0 ;
18
b0 :
11
12
b0 (
b1011 )
b10100011101100000011 3
b1001100 +
1!
#330000
0!
#335000
b1010100 ,
b1010100 /
b1010000 .
b10101 9
b10101 )
b1010000 +
b10101011101110000011 3
1!
#340000
0!
#345000
b100 9
b1011000 ,
b1011000 /
b1010100 .
b100 $
b0 *
08
b10 :
01
02
b10 ;
b0 4
b10 (
b10 )
b0 5
b1011110110000110000110011 3
b1010100 +
1!
#350000
0!
#355000
b1011100 ,
b1011100 /
b1011000 .
b101001 $
b101001 9
b1 ;
b1 (
b101000 )
b1011000 +
b1100111000110010110011 3
1!
#360000
0!
#365000
b1100000 ,
b101001 $
b1100000 /
b1011100 .
b101001 9
b0 ;
0'
18
10
b0 :
b100 (
b101001 )
b1100011001011000000100011 3
b1011100 +
1!
#370000
0!
#375000
b1100100 ,
b1100100 /
b1100010 .
b10 $
b10 9
1'
00
b1 ;
b10 4
b0 (
b1 )
b1 5
b1100000 +
b100011000000110010011 3
1!
#380000
0!
#385000
b1101000 ,
07
b11 $
b1101000 /
b1101100 .
0#
b11 9
b110 -
0'
08
b1 :
16
b10 ;
b1000 4
b10 (
b100 5
b101 )
b1100100000010001100011 3
b1100100 +
1!
#390000
0!
#395000
17
1#
1%
b111000 ,
b0 $
b1101100 /
b111000 .
b0 9
b0 ;
b1111111111111111111111111111111111111111111111111111111111010000 4
b0 (
b0 )
b1111111111111111111111111111111111111111111111111111111111101000 5
b1101000 +
b11111100000000000000100011100011 3
1!
#400000
0!
#405000
0%
b111100 /
b111000 .
b10 -
b111100 ,
07
1'
b10 :
06
b0 4
b0 5
b111110110011 3
b111000 +
1!
#410000
0!
#415000
b1000000 ,
b1000000 /
b1000000 .
b1100 $
0#
b1100 9
b10 ;
b100 4
b10 5
0'
18
10
b0 :
b11 (
b1010 )
b111100 +
b101000101011000100100011 3
1!
#420000
0!
#425000
b1000100 ,
b10110 $
b1000100 /
b1000100 .
b10110 9
b1001 (
b10100 )
b101100110011000100100011 3
b1000000 +
1!
#430000
0!
#435000
b1001000 ,
b1001000 /
b1000100 .
b1100 $
b1100 9
1'
08
00
b10 :
b10 ;
b0 4
b10 (
b1010 )
b0 5
b1000100 +
b1100101000101000110011 3
1!
#440000
0!
#445000
b1001100 ,
b10110 $
b1001100 /
b1001000 .
b10110 9
b10100 )
b1100110000101010110011 3
b1001000 +
1!
#450000
0!
#455000
b1010000 ,
b1010000 /
b1001100 .
b1100 9
b11 $
b11 *
b0 ;
18
b0 :
11
12
b0 (
b1100 )
b1001100 +
b10100011101100000011 3
1!
#460000
0!
#465000
b1001 $
b1001 *
b1010100 ,
b1010100 /
b1010000 .
b10110 9
b10110 )
b10101011101110000011 3
b1010000 +
1!
#470000
0!
#475000
b1011000 ,
b1011000 /
b1010100 .
b1100 9
b1100 $
b0 *
08
b10 :
01
02
b1001 ;
b0 4
b1001 (
b11 )
b0 5
b1010100 +
b1011110110000110000110011 3
1!
#480000
0!
#485000
b1011100 ,
b101010 $
b1011100 /
b1011000 .
b101010 9
b10 ;
b10 (
b101000 )
b1100111000110010110011 3
b1011000 +
1!
#490000
0!
#495000
b1100000 ,
b1100000 /
b1011100 .
b101010 $
b101010 9
b0 ;
0'
18
10
b0 :
b1100 (
b101010 )
b1011100 +
b1100011001011000000100011 3
1!
#500000
0!
#505000
b1100100 ,
b11 $
b1100100 /
b1100010 .
b11 9
1'
00
b1 ;
b10 4
b0 (
b10 )
b1 5
b100011000000110010011 3
b1100000 +
1!
#510000
0!
#515000
07
0#
b1101000 ,
b1101000 /
b1101100 .
b110 -
b10 $
b10 9
0'
08
b1 :
16
b11 ;
b1000 4
b11 (
b100 5
b1100100 +
b1100100000010001100011 3
b101 )
1!
#520000
0!
#525000
17
1#
1%
b0 $
b111000 ,
b0 9
b1101100 /
b111000 .
b0 ;
b1111111111111111111111111111111111111111111111111111111111010000 4
b0 (
b0 )
b1111111111111111111111111111111111111111111111111111111111101000 5
b11111100000000000000100011100011 3
b1101000 +
1!
#530000
0!
#535000
0%
b111100 /
b111000 .
b10 -
b111100 ,
07
1'
b10 :
06
b0 4
b0 5
b111000 +
b111110110011 3
1!
#540000
0!
#545000
b1000000 ,
b1100 $
b1000000 /
b1000000 .
0#
b1100 9
b10 ;
b100 4
b10 5
0'
18
10
b0 :
b11 (
b1010 )
b101000101011000100100011 3
b111100 +
1!
#550000
0!
#555000
b1000100 ,
b1000100 /
b1000100 .
b10110 $
b10110 9
b1001 (
b10100 )
b1000000 +
b101100110011000100100011 3
1!
#560000
0!
#565000
b1001000 ,
b1101 $
b1001000 /
b1000100 .
b1101 9
1'
08
00
b10 :
b11 ;
b0 4
b11 (
b1010 )
b0 5
b1100101000101000110011 3
b1000100 +
1!
#570000
0!
#575000
b1001100 ,
b1001100 /
b1001000 .
b10111 $
b10111 9
b10100 )
b1001000 +
b1100110000101010110011 3
1!
#580000
0!
#585000
b1010000 ,
b1010000 /
b1001100 .
b1101 9
b0 $
b0 ;
18
b0 :
11
12
b0 (
b1101 )
b10100011101100000011 3
b1001100 +
1!
#590000
0!
#595000
b1010100 ,
b1010100 /
b1010000 .
b10111 9
b10111 )
b1010000 +
b10101011101110000011 3
1!
#600000
0!
#605000
1#
b0 9
b1011000 ,
b1011000 /
b1010100 .
b0 $
08
b10 :
01
02
b0 ;
b0 4
b0 )
b0 5
b1011110110000110000110011 3
b1010100 +
1!
#610000
0!
#615000
b1011100 ,
b1011100 /
b1011000 .
b101011 $
0#
b101011 9
b11 ;
b11 (
b101000 )
b1011000 +
b1100111000110010110011 3
1!
#620000
0!
#625000
b1100000 ,
b101011 $
b1100000 /
b1011100 .
b101011 9
b0 ;
0'
18
10
b0 :
b0 (
b101011 )
b1100011001011000000100011 3
b1011100 +
1!
#630000
0!
#635000
b1100100 ,
b1100100 /
b1100010 .
0#
b100 $
b100 9
1'
00
b1 ;
b10 4
b11 )
b1 5
b1100000 +
b100011000000110010011 3
1!
#640000
0!
#645000
07
0#
b1101000 ,
b1101000 /
b1101100 .
b1 $
b110 -
b1 9
0'
08
b1 :
16
b100 ;
b1000 4
b100 (
b100 5
b101 )
b1100100000010001100011 3
b1100100 +
1!
#650000
0!
#655000
17
1#
1%
b111000 ,
b0 $
b1101100 /
b111000 .
b0 9
b0 ;
b1111111111111111111111111111111111111111111111111111111111010000 4
b0 (
b0 )
b1111111111111111111111111111111111111111111111111111111111101000 5
b1101000 +
b11111100000000000000100011100011 3
1!
#660000
0!
#665000
0%
b111100 /
b111000 .
b10 -
b111100 ,
07
1'
b10 :
06
b0 4
b0 5
b111110110011 3
b111000 +
1!
#670000
0!
#675000
b1000000 ,
b1000000 /
b1000000 .
b1100 $
0#
b1100 9
b10 ;
b100 4
b10 5
0'
18
10
b0 :
b11 (
b1010 )
b111100 +
b101000101011000100100011 3
1!
#680000
0!
#685000
b1000100 ,
b10110 $
b1000100 /
b1000100 .
b10110 9
b1001 (
b10100 )
b101100110011000100100011 3
b1000000 +
1!
#690000
0!
#695000
b1001000 ,
b1001000 /
b1000100 .
b1110 $
b1110 9
1'
08
00
b10 :
b100 ;
b0 4
b100 (
b1010 )
b0 5
b1000100 +
b1100101000101000110011 3
1!
#700000
0!
#705000
b1001100 ,
b11000 $
b1001100 /
b1001000 .
b11000 9
b10100 )
b1100110000101010110011 3
b1001000 +
1!
#710000
0!
#715000
b1010000 ,
b1010000 /
b1001100 .
b1110 9
b0 $
b0 ;
18
b0 :
11
12
b0 (
b1110 )
b1001100 +
b10100011101100000011 3
1!
#720000
0!
#725000
b1010100 ,
b1010100 /
b1010000 .
b11000 9
b11000 )
b10101011101110000011 3
b1010000 +
1!
#730000
0!
#735000
1#
b1011000 ,
b1011000 /
b1010100 .
b0 9
b0 $
08
b10 :
01
02
b0 ;
b0 4
b0 )
b0 5
b1010100 +
b1011110110000110000110011 3
1!
#740000
0!
#745000
b1011100 ,
b101100 $
b1011100 /
b1011000 .
0#
b101100 9
b100 ;
b100 (
b101000 )
b1100111000110010110011 3
b1011000 +
1!
#750000
0!
#755000
b1100000 ,
b1100000 /
b1011100 .
b101100 $
b101100 9
b0 ;
0'
18
10
b0 :
b0 (
b101100 )
b1011100 +
b1100011001011000000100011 3
1!
#760000
0!
#765000
b1100100 ,
b101 $
b1100100 /
b1100010 .
b101 9
1'
00
b1 ;
b10 4
b100 )
b1 5
b100011000000110010011 3
b1100000 +
1!
#770000
0!
#775000
17
b1101100 ,
1#
b1101000 /
b1101100 .
b110 -
b0 $
b0 9
0'
08
b1 :
16
b101 ;
b1000 4
b101 (
b100 5
b1100100 +
b1100100000010001100011 3
b101 )
1!
#780000
0!
#785000
1%
17
b0 $
b111100 ,
1#
b0 9
b1110000 /
b111100 .
b0 ;
b1111111111111111111111111111111111111111111111111111111111010000 4
b0 (
b0 )
b1111111111111111111111111111111111111111111111111111111111101000 5
b11111100000000000000100011100011 3
b1101100 +
1!
#790000
0!
#795000
0%
b1000 $
b1000 *
0#
b101000 9
b1000000 /
b111100 .
b10 -
b1000000 ,
07
1'
18
b0 :
11
12
06
b0 4
b101000 )
b0 5
b111100 +
b111011011110000011 3
1!
#800000
0!
#805000
b1000100 ,
b1000100 /
b1000100 .
b10110 9
b10110 $
b0 *
0'
10
01
02
b10 ;
b100 4
b1001 (
b10100 )
b10 5
b101100110011000100100011 3
b1000000 +
1!
#810000
0!
#815000
b1001000 ,
b1001000 /
b1000100 .
b1111 $
b1111 9
1'
08
00
b10 :
b101 ;
b0 4
b101 (
b1010 )
b0 5
b1000100 +
b1100101000101000110011 3
1!
#820000
0!
#825000
b1001100 ,
b11001 $
b1001100 /
b1001000 .
b11001 9
b10100 )
b1100110000101010110011 3
b1001000 +
1!
#830000
0!
#835000
b1010000 ,
b1010000 /
b1001100 .
b1111 9
b0 $
b0 ;
18
b0 :
11
12
b0 (
b1111 )
b1001100 +
b10100011101100000011 3
1!
#840000
0!
#845000
b1010100 ,
b1010100 /
b1010000 .
b11001 9
b11001 )
b10101011101110000011 3
b1010000 +
1!
#850000
0!
#855000
1#
b1011000 ,
b1011000 /
b1010100 .
b0 9
b0 $
08
b10 :
01
02
b0 ;
b0 4
b0 )
b0 5
b1010100 +
b1011110110000110000110011 3
1!
#860000
0!
#865000
b1011100 ,
b101101 $
b1011100 /
b1011000 .
0#
b101101 9
b101 ;
b101 (
b101000 )
b1100111000110010110011 3
b1011000 +
1!
#870000
0!
#875000
b1100000 ,
b1100000 /
b1011100 .
b101101 $
b101101 9
b0 ;
0'
18
10
b0 :
b0 (
b101101 )
b1011100 +
b1100011001011000000100011 3
1!
#880000
0!
#885000
b1100100 ,
b110 $
b1100100 /
b1100010 .
b110 9
1'
00
b1 ;
b10 4
b101 )
b1 5
b100011000000110010011 3
b1100000 +
1!
#890000
0!
#895000
b1101000 ,
b1101000 /
b1101100 .
b110 -
b1111111111111111111111111111111111111111111111111111111111111111 $
b1111111111111111111111111111111111111111111111111111111111111111 9
0'
08
b1 :
16
b110 ;
b1000 4
b110 (
b100 5
b1100100 +
b1100100000010001100011 3
b101 )
1!
#900000
0!
#905000
17
1#
1%
b0 $
b111000 ,
b0 9
b1101100 /
b111000 .
b0 ;
b1111111111111111111111111111111111111111111111111111111111010000 4
b0 (
b0 )
b1111111111111111111111111111111111111111111111111111111111101000 5
b11111100000000000000100011100011 3
b1101000 +
1!
#910000
0!
#915000
0%
b111100 /
b111000 .
b10 -
b111100 ,
07
1'
b10 :
06
b0 4
b0 5
b111000 +
b111110110011 3
1!
#920000
0!
#925000
b1000000 ,
b1100 $
b1000000 /
b1000000 .
0#
b1100 9
b10 ;
b100 4
b10 5
0'
18
10
b0 :
b11 (
b1010 )
b101000101011000100100011 3
b111100 +
1!
#930000
0!
#935000
b1000100 ,
b1000100 /
b1000100 .
b10110 $
b10110 9
b1001 (
b10100 )
b1000000 +
b101100110011000100100011 3
1!
#940000
0!
#945000
0#
b1001000 ,
b10000 $
b1001000 /
b1000100 .
b10000 9
1'
08
00
b10 :
b110 ;
b0 4
b110 (
b1010 )
b0 5
b1100101000101000110011 3
b1000100 +
1!
#950000
0!
#955000
b1001100 ,
b1001100 /
b1001000 .
b11010 $
b11010 9
b10100 )
b1001000 +
b1100110000101010110011 3
1!
#960000
0!
#965000
b1010000 ,
b1010000 /
b1001100 .
b10000 9
b0 $
b0 ;
18
b0 :
11
12
b0 (
b10000 )
b10100011101100000011 3
b1001100 +
1!
#970000
0!
#975000
b1010100 ,
b1010100 /
b1010000 .
b11010 9
b11010 )
b1010000 +
b10101011101110000011 3
1!
#980000
0!
#985000
1#
b1011000 ,
b1011000 /
b1010100 .
b0 9
b0 $
08
b10 :
01
02
b0 ;
b0 4
b0 )
b0 5
b1011110110000110000110011 3
b1010100 +
1!
#990000
0!
#995000
b1011100 ,
b1011100 /
b1011000 .
b101110 $
0#
b101110 9
b110 ;
b110 (
b101000 )
b1011000 +
b1100111000110010110011 3
1!
#1000000
0!
#1005000
b1100000 ,
b101110 $
b1100000 /
b1011100 .
b101110 9
b0 ;
0'
18
10
b0 :
b0 (
b101110 )
b1100011001011000000100011 3
b1011100 +
1!
#1010000
0!
#1015000
b1100100 ,
b1100100 /
b1100010 .
b111 $
b111 9
1'
00
b1 ;
b10 4
b110 )
b1 5
b1100000 +
b100011000000110010011 3
1!
#1020000
0!
#1025000
b1101000 ,
b1101000 /
b1101100 .
b1111111111111111111111111111111111111111111111111111111111111110 $
b110 -
b1111111111111111111111111111111111111111111111111111111111111110 9
0'
08
b1 :
16
b111 ;
b1000 4
b111 (
b100 5
b101 )
b1100100000010001100011 3
b1100100 +
1!
#1030000
0!
#1035000
17
1#
1%
b111000 ,
b0 $
b1101100 /
b111000 .
b0 9
b0 ;
b1111111111111111111111111111111111111111111111111111111111010000 4
b0 (
b0 )
b1111111111111111111111111111111111111111111111111111111111101000 5
b1101000 +
b11111100000000000000100011100011 3
1!
#1040000
0!
#1045000
0%
b111100 /
b111000 .
b10 -
b111100 ,
07
1'
b10 :
06
b0 4
b0 5
b111110110011 3
b111000 +
1!
#1050000
0!
#1055000
b1000000 ,
b1000000 /
b1000000 .
b1100 $
0#
b1100 9
b10 ;
b100 4
b10 5
0'
18
10
b0 :
b11 (
b1010 )
b111100 +
b101000101011000100100011 3
1!
#1060000
0!
#1065000
b1000100 ,
b10110 $
b1000100 /
b1000100 .
b10110 9
b1001 (
b10100 )
b101100110011000100100011 3
b1000000 +
1!
#1070000
0!
#1075000
b1001000 ,
b1001000 /
b1000100 .
b10001 $
b10001 9
1'
08
00
b10 :
b111 ;
b0 4
b111 (
b1010 )
b0 5
b1000100 +
b1100101000101000110011 3
1!
#1080000
0!
#1085000
b1001100 ,
b11011 $
b1001100 /
b1001000 .
b11011 9
b10100 )
b1100110000101010110011 3
b1001000 +
1!
#1090000
0!
#1095000
b1010000 ,
b1010000 /
b1001100 .
b10001 9
b0 $
b0 ;
18
b0 :
11
12
b0 (
b10001 )
b1001100 +
b10100011101100000011 3
1!
#1100000
0!
#1105000
b1010100 ,
b1010100 /
b1010000 .
b11011 9
b11011 )
b10101011101110000011 3
b1010000 +
1!
#1110000
0!
#1115000
1#
b1011000 ,
b1011000 /
b1010100 .
b0 9
b0 $
08
b10 :
01
02
b0 ;
b0 4
b0 )
b0 5
b1010100 +
b1011110110000110000110011 3
1!
#1120000
0!
#1125000
b1011100 ,
b101111 $
b1011100 /
b1011000 .
0#
b101111 9
b111 ;
b111 (
b101000 )
b1100111000110010110011 3
b1011000 +
1!
#1130000
0!
#1135000
b1100000 ,
b1100000 /
b1011100 .
b101111 $
b101111 9
b0 ;
0'
18
10
b0 :
b0 (
b101111 )
b1011100 +
b1100011001011000000100011 3
1!
#1140000
0!
#1145000
0#
b1100100 ,
b1000 $
b1100100 /
b1100010 .
b1000 9
1'
00
b1 ;
b10 4
b111 )
b1 5
b100011000000110010011 3
b1100000 +
1!
#1150000
0!
#1155000
b1101000 ,
b1101000 /
b1101100 .
b110 -
b1111111111111111111111111111111111111111111111111111111111111101 $
b1111111111111111111111111111111111111111111111111111111111111101 9
0'
08
b1 :
16
b1000 ;
b1000 4
b1000 (
b100 5
b1100100 +
b1100100000010001100011 3
b101 )
1!
#1160000
0!
#1165000
17
1#
1%
b0 $
b111000 ,
b0 9
b1101100 /
b111000 .
b0 ;
b1111111111111111111111111111111111111111111111111111111111010000 4
b0 (
b0 )
b1111111111111111111111111111111111111111111111111111111111101000 5
b11111100000000000000100011100011 3
b1101000 +
1!
#1170000
0!
#1175000
0%
b111100 /
b111000 .
b10 -
b111100 ,
07
1'
b10 :
06
b0 4
b0 5
b111000 +
b111110110011 3
1!
#1180000
0!
#1185000
b1000000 ,
b1100 $
b1000000 /
b1000000 .
0#
b1100 9
b10 ;
b100 4
b10 5
0'
18
10
b0 :
b11 (
b1010 )
b101000101011000100100011 3
b111100 +
1!
#1190000
0!
#1195000
b1000100 ,
b1000100 /
b1000100 .
b10110 $
b10110 9
b1001 (
b10100 )
b1000000 +
b101100110011000100100011 3
1!
#1200000
0!
#1205000
b1001000 ,
b10010 $
b1001000 /
b1000100 .
b10010 9
1'
08
00
b10 :
b1000 ;
b0 4
b1000 (
b1010 )
b0 5
b1100101000101000110011 3
b1000100 +
1!
#1210000
0!
#1215000
b1001100 ,
b1001100 /
b1001000 .
b11100 $
b11100 9
b10100 )
b1001000 +
b1100110000101010110011 3
1!
#1220000
0!
#1225000
b1010000 ,
b1010000 /
b1001100 .
b10010 9
b0 $
b0 ;
18
b0 :
11
12
b0 (
b10010 )
b10100011101100000011 3
b1001100 +
1!
#1230000
0!
#1235000
b1010100 ,
b1010100 /
b1010000 .
b11100 9
b11100 )
b1010000 +
b10101011101110000011 3
1!
#1240000
0!
#1245000
1#
b1011000 ,
b1011000 /
b1010100 .
b0 9
b0 $
08
b10 :
01
02
b0 ;
b0 4
b0 )
b0 5
b1011110110000110000110011 3
b1010100 +
1!
#1250000
0!
#1255000
b1011100 ,
b1011100 /
b1011000 .
b110000 $
0#
b110000 9
b1000 ;
b1000 (
b101000 )
b1011000 +
b1100111000110010110011 3
1!
#1260000
0!
#1265000
b1100000 ,
b110000 $
b1100000 /
b1011100 .
b110000 9
b0 ;
0'
18
10
b0 :
b0 (
b110000 )
b1100011001011000000100011 3
b1011100 +
1!
#1270000
0!
#1275000
b1100100 ,
b1100100 /
b1100010 .
b1001 $
b1001 9
1'
00
b1 ;
b10 4
b1000 )
b1 5
b1100000 +
b100011000000110010011 3
1!
#1280000
0!
#1285000
b1101000 ,
b1101000 /
b1101100 .
b1111111111111111111111111111111111111111111111111111111111111100 $
b110 -
b1111111111111111111111111111111111111111111111111111111111111100 9
0'
08
b1 :
16
b1001 ;
b1000 4
b1001 (
b100 5
b101 )
b1100100000010001100011 3
b1100100 +
1!
#1290000
0!
#1295000
17
1#
1%
b111000 ,
b0 $
b1101100 /
b111000 .
b0 9
b0 ;
b1111111111111111111111111111111111111111111111111111111111010000 4
b0 (
b0 )
b1111111111111111111111111111111111111111111111111111111111101000 5
b1101000 +
b11111100000000000000100011100011 3
1!
#1300000
0!
#1305000
0%
b111100 /
b111000 .
b10 -
b111100 ,
07
1'
b10 :
06
b0 4
b0 5
b111110110011 3
b111000 +
1!
#1310000
0!
#1315000
b1000000 ,
b1000000 /
b1000000 .
b1100 $
0#
b1100 9
b10 ;
b100 4
b10 5
0'
18
10
b0 :
b11 (
b1010 )
b111100 +
b101000101011000100100011 3
1!
#1320000
0!
#1325000
b1000100 ,
b10110 $
b1000100 /
b1000100 .
b10110 9
b1001 (
b10100 )
b101100110011000100100011 3
b1000000 +
1!
#1330000
0!
#1335000
b1001000 ,
b1001000 /
b1000100 .
b10011 $
b10011 9
1'
08
00
b10 :
b1001 ;
b0 4
b1010 )
b0 5
b1000100 +
b1100101000101000110011 3
1!
#1340000
0!
#1345000
b1001100 ,
b11101 $
b1001100 /
b1001000 .
b11101 9
b10100 )
b1100110000101010110011 3
b1001000 +
1!
#1350000
0!
#1355000
b1010000 ,
b1010000 /
b1001100 .
b10011 9
b0 $
b0 ;
18
b0 :
11
12
b0 (
b10011 )
b1001100 +
b10100011101100000011 3
1!
#1360000
0!
#1365000
b1010100 ,
b1010100 /
b1010000 .
b11101 9
b11101 )
b10101011101110000011 3
b1010000 +
1!
#1370000
0!
#1375000
1#
b1011000 ,
b1011000 /
b1010100 .
b0 9
b0 $
08
b10 :
01
02
b0 ;
b0 4
b0 )
b0 5
b1010100 +
b1011110110000110000110011 3
1!
#1380000
0!
#1385000
b1011100 ,
b110001 $
b1011100 /
b1011000 .
0#
b110001 9
b1001 ;
b1001 (
b101000 )
b1100111000110010110011 3
b1011000 +
1!
#1390000
0!
#1395000
b1100000 ,
b1100000 /
b1011100 .
b110001 $
b110001 9
b0 ;
0'
18
10
b0 :
b0 (
b110001 )
b1011100 +
b1100011001011000000100011 3
1!
#1400000
0!
#1405000
b1100100 ,
b1010 $
b1100100 /
b1100010 .
b1010 9
1'
00
b1 ;
b10 4
b1001 )
b1 5
b100011000000110010011 3
b1100000 +
1!
#1410000
0!
#1415000
b1101000 ,
b1101000 /
b1101100 .
b110 -
b1111111111111111111111111111111111111111111111111111111111111011 $
b1111111111111111111111111111111111111111111111111111111111111011 9
0'
08
b1 :
16
b1010 ;
b1000 4
b1010 (
b100 5
b1100100 +
b1100100000010001100011 3
b101 )
1!
#1420000
0!
#1425000
17
1#
1%
b0 $
b111000 ,
b0 9
b1101100 /
b111000 .
b0 ;
b1111111111111111111111111111111111111111111111111111111111010000 4
b0 (
b0 )
b1111111111111111111111111111111111111111111111111111111111101000 5
b11111100000000000000100011100011 3
b1101000 +
1!
#1430000
0!
#1435000
0%
b111100 /
b111000 .
b10 -
b111100 ,
07
1'
b10 :
06
b0 4
b0 5
b111000 +
b111110110011 3
1!
#1440000
0!
#1445000
b1000000 ,
b1100 $
b1000000 /
b1000000 .
0#
b1100 9
b10 ;
b100 4
b10 5
0'
18
10
b0 :
b11 (
b1010 )
b101000101011000100100011 3
b111100 +
1!
#1450000
0!
#1455000
b1000100 ,
b1000100 /
b1000100 .
b10110 $
b10110 9
b1001 (
b10100 )
b1000000 +
b101100110011000100100011 3
1!
#1460000
0!
#1465000
0#
b1001000 ,
b10100 $
b1001000 /
b1000100 .
b10100 9
1'
08
00
b10 :
b1010 ;
b0 4
b1010 (
b1010 )
b0 5
b1100101000101000110011 3
b1000100 +
1!
#1470000
0!
#1475000
b1001100 ,
b1001100 /
b1001000 .
b11110 $
b11110 9
b10100 )
b1001000 +
b1100110000101010110011 3
1!
#1480000
0!
