seq_processor_tb.vcd
$date
	Sun Mar  2 21:14:47 2025
$end
$version
	Icarus Verilog
$end
$timescale
	1ps
$end
$scope module seq_processor_tb $end
$scope module uut $end
$var wire 1 ! clk $end
$var wire 1 " reset $end
$var wire 1 # z_flag $end
$var wire 64 $ write_data [63:0] $end
$var wire 1 % tmp_carry_2 $end
$var wire 1 & tmp_carry $end
$var wire 1 ' reg_write_en $end
$var wire 64 ( read_data2 [63:0] $end
$var wire 64 ) read_data1 [63:0] $end
$var wire 64 * read_data [63:0] $end
$var wire 64 + pc_out [63:0] $end
$var wire 64 , pc_in [63:0] $end
$var wire 4 - op [3:0] $end
$var wire 64 . mux_pc_2 [63:0] $end
$var wire 64 / mux_pc_1 [63:0] $end
$var wire 1 0 mem_write $end
$var wire 1 1 mem_to_reg $end
$var wire 1 2 mem_read $end
$var wire 32 3 instr [31:0] $end
$var wire 64 4 imm_shifted [63:0] $end
$var wire 64 5 imm [63:0] $end
$var wire 1 6 branch $end
$var wire 1 7 and_out $end
$var wire 1 8 alu_src $end
$var wire 64 9 alu_out [63:0] $end
$var wire 2 : alu_op [1:0] $end
$var wire 64 ; alu_in_2 [63:0] $end
$upscope $end
$upscope $end
$enddefinitions $end
$comment Show the parameter values. $end
$dumpall
$end
#0
$dumpvars
b101 ;
b0 :
b101 9
18
07
06
b101 5
b1010 4
b10100000000001000010011 3
02
01
00
b100 /
b1010 .
b10 -
b100 ,
b0 +
b0 *
b0 )
b0 (
1'
0&
0%
b101 $
0#
1"
0!
$end
#2000
0"
#5000
b1010 $
b1010 9
08
b10 :
b101 ;
b0 4
b101 (
b101 )
b0 5
b10000100000001010110011 3
b1000 ,
b1000 /
b100 .
b100 +
1!
#10000
0!
#15000
0#
b10100 $
b10100 9
b1010 ;
b1010 (
b1010 )
b10100101000001100110011 3
b1100 ,
b1100 /
b1000 .
b1000 +
1!
#20000
0!
#25000
0#
b101000 $
b101000 9
b10100 ;
b10100 (
b10100 )
b11000110000001110110011 3
b10000 ,
b10000 /
b1100 .
b1100 +
1!
#30000
0!
#35000
0#
b1 $
b1 9
b10 4
b1 5
b1 ;
18
b0 :
b0 (
b0 )
b100000000010100010011 3
b10100 ,
b10100 /
b10010 .
b10000 +
1!
#40000
0!
#45000
b111 $
b111 9
b111 ;
b1110 4
b101000 (
b111 5
b11100000000010110010011 3
b11000 ,
b11000 /
b100010 .
b10100 +
1!
#50000
0!
#55000
0#
b1010 $
b1010 9
0'
10
b0 ;
b0 4
b1 (
b1010 )
b0 5
b101000101011000000100011 3
b11100 ,
b11100 /
b11000 .
b11000 +
1!
#60000
0!
#65000
b10100 $
b10100 9
b111 (
b10100 )
b101100110011000000100011 3
b100000 ,
b100000 /
b11100 .
b11100 +
1!
#70000
0!
#75000
b10 $
0#
b10 9
1'
08
00
b10 :
b1 ;
b0 4
b1 (
b1 )
b0 5
b101001010000010110110011 3
b100100 ,
b100100 /
b100000 .
b100000 +
1!
#80000
0!
#85000
b101001010000010100110011 3
b101000 ,
b101000 /
b100100 .
b100100 +
1!
#90000
0!
#95000
b10 4
b1 5
0'
18
10
b0 :
b101000101011000010100011 3
b1011 $
b101100 ,
b1011 9
b101100 /
b101010 .
b1 ;
b101000 +
b1010 )
b10 (
1!
#100000
0!
#105000
b10101 $
b10101 9
b10100 )
b101100110011000010100011 3
b110000 ,
b110000 /
b101110 .
b101100 +
1!
#110000
0!
#115000
b11 $
b11 9
1'
00
b11 ;
b110 4
b0 (
b0 )
b11 5
b1100000000010100010011 3
b110100 ,
b110100 /
b110110 .
b110000 +
1!
#120000
0!
#125000
b1001 $
b1001 9
b1001 ;
b10010 4
b1001 5
b100100000000010110010011 3
b111000 ,
b111000 /
b1000110 .
b110100 +
1!
#130000
0!
#135000
0#
b1100 $
b1100 9
0'
10
b10 ;
b100 4
b11 (
b1010 )
b10 5
b101000101011000100100011 3
b111100 ,
b111100 /
b111100 .
b111000 +
1!
#140000
0!
#145000
b10110 $
b10110 9
b1001 (
b10100 )
b101100110011000100100011 3
b1000000 ,
b1000000 /
b1000000 .
b111100 +
1!
#150000
0!
#155000
b1010 $
b1010 9
1'
08
00
b10 :
b0 ;
b0 4
b0 (
b1010 )
b0 5
b1100101000101000110011 3
b1000100 ,
b1000100 /
b1000000 .
b1000000 +
1!
#160000
0!
#165000
b10100 $
b10100 9
b10100 )
b1100110000101010110011 3
b1001000 ,
b1001000 /
b1000100 .
b1000100 +
1!
#170000
0!
#175000
b1010 9
b1 $
b1 *
18
b0 :
11
12
b1010 )
b10100011101100000011 3
b1001100 ,
b1001100 /
b1001000 .
b1001000 +
1!
#180000
0!
#185000
b111 $
b111 *
b10100 9
b10100 )
b10101011101110000011 3
b1010000 ,
b1010000 /
b1001100 .
b1001100 +
1!
#190000
0!
#195000
0#
b1000 9
b1000 $
b0 *
08
b10 :
01
02
b111 ;
b0 4
b111 (
b1 )
b0 5
b1011110110000110000110011 3
b1010100 ,
b1010100 /
b1010000 .
b1010000 +
1!
#200000
0!
#205000
b101000 $
b101000 9
b0 ;
b0 (
b101000 )
b1100111000110010110011 3
b1011000 ,
b1011000 /
b1010100 .
b1010100 +
1!
#210000
0!
#215000
0'
18
10
b0 :
b1000 (
b1100011001011000000100011 3
b1011100 ,
b1011100 /
b1011000 .
b1011000 +
1!
#220000
0!
#225000
b1 $
0#
b1 9
1'
00
b1 ;
b10 4
b0 (
b0 )
b1 5
b100011000000110010011 3
b1100000 ,
b1100000 /
b1011110 .
b1011100 +
1!
#230000
0!
#235000
07
b110 -
0'
08
b1 :
16
b101 ;
b1000 4
b101 (
b100 5
b10000011000001001100011 3
b1100100 ,
b1100100 /
b1101000 .
b1111111111111111111111111111111111111111111111111111111111111100 $
0#
b1111111111111111111111111111111111111111111111111111111111111100 9
b1100000 +
b1 )
1!
#240000
0!
#245000
17
1#
1%
b0 $
b0 9
b0 ;
b1111111111111111111111111111111111111111111111111111111111011100 4
b0 (
b0 )
b1111111111111111111111111111111111111111111111111111111111101110 5
b11111110000000000000011111100011 3
b1000000 ,
b1101000 /
b1000000 .
b1100100 +
1!
#250000
0!
#255000
0%
b1011 $
0#
b1011 9
b10 -
07
b1 ;
1'
b10 :
06
b0 4
b1 (
b1010 )
b0 5
b1100101000101000110011 3
b1000100 ,
b1000100 /
b1000000 .
b1000000 +
1!
#260000
0!
#265000
b10101 $
b10101 9
b10100 )
b1100110000101010110011 3
b1001000 ,
b1001000 /
b1000100 .
b1000100 +
1!
#270000
0!
#275000
b1011 9
b10 $
b10 *
b0 ;
18
b0 :
11
12
b0 (
b1011 )
b10100011101100000011 3
b1001100 ,
b1001100 /
b1001000 .
b1001000 +
1!
#280000
0!
#285000
b10101 9
b10101 )
b10101011101110000011 3
b1010000 ,
b1010000 /
b1001100 .
b1001100 +
1!
#290000
0!
#295000
b100 9
b100 $
b0 *
08
b10 :
01
02
b10 ;
b0 4
b10 (
b10 )
b0 5
b1011110110000110000110011 3
b1010100 ,
b1010100 /
b1010000 .
b1010000 +
1!
#300000
0!
#305000
b101001 $
b101001 9
b1 ;
b1 (
b101000 )
b1100111000110010110011 3
b1011000 ,
b1011000 /
b1010100 .
b1010100 +
1!
#310000
0!
#315000
b101001 $
b101001 9
b0 ;
0'
18
10
b0 :
b100 (
b101001 )
b1100011001011000000100011 3
b1011100 ,
b1011100 /
b1011000 .
b1011000 +
1!
#320000
0!
#325000
b10 $
b10 9
1'
00
b1 ;
b10 4
b0 (
b1 )
b1 5
b100011000000110010011 3
b1100000 ,
b1100000 /
b1011110 .
b1011100 +
1!
#330000
0!
#335000
b110 -
0'
08
b1 :
16
b101 ;
b1000 4
b101 (
b100 5
b10000011000001001100011 3
b1100100 ,
b1100100 /
b1101000 .
b1111111111111111111111111111111111111111111111111111111111111101 $
b1111111111111111111111111111111111111111111111111111111111111101 9
b1100000 +
b10 )
1!
#340000
0!
#345000
17
1#
1%
b0 $
b0 9
b0 ;
b1111111111111111111111111111111111111111111111111111111111011100 4
b0 (
b0 )
b1111111111111111111111111111111111111111111111111111111111101110 5
b11111110000000000000011111100011 3
b1000000 ,
b1101000 /
b1000000 .
b1100100 +
1!
#350000
0!
#355000
0%
b1100 $
0#
b1100 9
b10 -
07
b10 ;
1'
b10 :
06
b0 4
b10 (
b1010 )
b0 5
b1100101000101000110011 3
b1000100 ,
b1000100 /
b1000000 .
b1000000 +
1!
#360000
0!
#365000
b10110 $
b10110 9
b10100 )
b1100110000101010110011 3
b1001000 ,
b1001000 /
b1000100 .
b1000100 +
1!
#370000
0!
#375000
b1100 9
b11 $
b11 *
b0 ;
18
b0 :
11
12
b0 (
b1100 )
b10100011101100000011 3
b1001100 ,
b1001100 /
b1001000 .
b1001000 +
1!
#380000
0!
#385000
b1001 $
b1001 *
b10110 9
b10110 )
b10101011101110000011 3
b1010000 ,
b1010000 /
b1001100 .
b1001100 +
1!
#390000
0!
#395000
b1100 9
b1100 $
b0 *
08
b10 :
01
02
b1001 ;
b0 4
b1001 (
b11 )
b0 5
b1011110110000110000110011 3
b1010100 ,
b1010100 /
b1010000 .
b1010000 +
1!
#400000
0!
#405000
b101010 $
b101010 9
b10 ;
b10 (
b101000 )
b1100111000110010110011 3
b1011000 ,
b1011000 /
b1010100 .
b1010100 +
1!
#410000
0!
#415000
b101010 $
b101010 9
b0 ;
0'
18
10
b0 :
b1100 (
b101010 )
b1100011001011000000100011 3
b1011100 ,
b1011100 /
b1011000 .
b1011000 +
1!
#420000
0!
#425000
b11 $
b11 9
1'
00
b1 ;
b10 4
b0 (
b10 )
b1 5
b100011000000110010011 3
b1100000 ,
b1100000 /
b1011110 .
b1011100 +
1!
#430000
0!
#435000
b110 -
0'
08
b1 :
16
b101 ;
b1000 4
b101 (
b100 5
b10000011000001001100011 3
b1100100 ,
0#
b1100100 /
b1101000 .
b1111111111111111111111111111111111111111111111111111111111111110 $
b1111111111111111111111111111111111111111111111111111111111111110 9
b1100000 +
b11 )
1!
#440000
0!
#445000
17
1#
1%
b0 $
b0 9
b0 ;
b1111111111111111111111111111111111111111111111111111111111011100 4
b0 (
b0 )
b1111111111111111111111111111111111111111111111111111111111101110 5
b11111110000000000000011111100011 3
b1000000 ,
b1101000 /
b1000000 .
b1100100 +
1!
#450000
0!
#455000
0%
b1101 $
0#
b1101 9
b10 -
07
b11 ;
1'
b10 :
06
b0 4
b11 (
b1010 )
b0 5
b1100101000101000110011 3
b1000100 ,
b1000100 /
b1000000 .
b1000000 +
1!
#460000
0!
#465000
b10111 $
b10111 9
b10100 )
b1100110000101010110011 3
b1001000 ,
b1001000 /
b1000100 .
b1000100 +
1!
#470000
0!
#475000
b1101 9
b0 $
b0 ;
18
b0 :
11
12
b0 (
b1101 )
b10100011101100000011 3
b1001100 ,
b1001100 /
b1001000 .
b1001000 +
1!
#480000
0!
#485000
b10111 9
b10111 )
b10101011101110000011 3
b1010000 ,
b1010000 /
b1001100 .
b1001100 +
1!
#490000
0!
#495000
1#
b0 9
b0 $
08
b10 :
01
02
b0 ;
b0 4
b0 )
b0 5
b1011110110000110000110011 3
b1010100 ,
b1010100 /
b1010000 .
b1010000 +
1!
#500000
0!
#505000
b101011 $
0#
b101011 9
b11 ;
b11 (
b101000 )
b1100111000110010110011 3
b1011000 ,
b1011000 /
b1010100 .
b1010100 +
1!
#510000
0!
#515000
b101011 $
b101011 9
b0 ;
0'
18
10
b0 :
b0 (
b101011 )
b1100011001011000000100011 3
b1011100 ,
b1011100 /
b1011000 .
b1011000 +
1!
#520000
0!
#525000
0#
b100 $
b100 9
1'
00
b1 ;
b10 4
b11 )
b1 5
b100011000000110010011 3
b1100000 ,
b1100000 /
b1011110 .
b1011100 +
1!
#530000
0!
#535000
b110 -
0'
08
b1 :
16
b101 ;
b1000 4
b101 (
b100 5
b10000011000001001100011 3
b1100100 ,
b1100100 /
b1101000 .
b1111111111111111111111111111111111111111111111111111111111111111 $
b1111111111111111111111111111111111111111111111111111111111111111 9
b1100000 +
b100 )
1!
#540000
0!
#545000
17
1#
1%
b0 $
b0 9
b0 ;
b1111111111111111111111111111111111111111111111111111111111011100 4
b0 (
b0 )
b1111111111111111111111111111111111111111111111111111111111101110 5
b11111110000000000000011111100011 3
b1000000 ,
b1101000 /
b1000000 .
b1100100 +
1!
#550000
0!
#555000
0%
b1110 $
0#
b1110 9
b10 -
07
b100 ;
1'
b10 :
06
b0 4
b100 (
b1010 )
b0 5
b1100101000101000110011 3
b1000100 ,
b1000100 /
b1000000 .
b1000000 +
1!
#560000
0!
#565000
b11000 $
b11000 9
b10100 )
b1100110000101010110011 3
b1001000 ,
b1001000 /
b1000100 .
b1000100 +
1!
#570000
0!
#575000
b1110 9
b0 $
b0 ;
18
b0 :
11
12
b0 (
b1110 )
b10100011101100000011 3
b1001100 ,
b1001100 /
b1001000 .
b1001000 +
1!
#580000
0!
#585000
b11000 9
b11000 )
b10101011101110000011 3
b1010000 ,
b1010000 /
b1001100 .
b1001100 +
1!
#590000
0!
#595000
1#
b0 9
b0 $
08
b10 :
01
02
b0 ;
b0 4
b0 )
b0 5
b1011110110000110000110011 3
b1010100 ,
b1010100 /
b1010000 .
b1010000 +
1!
#600000
0!
#605000
b101100 $
0#
b101100 9
b100 ;
b100 (
b101000 )
b1100111000110010110011 3
b1011000 ,
b1011000 /
b1010100 .
b1010100 +
1!
#610000
0!
#615000
b101100 $
b101100 9
b0 ;
0'
18
10
b0 :
b0 (
b101100 )
b1100011001011000000100011 3
b1011100 ,
b1011100 /
b1011000 .
b1011000 +
1!
#620000
0!
#625000
b101 $
b101 9
1'
00
b1 ;
b10 4
b100 )
b1 5
b100011000000110010011 3
b1100000 ,
b1100000 /
b1011110 .
b1011100 +
1!
#630000
0!
#635000
17
1#
b110 -
0'
08
b1 :
16
b101 ;
b1000 4
b101 (
b100 5
b10000011000001001100011 3
b1101000 ,
b1100100 /
b1101000 .
b0 $
b0 9
b1100000 +
b101 )
1!
#640000
0!
#645000
b1000 $
b1000 *
0#
b101000 9
b10 -
07
b0 ;
1'
18
b0 :
11
12
06
b0 4
b0 (
b101000 )
b0 5
b111011011110000011 3
b1101100 ,
b1101100 /
b1101000 .
b1101000 +
1!
#650000
0!
#655000
b100 $
b100 *
b101001 9
b1 ;
b10 4
b1 5
b100111011100000000011 3
b1110000 ,
b1110000 /
b1101110 .
b1101100 +
1!
#660000
0!
#665000
b1100 $
b1100 *
b101010 9
b10 ;
b100 4
b10 5
b1000111011100010000011 3
b1110100 ,
b1110100 /
b1110100 .
b1110000 +
1!
#670000
0!
#675000
1#
b0 9
b0 $
b0 *
0'
08
01
02
b0 ;
b0 4
b0 )
b0 5
b0 3
b1111000 ,
b1111000 /
b1110100 .
b1110100 +
1!
#680000
0!
#685000
b1111100 ,
b1111100 /
b1111000 .
b1111000 +
1!
#690000
0!
#695000
b10000000 ,
b10000000 /
b1111100 .
b1111100 +
1!
#700000
0!
#705000
b10000100 ,
b10000100 /
b10000000 .
b10000000 +
1!
#710000
0!
#715000
b10001000 ,
b10001000 /
b10000100 .
b10000100 +
1!
#720000
0!
#725000
b10001100 ,
b10001100 /
b10001000 .
b10001000 +
1!
#730000
0!
#735000
b10010000 ,
b10010000 /
b10001100 .
b10001100 +
1!
#740000
0!
#745000
b10010100 ,
b10010100 /
b10010000 .
b10010000 +
1!
#750000
0!
#755000
b10011000 ,
b10011000 /
b10010100 .
b10010100 +
1!
#760000
0!
#765000
b10011100 ,
b10011100 /
b10011000 .
b10011000 +
1!
#770000
0!
#775000
b10100000 ,
b10100000 /
b10011100 .
b10011100 +
1!
#780000
0!
#785000
b10100100 ,
b10100100 /
b10100000 .
b10100000 +
1!
