seq_processor_tb.vcd
$date
	Wed Feb 19 18:58:08 2025
$end
$version
	Icarus Verilog
$end
$timescale
	1ps
$end
$scope module seq_processor_tb $end
$scope module uut $end
$var wire 1 ! clk $end
$var wire 1 " reset $end
$var wire 1 # z_flag $end
$var wire 64 $ write_data [63:0] $end
$var wire 1 % tmp_carry_2 $end
$var wire 1 & tmp_carry $end
$var wire 1 ' reg_write_en $end
$var wire 64 ( read_data2 [63:0] $end
$var wire 64 ) read_data1 [63:0] $end
$var wire 64 * read_data [63:0] $end
$var wire 64 + pc_out [63:0] $end
$var wire 64 , pc_in [63:0] $end
$var wire 4 - op [3:0] $end
$var wire 64 . mux_pc_2 [63:0] $end
$var wire 64 / mux_pc_1 [63:0] $end
$var wire 1 0 mem_write $end
$var wire 1 1 mem_to_reg $end
$var wire 1 2 mem_read $end
$var wire 32 3 instr [31:0] $end
$var wire 64 4 imm_shifted [63:0] $end
$var wire 64 5 imm [63:0] $end
$var wire 1 6 branch $end
$var wire 1 7 and_out $end
$var wire 1 8 alu_src $end
$var wire 64 9 alu_out [63:0] $end
$var wire 2 : alu_op [1:0] $end
$var wire 64 ; alu_in_2 [63:0] $end
$upscope $end
$upscope $end
$enddefinitions $end
$comment Show the parameter values. $end
$dumpall
$end
#0
$dumpvars
b0 ;
b0 :
b0 9
08
07
06
b0 5
b0 4
b0 3
02
01
00
b100 /
b0 .
b10 -
b100 ,
b0 +
b0 *
b0 )
b0 (
0'
0&
0%
b0 $
1#
1"
0!
$end
#5000
1!
#7000
0"
#10000
0!
#15000
b101 $
b1000 ,
0#
b101 9
b1000 /
b1110 .
b1010 4
b101 ;
b101 5
1'
18
b100 +
b10100000000000100010011 3
1!
#20000
0!
#25000
b1010 $
b1100 ,
b1010 9
b1100 /
b11100 .
b1010 ;
b10100 4
b1010 5
b101000000000000110010011 3
b1000 +
1!
#30000
0!
#35000
b10000 ,
b10000 /
b1100 .
b1111 $
b1111 9
08
b10 :
b1010 ;
b0 4
b1010 (
b101 )
b0 5
b1100 +
b1100010000000010110011 3
1!
#40000
0!
#45000
b1111111111111111111111111111111111111111111111111111111111111011 $
b1111111111111111111111111111111111111111111111111111111111111011 9
b10100 ,
b110 -
b10100 /
b10000 .
b1000000001100010000000100110011 3
b10000 +
1!
#50000
0!
#55000
b11000 ,
b11000 /
b10100 .
b0 -
b1010 $
b1010 9
b10100 +
b1100011111001000110011 3
b1010 )
1!
#60000
0!
#65000
b11100 ,
b11100 /
b11000 .
b10000011111001010110011 3
b11000 +
1!
#70000
0!
#75000
b1111111111111111111111111111111111111111111111111111111111111011 $
b100000 ,
b1111111111111111111111111111111111111111111111111111111111111011 9
b100000 /
b11100 .
b1 -
b1111111111111111111111111111111111111111111111111111111111111011 )
b11100 +
b10000010110001100110011 3
1!
#80000
0!
#85000
b100100 ,
b100100 /
b100000 .
b1100010110001110110011 3
b100000 +
1!
#90000
0!
#95000
b101000 ,
b101000 /
b100100 .
1#
b0 $
b10 -
b0 9
b0 ;
0'
b0 :
b0 (
b0 )
b100100 +
b0 3
1!
#100000
0!
#105000
b101100 ,
b101100 /
b101000 .
b101000 +
1!
#110000
0!
#115000
b110000 ,
b110000 /
b101100 .
b101100 +
1!
#120000
0!
#125000
b110100 ,
b110100 /
b110000 .
b110000 +
1!
#130000
0!
#135000
b111000 ,
b111000 /
b110100 .
b110100 +
1!
#140000
0!
#145000
b111100 ,
b111100 /
b111000 .
b111000 +
1!
#150000
0!
#155000
b1000000 ,
b1000000 /
b111100 .
b111100 +
1!
#160000
0!
#165000
b1000100 ,
b1000100 /
b1000000 .
b1000000 +
1!
#170000
0!
#175000
b1001000 ,
b1001000 /
b1000100 .
b1000100 +
1!
#180000
0!
#185000
b1001100 ,
b1001100 /
b1001000 .
b1001000 +
1!
#190000
0!
#195000
b1010000 ,
b1010000 /
b1001100 .
b1001100 +
1!
#200000
0!
#205000
b1010100 ,
b1010100 /
b1010000 .
b1010000 +
1!
