PIPI/pipelined_processor_tb.vcd
$date
	Sat Mar 08 01:29:17 2025
$end
$version
	Icarus Verilog
$end
$timescale
	1ps
$end
$scope module pipelined_processor_tb $end
$scope module uut $end
$var wire 1 ! clk $end
$var wire 1 " reset $end
$var wire 1 # z_flag_EX_MEM $end
$var wire 1 $ z_flag $end
$var wire 64 % write_data [63:0] $end
$var wire 1 & tmp_carry_2 $end
$var wire 1 ' tmp_carry $end
$var wire 5 ( rs2_ID_EX [4:0] $end
$var wire 5 ) rs2_EX_MEM [4:0] $end
$var wire 5 * rs1_ID_EX [4:0] $end
$var wire 1 + reg_write_en_out_mux $end
$var wire 1 , reg_write_en_in_mux $end
$var wire 1 - reg_write_en_MEM_WB $end
$var wire 1 . reg_write_en_ID_EX $end
$var wire 1 / reg_write_en_EX_MEM $end
$var wire 64 0 read_data2_mux [63:0] $end
$var wire 64 1 read_data2_ID_EX [63:0] $end
$var wire 64 2 read_data2 [63:0] $end
$var wire 64 3 read_data1_mux [63:0] $end
$var wire 64 4 read_data1_ID_EX [63:0] $end
$var wire 64 5 read_data1 [63:0] $end
$var wire 64 6 read_data [63:0] $end
$var wire 5 7 rd_MEM_WB [4:0] $end
$var wire 5 8 rd_ID_EX [4:0] $end
$var wire 5 9 rd_EX_MEM [4:0] $end
$var wire 1 : pc_write $end
$var wire 1 ; pc_src $end
$var wire 64 < pc_out [63:0] $end
$var wire 64 = pc_next [63:0] $end
$var wire 64 > pc_in [63:0] $end
$var wire 4 ? op_out_mux [3:0] $end
$var wire 4 @ op_in_mux [3:0] $end
$var wire 4 A op_ID_EX [3:0] $end
$var wire 64 B mux_pc_1 [63:0] $end
$var wire 1 C mem_write_out_mux $end
$var wire 1 D mem_write_in_mux $end
$var wire 1 E mem_write_ID_EX $end
$var wire 1 F mem_write_EX_MEM $end
$var wire 1 G mem_to_reg_out_mux $end
$var wire 1 H mem_to_reg_in_mux $end
$var wire 1 I mem_to_reg_MEM_WB $end
$var wire 1 J mem_to_reg_ID_EX $end
$var wire 1 K mem_to_reg_EX_MEM $end
$var wire 1 L mem_read_out_mux $end
$var wire 1 M mem_read_in_mux $end
$var wire 1 N mem_read_ID_EX $end
$var wire 1 O mem_read_EX_MEM $end
$var wire 1 P ld_sd_sel $end
$var wire 32 Q instr_IF_ID [31:0] $end
$var wire 32 R instr [31:0] $end
$var wire 64 S imm_shifted [63:0] $end
$var wire 64 T imm_ID_EX [63:0] $end
$var wire 64 U imm [63:0] $end
$var wire 2 V forward_B [1:0] $end
$var wire 2 W forward_A [1:0] $end
$var wire 1 X flush $end
$var wire 64 Y data_mem_in [63:0] $end
$var wire 64 Z data_MEM_WB [63:0] $end
$var wire 64 [ data_EX_MEM [63:0] $end
$var wire 1 \ control_mux_sel $end
$var wire 1 ] branch_out_mux $end
$var wire 1 ^ branch_in_mux $end
$var wire 1 _ branch_ID_EX $end
$var wire 1 ` branch_EX_MEM $end
$var wire 1 a alu_src_out_mux $end
$var wire 1 b alu_src_in_mux $end
$var wire 1 c alu_src_ID_EX $end
$var wire 64 d alu_out_MEM_WB [63:0] $end
$var wire 64 e alu_out_EX_MEM [63:0] $end
$var wire 64 f alu_out [63:0] $end
$var wire 2 g alu_op [1:0] $end
$var wire 64 h alu_in_2 [63:0] $end
$var wire 1 i IF_ID_write $end
$var wire 64 j IF_ID_pc_out [63:0] $end
$var wire 64 k ID_EX_pc_out [63:0] $end
$upscope $end
$upscope $end
$enddefinitions $end
$comment Show the parameter values. $end
$dumpall
$end
#0
$dumpvars
b0 k
b0 j
1i
b0 h
b0 g
b0 f
b0 e
b0 d
0c
0b
0a
0`
0_
0^
0]
0\
b0 [
b0 Z
b0 Y
0X
b0 W
b0 V
b0 U
b0 T
b0 S
b1111000000000000010010011 R
b0 Q
0P
0O
0N
0M
0L
0K
0J
0I
0H
0G
0F
0E
0D
0C
b100 B
b0 A
b10 @
b10 ?
b100 >
b0 =
b0 <
0;
1:
b0 9
b0 8
b0 7
b0 6
b0 5
b0 4
b0 3
b0 2
b0 1
b0 0
0/
0.
0-
0,
0+
b0 *
b0 )
b0 (
0'
0&
b0 %
1$
z#
1"
0!
$end
#2000
0"
#5000
b1000 >
b1000 B
1a
1+
b11110 U
1,
1b
b100010011 R
b100 <
b10 A
b1111000000000000010010011 Q
1!
#10000
0!
#15000
b111100 =
b1100 >
b1100 B
0$
b11110 f
b0 U
b111100 S
b11110 0
b100000000000110010011 R
b100 j
b100010011 Q
b11110 T
1c
1.
b1 8
b11110 (
b1000 <
1!
#20000
0!
#25000
b10000 >
b100 =
b10000 B
1$
b0 f
b11000010100110011 R
b0 0
b0 S
b1 U
b1100 <
b11110 )
1/
b1 9
b11110 e
b100 k
b0 T
b10 8
b0 (
b1000 j
b100000000000110010011 Q
1!
#30000
0!
#35000
b10100 >
b1010 =
b10100 B
0a
0$
b1 f
b11110 h
0b
b10 g
b0 U
b1 0
b10 S
b1100010000000100110011 R
b1 V
b11110 %
b1100 j
b11000010100110011 Q
b1000 k
b1 T
b11 8
b1 (
b0 )
b10 9
b0 e
b10000 <
1-
b1 7
b11110 d
1!
#40000
0!
#45000
b11000 >
b11000 B
b1100 =
b1 f
b0 h
b1 3
b0 %
b100011000000110010011 R
b11110 Y
b0 S
b0 0
b10 W
b0 V
b10 7
b0 d
b10100 <
b1 )
b11 9
b11110 [
b1 e
b1100 k
b0 T
0c
b1010 8
b0 (
b11 *
b10000 j
b1100010000000100110011 Q
1!
#50000
0!
#55000
0$
b1 f
b11100 >
b10000 =
b11100 B
b1 0
1a
b1 h
b0 3
b1 U
1b
b0 g
b11110 2
b0 Y
b1000000000100011000001000110011 R
b1 V
b0 W
b1 %
b10100 j
b100011000000110010011 Q
b10000 k
b10 8
b11 (
b10 *
b0 )
b1010 9
b0 [
b11000 <
b11 7
b1 d
1!
#60000
b1 5
0!
#65000
b110 ?
b100000 >
0$
b10 f
b100000 B
b10110 =
b110 @
b11110 h
0a
b1 3
0b
b10 g
b101000100000001001100011 R
b1 Y
b10 S
b0 V
b0 U
b1010 7
b11100 <
b11 )
b10 9
b1 [
b10100 k
b1 T
1c
b11 8
b1 (
b11 *
b11110 1
b1 4
b11000 j
b1000000000100011000001000110011 Q
1!
#70000
0!
#75000
b100100 >
b11000 =
b100100 B
1]
0+
b10 3
b100 U
0,
b1 g
1^
b1 2
b0 5
b0 S
b11110 0
0$
b1111111111111111111111111111111111111111111111111111111111100100 f
b11110 Y
b11111110000000000000110011100011 R
b10 W
b11100 j
b101000100000001001100011 Q
b11000 k
b0 T
0c
b110 A
b100 8
b1 )
b11 9
b11110 [
b10 e
b100000 <
b10 7
1!
#80000
0!
#85000
b101000 >
b1111111111111111111111111111111111111111111111111111111111100011 f
b101000 B
b100100 =
b1 0
b1111111111111111111111111111111111111111111111111111111111100100 3
b1 h
b10 %
b0 R
b1000 S
b10 W
b0 2
b1111111111111111111111111111111111111111111111111111111111111000 U
b11 7
b10 d
b100100 <
b100 9
b1111111111111111111111111111111111111111111111111111111111100100 e
b11100 k
b100 T
1_
0.
b1010 (
b100 *
b1 1
b0 4
b100000 j
b11111110000000000000110011100011 Q
1!
#90000
0!
#95000
1X
1;
1$
1&
b10 ?
b0 f
b10000 >
b10000 =
b101100 B
b10 @
0]
b0 0
b0 g
0^
b0 h
b0 3
b0 U
b1111111111111111111111111111111111111111111111111111111111110000 S
b1 Y
b0 W
b1111111111111111111111111111111111111111111111111111111111100100 %
b100100 j
b0 Q
b100000 k
b1111111111111111111111111111111111111111111111111111111111111000 T
b11001 8
b0 (
b0 *
b0 1
b1010 )
1`
0/
b1 [
b1111111111111111111111111111111111111111111111111111111111100011 e
b101000 <
b100 7
b1111111111111111111111111111111111111111111111111111111111100100 d
1!
#100000
0!
#105000
0&
b0 =
b10100 B
b10100 >
b1111111111111111111111111111111111111111111111111111111111100011 %
b1100010000000100110011 R
b0 Y
b0 S
0;
0X
0-
b1111111111111111111111111111111111111111111111111111111111100011 d
b10000 <
b0 )
b11001 9
b0 [
b0 e
b0 k
b0 T
0_
b0 A
b0 8
b0 j
1!
#110000
0!
#115000
b11000 >
b11000 B
1+
1,
b10 g
b10 2
b1 5
b100011000000110010011 R
b0 %
b10000 j
b1100010000000100110011 Q
b10 A
0`
b0 9
b10100 <
b11001 7
b0 d
1!
#120000
0!
#125000
b11100 >
0$
b11 f
b11100 B
b10000 =
1a
b10 0
b10 h
b1 3
b1 U
1b
b0 g
b1000000000100011000001000110011 R
b11110 2
b10 5
b0 7
b11000 <
b10000 k
1.
b10 8
b11 (
b10 *
b10 1
b1 4
b10100 j
b100011000000110010011 Q
1!
#130000
0!
#135000
b110 ?
b100000 >
b110 @
b10110 =
b100000 B
0a
0b
b10 g
b11110 h
b10 3
b0 U
b10 S
b1 0
b10 Y
b101000100000001001100011 R
b11000 j
b1000000000100011000001000110011 Q
b10100 k
b1 T
1c
b11 8
b1 (
b11 *
b11110 1
b10 4
b11 )
1/
b10 9
b10 [
b11 e
b11100 <
1!
#140000
0!
#145000
b100100 >
b100100 B
b11000 =
1]
0+
b11 3
b100 U
0,
b1 g
1^
b11 %
b11111110000000000000110011100011 R
b10 W
b11110 Y
b0 S
b11110 0
b1111111111111111111111111111111111111111111111111111111111100101 f
b1 2
b1111111111111111111111111111111111111111111111111111111111100100 5
1-
b10 7
b11 d
b100000 <
b1 )
b11 9
b11110 [
b11000 k
b0 T
0c
b110 A
b100 8
b11100 j
b101000100000001001100011 Q
1!
#150000
0!
#155000
b1111111111111111111111111111111111111111111111111111111111100100 f
b101000 >
b100100 =
b101000 B
b1 0
b1 h
b1111111111111111111111111111111111111111111111111111111111100101 3
b0 2
b0 5
b1111111111111111111111111111111111111111111111111111111111111000 U
b1000 S
b0 R
b10 W
b100000 j
b11111110000000000000110011100011 Q
b11100 k
b100 T
1_
0.
b1010 (
b100 *
b1 1
b1111111111111111111111111111111111111111111111111111111111100100 4
b100 9
b1111111111111111111111111111111111111111111111111111111111100101 e
b100100 <
b11 7
1!
#160000
0!
#165000
1X
1;
1$
1&
b10 ?
b10000 >
b0 f
b101100 B
b10000 =
b10 @
0]
b0 0
b0 3
b0 h
b0 g
0^
b1111111111111111111111111111111111111111111111111111111111100101 %
b1 Y
b1111111111111111111111111111111111111111111111111111111111110000 S
b0 W
b0 U
b100 7
b1111111111111111111111111111111111111111111111111111111111100101 d
b101000 <
b1010 )
1`
0/
b1 [
b1111111111111111111111111111111111111111111111111111111111100100 e
b100000 k
b1111111111111111111111111111111111111111111111111111111111111000 T
b11001 8
b0 (
b0 *
b0 1
b0 4
b100100 j
b0 Q
1!
#170000
0!
#175000
0&
b0 =
b10100 B
b10100 >
b0 S
0;
0X
b0 Y
b1100010000000100110011 R
b1111111111111111111111111111111111111111111111111111111111100100 %
b0 j
b0 k
b0 T
0_
b0 A
b0 8
b0 )
b11001 9
b0 [
b0 e
b10000 <
0-
b1111111111111111111111111111111111111111111111111111111111100100 d
1!
#180000
0!
#185000
b11000 >
b11000 B
1+
1,
b10 g
b0 %
b100011000000110010011 R
b11 2
b11 5
b11001 7
b0 d
b10100 <
0`
b0 9
b10 A
b10000 j
b1100010000000100110011 Q
1!
#190000
0!
#195000
0$
b110 f
b11100 >
b10000 =
b11100 B
1a
b11 0
b1 U
1b
b0 g
b11 h
b11 3
b11110 2
b1000000000100011000001000110011 R
b10100 j
b100011000000110010011 Q
b10000 k
1.
b10 8
b11 (
b10 *
b11 1
b11 4
b11000 <
b0 7
1!
#200000
0!
#205000
b110 ?
0$
b100000 >
b100000 B
b10110 =
b110 @
b100 f
0a
b11110 h
0b
b10 g
b101000100000001001100011 R
b11 Y
b10 S
b1 0
b0 U
b11100 <
b11 )
1/
b10 9
b11 [
b110 e
b10100 k
b1 T
1c
b11 8
b1 (
b11 *
b11110 1
b11000 j
b1000000000100011000001000110011 Q
1!
#210000
0!
#215000
b100100 >
b11000 =
b100100 B
1]
0+
b100 3
b100 U
0,
b1 g
1^
b1 2
b1111111111111111111111111111111111111111111111111111111111100101 5
b0 S
b11110 0
b1111111111111111111111111111111111111111111111111111111111100110 f
b11110 Y
b11111110000000000000110011100011 R
b10 W
b110 %
b11100 j
b101000100000001001100011 Q
b11000 k
b0 T
0c
b110 A
b100 8
b1 )
b11 9
b11110 [
b100 e
b100000 <
1-
b10 7
b110 d
1!
#220000
0!
#225000
b101000 >
b1111111111111111111111111111111111111111111111111111111111100101 f
b101000 B
b100100 =
b1 0
b1111111111111111111111111111111111111111111111111111111111100110 3
b1 h
b100 %
b0 R
b1000 S
b10 W
b0 2
b0 5
b1111111111111111111111111111111111111111111111111111111111111000 U
b11 7
b100 d
b100100 <
b100 9
b1111111111111111111111111111111111111111111111111111111111100110 e
b11100 k
b100 T
1_
0.
b1010 (
b100 *
b1 1
b1111111111111111111111111111111111111111111111111111111111100101 4
b100000 j
b11111110000000000000110011100011 Q
1!
#230000
0!
#235000
1X
1;
1$
1&
b10 ?
b0 f
b10000 >
b10000 =
b101100 B
b10 @
0]
b0 0
b0 g
0^
b0 h
b0 3
b0 U
b1111111111111111111111111111111111111111111111111111111111110000 S
b1 Y
b0 W
b1111111111111111111111111111111111111111111111111111111111100110 %
b100100 j
b0 Q
b100000 k
b1111111111111111111111111111111111111111111111111111111111111000 T
b11001 8
b0 (
b0 *
b0 1
b0 4
b1010 )
1`
0/
b1 [
b1111111111111111111111111111111111111111111111111111111111100101 e
b101000 <
b100 7
b1111111111111111111111111111111111111111111111111111111111100110 d
1!
#240000
0!
#245000
0&
b0 =
b10100 B
b10100 >
b1111111111111111111111111111111111111111111111111111111111100101 %
b1100010000000100110011 R
b0 Y
b0 S
0;
0X
0-
b1111111111111111111111111111111111111111111111111111111111100101 d
b10000 <
b0 )
b11001 9
b0 [
b0 e
b0 k
b0 T
0_
b0 A
b0 8
b0 j
1!
#250000
0!
#255000
b11000 >
b11000 B
1+
1,
b10 g
b100 2
b110 5
b100011000000110010011 R
b0 %
b10000 j
b1100010000000100110011 Q
b10 A
0`
b0 9
b10100 <
b11001 7
b0 d
1!
#260000
0!
#265000
b11100 >
0$
b1010 f
b11100 B
b10000 =
1a
b100 0
b100 h
b110 3
b1 U
1b
b0 g
b1000000000100011000001000110011 R
b11110 2
b100 5
b0 7
b11000 <
b10000 k
1.
b10 8
b11 (
b10 *
b100 1
b110 4
b10100 j
b100011000000110010011 Q
1!
#270000
0!
#275000
b110 ?
b100000 >
b110 @
b10110 =
b100000 B
0a
b101 f
0b
b10 g
b11110 h
b100 3
b0 U
b10 S
b1 0
b100 Y
b101000100000001001100011 R
b11000 j
b1000000000100011000001000110011 Q
b10100 k
b1 T
1c
b11 8
b1 (
b11 *
b11110 1
b100 4
b11 )
1/
b10 9
b100 [
b1010 e
b11100 <
1!
#280000
0!
#285000
b100100 >
b100100 B
b11000 =
1]
0+
b101 3
b100 U
0,
b1 g
1^
b1010 %
b11111110000000000000110011100011 R
b10 W
b11110 Y
b0 S
b11110 0
b1111111111111111111111111111111111111111111111111111111111100111 f
b1 2
b1111111111111111111111111111111111111111111111111111111111100110 5
1-
b10 7
b1010 d
b100000 <
b1 )
b11 9
b11110 [
b101 e
b11000 k
b0 T
0c
b110 A
b100 8
b11100 j
b101000100000001001100011 Q
1!
#290000
0!
#295000
b1111111111111111111111111111111111111111111111111111111111100110 f
b101000 >
b100100 =
b101000 B
b1 0
b1 h
b1111111111111111111111111111111111111111111111111111111111100111 3
b0 2
b0 5
b1111111111111111111111111111111111111111111111111111111111111000 U
b1000 S
b0 R
b10 W
b101 %
b100000 j
b11111110000000000000110011100011 Q
b11100 k
b100 T
1_
0.
b1010 (
b100 *
b1 1
b1111111111111111111111111111111111111111111111111111111111100110 4
b100 9
b1111111111111111111111111111111111111111111111111111111111100111 e
b100100 <
b11 7
b101 d
1!
#300000
0!
#305000
1X
1;
1$
1&
b10 ?
b10000 >
b0 f
b101100 B
b10000 =
b10 @
0]
b0 0
b0 3
b0 h
b0 g
0^
b1111111111111111111111111111111111111111111111111111111111100111 %
b1 Y
b1111111111111111111111111111111111111111111111111111111111110000 S
b0 W
b0 U
b100 7
b1111111111111111111111111111111111111111111111111111111111100111 d
b101000 <
b1010 )
1`
0/
b1 [
b1111111111111111111111111111111111111111111111111111111111100110 e
b100000 k
b1111111111111111111111111111111111111111111111111111111111111000 T
b11001 8
b0 (
b0 *
b0 1
b0 4
b100100 j
b0 Q
1!
#310000
0!
#315000
0&
b0 =
b10100 B
b10100 >
b0 S
0;
0X
b0 Y
b1100010000000100110011 R
b1111111111111111111111111111111111111111111111111111111111100110 %
b0 j
b0 k
b0 T
0_
b0 A
b0 8
b0 )
b11001 9
b0 [
b0 e
b10000 <
0-
b1111111111111111111111111111111111111111111111111111111111100110 d
1!
#320000
0!
#325000
b11000 >
b11000 B
1+
1,
b10 g
b0 %
b100011000000110010011 R
b101 2
b1010 5
b11001 7
b0 d
b10100 <
0`
b0 9
b10 A
b10000 j
b1100010000000100110011 Q
1!
#330000
0!
#335000
0$
b1111 f
b11100 >
b10000 =
b11100 B
1a
b101 0
b1 U
1b
b0 g
b101 h
b1010 3
b11110 2
b101 5
b1000000000100011000001000110011 R
b10100 j
b100011000000110010011 Q
b10000 k
1.
b10 8
b11 (
b10 *
b101 1
b1010 4
b11000 <
b0 7
1!
#340000
0!
#345000
b110 ?
b100000 >
b110 f
b100000 B
b10110 =
b110 @
0a
b11110 h
b101 3
0b
b10 g
b101000100000001001100011 R
b101 Y
b10 S
b1 0
b0 U
b11100 <
b11 )
1/
b10 9
b101 [
b1111 e
b10100 k
b1 T
1c
b11 8
b1 (
b11 *
b11110 1
b101 4
b11000 j
b1000000000100011000001000110011 Q
1!
#350000
0!
#355000
b100100 >
b11000 =
b100100 B
1]
0+
b110 3
b100 U
0,
b1 g
1^
b1 2
b1111111111111111111111111111111111111111111111111111111111100111 5
b0 S
b11110 0
b1111111111111111111111111111111111111111111111111111111111101000 f
b11110 Y
b11111110000000000000110011100011 R
b10 W
b1111 %
b11100 j
b101000100000001001100011 Q
b11000 k
b0 T
0c
b110 A
b100 8
b1 )
b11 9
b11110 [
b110 e
b100000 <
1-
b10 7
b1111 d
1!
#360000
0!
#365000
b101000 >
b1111111111111111111111111111111111111111111111111111111111100111 f
b101000 B
b100100 =
b1 0
b1111111111111111111111111111111111111111111111111111111111101000 3
b1 h
b110 %
b0 R
b1000 S
b10 W
b0 2
b0 5
b1111111111111111111111111111111111111111111111111111111111111000 U
b11 7
b110 d
b100100 <
b100 9
b1111111111111111111111111111111111111111111111111111111111101000 e
b11100 k
b100 T
1_
0.
b1010 (
b100 *
b1 1
b1111111111111111111111111111111111111111111111111111111111100111 4
b100000 j
b11111110000000000000110011100011 Q
1!
#370000
0!
#375000
1X
1;
1$
1&
b10 ?
b0 f
b10000 >
b10000 =
b101100 B
b10 @
0]
b0 0
b0 g
0^
b0 h
b0 3
b0 U
b1111111111111111111111111111111111111111111111111111111111110000 S
b1 Y
b0 W
b1111111111111111111111111111111111111111111111111111111111101000 %
b100100 j
b0 Q
b100000 k
b1111111111111111111111111111111111111111111111111111111111111000 T
b11001 8
b0 (
b0 *
b0 1
b0 4
b1010 )
1`
0/
b1 [
b1111111111111111111111111111111111111111111111111111111111100111 e
b101000 <
b100 7
b1111111111111111111111111111111111111111111111111111111111101000 d
1!
#380000
0!
#385000
0&
b0 =
b10100 B
b10100 >
b1111111111111111111111111111111111111111111111111111111111100111 %
b1100010000000100110011 R
b0 Y
b0 S
0;
0X
0-
b1111111111111111111111111111111111111111111111111111111111100111 d
b10000 <
b0 )
b11001 9
b0 [
b0 e
b0 k
b0 T
0_
b0 A
b0 8
b0 j
1!
#390000
0!
#395000
b11000 >
b11000 B
1+
1,
b10 g
b110 2
b1111 5
b100011000000110010011 R
b0 %
b10000 j
b1100010000000100110011 Q
b10 A
0`
b0 9
b10100 <
b11001 7
b0 d
1!
#400000
0!
#405000
b11100 >
0$
b10101 f
b11100 B
b10000 =
1a
b110 0
b110 h
b1111 3
b1 U
1b
b0 g
b1000000000100011000001000110011 R
b11110 2
b110 5
b0 7
b11000 <
b10000 k
1.
b10 8
b11 (
b10 *
b110 1
b1111 4
b10100 j
b100011000000110010011 Q
1!
#410000
0!
#415000
b110 ?
b100000 >
b110 @
b10110 =
b100000 B
0a
b111 f
0b
b10 g
b11110 h
b110 3
b0 U
b10 S
b1 0
b110 Y
b101000100000001001100011 R
b11000 j
b1000000000100011000001000110011 Q
b10100 k
b1 T
1c
b11 8
b1 (
b11 *
b11110 1
b110 4
b11 )
1/
b10 9
b110 [
b10101 e
b11100 <
1!
#420000
0!
#425000
b100100 >
b100100 B
b11000 =
1]
0+
b111 3
b100 U
0,
b1 g
1^
b10101 %
b11111110000000000000110011100011 R
b10 W
b11110 Y
b0 S
b11110 0
b1111111111111111111111111111111111111111111111111111111111101001 f
b1 2
b1111111111111111111111111111111111111111111111111111111111101000 5
1-
b10 7
b10101 d
b100000 <
b1 )
b11 9
b11110 [
b111 e
b11000 k
b0 T
0c
b110 A
b100 8
b11100 j
b101000100000001001100011 Q
1!
#430000
0!
#435000
b1111111111111111111111111111111111111111111111111111111111101000 f
b101000 >
b100100 =
b101000 B
b1 0
b1 h
b1111111111111111111111111111111111111111111111111111111111101001 3
b0 2
b0 5
b1111111111111111111111111111111111111111111111111111111111111000 U
b1000 S
b0 R
b10 W
b111 %
b100000 j
b11111110000000000000110011100011 Q
b11100 k
b100 T
1_
0.
b1010 (
b100 *
b1 1
b1111111111111111111111111111111111111111111111111111111111101000 4
b100 9
b1111111111111111111111111111111111111111111111111111111111101001 e
b100100 <
b11 7
b111 d
1!
#440000
0!
#445000
1X
1;
1$
1&
b10 ?
b10000 >
b0 f
b101100 B
b10000 =
b10 @
0]
b0 0
b0 3
b0 h
b0 g
0^
b1111111111111111111111111111111111111111111111111111111111101001 %
b1 Y
b1111111111111111111111111111111111111111111111111111111111110000 S
b0 W
b0 U
b100 7
b1111111111111111111111111111111111111111111111111111111111101001 d
b101000 <
b1010 )
1`
0/
b1 [
b1111111111111111111111111111111111111111111111111111111111101000 e
b100000 k
b1111111111111111111111111111111111111111111111111111111111111000 T
b11001 8
b0 (
b0 *
b0 1
b0 4
b100100 j
b0 Q
1!
#450000
0!
#455000
0&
b0 =
b10100 B
b10100 >
b0 S
0;
0X
b0 Y
b1100010000000100110011 R
b1111111111111111111111111111111111111111111111111111111111101000 %
b0 j
b0 k
b0 T
0_
b0 A
b0 8
b0 )
b11001 9
b0 [
b0 e
b10000 <
0-
b1111111111111111111111111111111111111111111111111111111111101000 d
1!
#460000
0!
#465000
b11000 >
b11000 B
1+
1,
b10 g
b0 %
b100011000000110010011 R
b111 2
b10101 5
b11001 7
b0 d
b10100 <
0`
b0 9
b10 A
b10000 j
b1100010000000100110011 Q
1!
#470000
0!
#475000
0$
b11100 f
b11100 >
b10000 =
b11100 B
1a
b111 0
b1 U
1b
b0 g
b111 h
b10101 3
b11110 2
b111 5
b1000000000100011000001000110011 R
b10100 j
b100011000000110010011 Q
b10000 k
1.
b10 8
b11 (
b10 *
b111 1
b10101 4
b11000 <
b0 7
1!
#480000
0!
#485000
b110 ?
0$
b100000 >
b100000 B
b10110 =
b110 @
b1000 f
0a
b11110 h
b111 3
0b
b10 g
b101000100000001001100011 R
b111 Y
b10 S
b1 0
b0 U
b11100 <
b11 )
1/
b10 9
b111 [
b11100 e
b10100 k
b1 T
1c
b11 8
b1 (
b11 *
b11110 1
b111 4
b11000 j
b1000000000100011000001000110011 Q
1!
#490000
0!
#495000
b100100 >
b11000 =
b100100 B
1]
0+
b1000 3
b100 U
0,
b1 g
1^
b1 2
b1111111111111111111111111111111111111111111111111111111111101001 5
b0 S
b11110 0
b1111111111111111111111111111111111111111111111111111111111101010 f
b11110 Y
b11111110000000000000110011100011 R
b10 W
b11100 %
b11100 j
b101000100000001001100011 Q
b11000 k
b0 T
0c
b110 A
b100 8
b1 )
b11 9
b11110 [
b1000 e
b100000 <
1-
b10 7
b11100 d
1!
#500000
0!
#505000
b101000 >
b1111111111111111111111111111111111111111111111111111111111101001 f
b101000 B
b100100 =
b1 0
b1111111111111111111111111111111111111111111111111111111111101010 3
b1 h
b1000 %
b0 R
b1000 S
b10 W
b0 2
b0 5
b1111111111111111111111111111111111111111111111111111111111111000 U
b11 7
b1000 d
b100100 <
b100 9
b1111111111111111111111111111111111111111111111111111111111101010 e
b11100 k
b100 T
1_
0.
b1010 (
b100 *
b1 1
b1111111111111111111111111111111111111111111111111111111111101001 4
b100000 j
b11111110000000000000110011100011 Q
1!
#510000
0!
#515000
1X
1;
1$
1&
b10 ?
b0 f
b10000 >
b10000 =
b101100 B
b10 @
0]
b0 0
b0 g
0^
b0 h
b0 3
b0 U
b1111111111111111111111111111111111111111111111111111111111110000 S
b1 Y
b0 W
b1111111111111111111111111111111111111111111111111111111111101010 %
b100100 j
b0 Q
b100000 k
b1111111111111111111111111111111111111111111111111111111111111000 T
b11001 8
b0 (
b0 *
b0 1
b0 4
b1010 )
1`
0/
b1 [
b1111111111111111111111111111111111111111111111111111111111101001 e
b101000 <
b100 7
b1111111111111111111111111111111111111111111111111111111111101010 d
1!
#520000
0!
#525000
0&
b0 =
b10100 B
b10100 >
b1111111111111111111111111111111111111111111111111111111111101001 %
b1100010000000100110011 R
b0 Y
b0 S
0;
0X
0-
b1111111111111111111111111111111111111111111111111111111111101001 d
b10000 <
b0 )
b11001 9
b0 [
b0 e
b0 k
b0 T
0_
b0 A
b0 8
b0 j
1!
#530000
0!
#535000
b11000 >
b11000 B
1+
1,
b10 g
b1000 2
b11100 5
b100011000000110010011 R
b0 %
b10000 j
b1100010000000100110011 Q
b10 A
0`
b0 9
b10100 <
b11001 7
b0 d
1!
#540000
0!
#545000
b11100 >
0$
b100100 f
b11100 B
b10000 =
1a
b1000 0
b1000 h
b11100 3
b1 U
1b
b0 g
b1000000000100011000001000110011 R
b11110 2
b1000 5
b0 7
b11000 <
b10000 k
1.
b10 8
b11 (
b10 *
b1000 1
b11100 4
b10100 j
b100011000000110010011 Q
1!
#550000
0!
#555000
b110 ?
b100000 >
b110 @
b10110 =
b100000 B
0a
b1001 f
0b
b10 g
b11110 h
b1000 3
b0 U
b10 S
b1 0
b1000 Y
b101000100000001001100011 R
b11000 j
b1000000000100011000001000110011 Q
b10100 k
b1 T
1c
b11 8
b1 (
b11 *
b11110 1
b1000 4
b11 )
1/
b10 9
b1000 [
b100100 e
b11100 <
1!
#560000
0!
#565000
b100100 >
b100100 B
b11000 =
1]
0+
b1001 3
b100 U
0,
b1 g
1^
b100100 %
b11111110000000000000110011100011 R
b10 W
b11110 Y
b0 S
b11110 0
b1111111111111111111111111111111111111111111111111111111111101011 f
b1 2
b1111111111111111111111111111111111111111111111111111111111101010 5
1-
b10 7
b100100 d
b100000 <
b1 )
b11 9
b11110 [
b1001 e
b11000 k
b0 T
0c
b110 A
b100 8
b11100 j
b101000100000001001100011 Q
1!
#570000
0!
#575000
b1111111111111111111111111111111111111111111111111111111111101010 f
b101000 >
b100100 =
b101000 B
b1 0
b1 h
b1111111111111111111111111111111111111111111111111111111111101011 3
b0 2
b0 5
b1111111111111111111111111111111111111111111111111111111111111000 U
b1000 S
b0 R
b10 W
b1001 %
b100000 j
b11111110000000000000110011100011 Q
b11100 k
b100 T
1_
0.
b1010 (
b100 *
b1 1
b1111111111111111111111111111111111111111111111111111111111101010 4
b100 9
b1111111111111111111111111111111111111111111111111111111111101011 e
b100100 <
b11 7
b1001 d
1!
#580000
0!
#585000
1X
1;
1$
1&
b10 ?
b10000 >
b0 f
b101100 B
b10000 =
b10 @
0]
b0 0
b0 3
b0 h
b0 g
0^
b1111111111111111111111111111111111111111111111111111111111101011 %
b1 Y
b1111111111111111111111111111111111111111111111111111111111110000 S
b0 W
b0 U
b100 7
b1111111111111111111111111111111111111111111111111111111111101011 d
b101000 <
b1010 )
1`
0/
b1 [
b1111111111111111111111111111111111111111111111111111111111101010 e
b100000 k
b1111111111111111111111111111111111111111111111111111111111111000 T
b11001 8
b0 (
b0 *
b0 1
b0 4
b100100 j
b0 Q
1!
#590000
0!
#595000
0&
b0 =
b10100 B
b10100 >
b0 S
0;
0X
b0 Y
b1100010000000100110011 R
b1111111111111111111111111111111111111111111111111111111111101010 %
b0 j
b0 k
b0 T
0_
b0 A
b0 8
b0 )
b11001 9
b0 [
b0 e
b10000 <
0-
b1111111111111111111111111111111111111111111111111111111111101010 d
1!
#600000
0!
#605000
b11000 >
b11000 B
1+
1,
b10 g
b0 %
b100011000000110010011 R
b1001 2
b100100 5
b11001 7
b0 d
b10100 <
0`
b0 9
b10 A
b10000 j
b1100010000000100110011 Q
1!
#610000
0!
#615000
0$
b101101 f
b11100 >
b10000 =
b11100 B
1a
b1001 0
b1 U
1b
b0 g
b1001 h
b100100 3
b11110 2
b1001 5
b1000000000100011000001000110011 R
b10100 j
b100011000000110010011 Q
b10000 k
1.
b10 8
b11 (
b10 *
b1001 1
b100100 4
b11000 <
b0 7
1!
#620000
0!
#625000
b110 ?
b100000 >
b1010 f
b100000 B
b10110 =
b110 @
0a
b11110 h
b1001 3
0b
b10 g
b101000100000001001100011 R
b1001 Y
b10 S
b1 0
b0 U
b11100 <
b11 )
1/
b10 9
b1001 [
b101101 e
b10100 k
b1 T
1c
b11 8
b1 (
b11 *
b11110 1
b1001 4
b11000 j
b1000000000100011000001000110011 Q
1!
#630000
0!
