PIPI/pipelined_processor_tb.vcd
$date
	Fri Mar  7 18:09:15 2025
$end
$version
	Icarus Verilog
$end
$timescale
	1ps
$end
$scope module pipelined_processor_tb $end
$scope module uut $end
$var wire 64 ! IF_ID_pc_out [63:0] $end
$var wire 1 " IF_ID_write $end
$var wire 1 # clk $end
$var wire 1 $ control_mux_sel $end
$var wire 1 % flush $end
$var wire 1 & pc_write $end
$var wire 1 ' reset $end
$var wire 1 ( z_flag_EX_MEM $end
$var wire 1 ) z_flag $end
$var wire 64 * write_data [63:0] $end
$var wire 1 + tmp_carry_2 $end
$var wire 1 , tmp_carry $end
$var wire 5 - rs2_ID_EX [4:0] $end
$var wire 5 . rs2_EX_MEM [4:0] $end
$var wire 5 / rs1_ID_EX [4:0] $end
$var wire 1 0 reg_write_en_out_mux $end
$var wire 1 1 reg_write_en_in_mux $end
$var wire 1 2 reg_write_en_MEM_WB $end
$var wire 1 3 reg_write_en_ID_EX $end
$var wire 1 4 reg_write_en_EX_MEM $end
$var wire 64 5 read_data2_mux [63:0] $end
$var wire 64 6 read_data2_ID_EX [63:0] $end
$var wire 64 7 read_data2 [63:0] $end
$var wire 64 8 read_data1_mux [63:0] $end
$var wire 64 9 read_data1_ID_EX [63:0] $end
$var wire 64 : read_data1 [63:0] $end
$var wire 64 ; read_data [63:0] $end
$var wire 5 < rd_MEM_WB [4:0] $end
$var wire 5 = rd_ID_EX [4:0] $end
$var wire 5 > rd_EX_MEM [4:0] $end
$var wire 1 ? pc_src $end
$var wire 64 @ pc_out [63:0] $end
$var wire 64 A pc_next_EX_MEM [63:0] $end
$var wire 64 B pc_next [63:0] $end
$var wire 64 C pc_in [63:0] $end
$var wire 4 D op_out_mux [3:0] $end
$var wire 4 E op_in_mux [3:0] $end
$var wire 4 F op_ID_EX [3:0] $end
$var wire 64 G mux_pc_1 [63:0] $end
$var wire 1 H mem_write_out_mux $end
$var wire 1 I mem_write_in_mux $end
$var wire 1 J mem_write_ID_EX $end
$var wire 1 K mem_write_EX_MEM $end
$var wire 1 L mem_to_reg_out_mux $end
$var wire 1 M mem_to_reg_in_mux $end
$var wire 1 N mem_to_reg_MEM_WB $end
$var wire 1 O mem_to_reg_ID_EX $end
$var wire 1 P mem_to_reg_EX_MEM $end
$var wire 1 Q mem_read_out_mux $end
$var wire 1 R mem_read_in_mux $end
$var wire 1 S mem_read_ID_EX $end
$var wire 1 T mem_read_EX_MEM $end
$var wire 1 U ld_sd_sel $end
$var wire 32 V instr_IF_ID [31:0] $end
$var wire 32 W instr [31:0] $end
$var wire 64 X imm_shifted [63:0] $end
$var wire 64 Y imm_ID_EX [63:0] $end
$var wire 64 Z imm [63:0] $end
$var wire 2 [ forward_B [1:0] $end
$var wire 2 \ forward_A [1:0] $end
$var wire 64 ] data_mem_in [63:0] $end
$var wire 64 ^ data_MEM_WB [63:0] $end
$var wire 64 _ data_EX_MEM [63:0] $end
$var wire 1 ` branch_out_mux $end
$var wire 1 a branch_in_mux $end
$var wire 1 b branch_ID_EX $end
$var wire 1 c branch_EX_MEM $end
$var wire 1 d alu_src_out_mux $end
$var wire 1 e alu_src_in_mux $end
$var wire 1 f alu_src_ID_EX $end
$var wire 64 g alu_out_MEM_WB [63:0] $end
$var wire 64 h alu_out_EX_MEM [63:0] $end
$var wire 64 i alu_out [63:0] $end
$var wire 2 j alu_op [1:0] $end
$var wire 64 k alu_in_2 [63:0] $end
$var wire 64 l ID_EX_pc_out [63:0] $end
$upscope $end
$upscope $end
$enddefinitions $end
$comment Show the parameter values. $end
$dumpall
$end
#0
$dumpvars
b0 l
b0 k
b0 j
b0 i
b0 h
b0 g
0f
0e
0d
0c
0b
0a
0`
b0 _
b0 ^
b0 ]
b0 \
b0 [
b0 Z
b0 Y
b0 X
b11111100000000001010010011 W
b0 V
0U
0T
0S
0R
0Q
0P
0O
0N
0M
0L
0K
0J
0I
0H
b100 G
b0 F
b10 E
b10 D
b100 C
b0 B
b0 A
b0 @
0?
b0 >
b0 =
b0 <
b0 ;
b0 :
b0 9
b0 8
b0 7
b0 6
b0 5
04
03
02
01
00
b0 /
b0 .
b0 -
0,
0+
b0 *
1)
0(
1'
1&
z%
0$
0#
1"
bz !
$end
#2000
0'
#5000
b1000 C
b1000 G
10
1d
b111111 Z
11
1e
b10100101000001010110011 W
b100 @
1(
b11111100000000001010010011 V
1#
#10000
x+
bx B
0)
b111111 i
b1111110 X
b111111 5
bz l
b111111 Y
1f
b10 F
13
b101 =
b11111 -
0#
#15000
b1100 C
b1100 G
0d
0e
b10 j
b0 Z
b1000000010100000000001100110011 W
b10100101000001010110011 V
b11111 .
b0x A
0(
14
b101 >
b111111 h
b1000 @
1#
#20000
0+
0)
b1111110 i
b111111 k
b111111 8
b0 X
b111111 5
b10 [
b10 \
b0 Y
0f
b101 -
b101 /
0#
#25000
b110 D
b10000 C
b11111100 i
b10000 G
b110 E
b1111110 5
b1111110 k
b1111110 8
b10 [
b10 \
b111111 *
b11000000011100010100011 W
b111111 ]
12
b101 <
b111111 g
b1100 @
b101 .
b111111 _
b1111110 h
b1000000010100000000001100110011 V
1#
#30000
b0 8
0)
b1111111111111111111111111111111111111111111111111111111110000010 i
b10 [
b0 \
b110 F
b110 =
b0 /
0#
#35000
b1111111111111111111111111111111111111111111111111111111110000010 i
b10 D
b10100 C
b10 E
b10100 G
00
1d
1H
b1111110 5
b10001 Z
01
1e
1I
b0 j
b1111110 k
b1 [
b1111110 ]
b1000100000011001110000011 W
b1111110 *
b11000000011100010100011 V
b0 7
b110 >
b1111110 _
b1111111111111111111111111111111111111111111111111111111110000010 h
b10000 @
b1111110 g
1#
#40000
x+
b1111111111111111111111111111111111111111111111111111111110000010 k
b100010 X
b10001 5
b10001 i
b10 [
b10001 Y
1f
1J
b10 F
03
b10001 =
b110 -
0#
#45000
b11000 C
b11000 G
10
0H
1L
1Q
b1111111111111111111111111111111111111111111111111111111110000010 k
11
0I
1M
1R
b1111111111111111111111111111111111111111111111111111111110000010 *
b10100101000010000110011 W
b1 [
b1111111111111111111111111111111111111111111111111111111110000010 ]
b10001 Z
b110 <
b1111111111111111111111111111111111111111111111111111111110000010 g
b10100 @
b110 .
1K
04
b10001 >
b1111111111111111111111111111111111111111111111111111111110000010 _
b10001 h
b1000100000011001110000011 V
1#
#50000
b0 k
b0 [
0J
13
1O
1S
b111 =
b10001 -
0#
#55000
b11100 C
b11100 G
0d
0L
0Q
0e
b10 j
0M
0R
b1111110 7
b1111110 :
b0 Z
b0 ]
b11101000011000000100011 W
b1111111111111111111111111111111111111111111111111111111110000010 ;
b10001 *
b10100101000010000110011 V
b10001 .
0K
14
1P
1T
b111 >
b0 _
b11000 @
02
b10001 <
b10001 g
1#
#60000
0+
0)
b11111100 i
b1111110 k
b1111110 8
b0 X
b1111110 5
b0 Y
0f
0O
0S
b1000 =
b101 -
b101 /
b1111110 6
b1111110 9
0#
#65000
b100000 C
b100000 G
00
1d
1H
01
1e
1I
b0 j
b1111111111111111111111111111111111111111111111111111111110000010 *
b1000011010010000011 W
b0 ;
b1111110 ]
b0 7
b0 :
12
1N
b111 <
b1111111111111111111111111111111111111111111111111111111110000010 ^
b11100 @
b101 .
0P
0T
b1000 >
b1111110 _
b11111100 h
b11101000011000000100011 V
1#
#70000
b1111111111111111111111111111111111111111111111111111111110000010 k
b11111100 8
b0 5
b1 [
b10 \
1f
1J
03
b0 =
b111 -
b1000 /
b0 6
b0 9
0#
#75000
0)
b11111100 i
b100100 C
b100100 G
10
0H
1L
1Q
b11111100 8
b0 k
11
0I
1M
1R
b0 Z
b1111111111111111111111111111111111111111111111111111111110000010 ]
b1000100000000010100010011 W
b0 [
b1 \
b11111100 *
b1000011010010000011 V
b0 7
b111 .
1K
04
b0 >
b1111111111111111111111111111111111111111111111111111111110000010 _
b100000 @
0N
b1000 <
b0 ^
b11111100 g
1#
#80000
b1 \
0J
13
1O
1S
b1001 =
b0 -
0#
#85000
1)
b0 i
b101000 C
b101000 G
b0 8
0L
0Q
0M
0R
b1010000010110110011 W
b1111111111111111111111111111111111111111111111111111111110000010 ;
b0 \
b0 ]
b10001 Z
02
b0 <
b100100 @
b0 .
0K
14
1P
1T
b1001 >
b0 _
b0 :
b1000100000000010100010011 V
1#
#90000
x+
0)
b10001 i
b10001 5
b100010 X
b10001 Y
0O
0S
b1010 =
b10001 -
b0 /
0#
#95000
b101100 C
b101100 G
0d
0e
b10 j
b0 Z
b0 ;
b1011011011000000011 W
b1111111111111111111111111111111111111111111111111111111110000010 *
b1010000010110110011 V
b10001 .
0P
0T
b1010 >
b10001 h
b101000 @
12
1N
b1001 <
b1111111111111111111111111111111111111111111111111111111110000010 ^
1#
#100000
0+
0)
b10001 i
b10001 8
b0 X
b0 5
b10 \
b0 Y
0f
b1011 =
b0 -
b1010 /
0#
#105000
0)
b10001 i
b110000 C
b110000 G
b10001 8
1d
1L
1Q
1e
b0 j
1M
1R
b10001 *
b10100101000011010110011 W
b1 \
0N
b1010 <
b0 ^
b10001 g
b101100 @
b0 .
b1011 >
b1011011011000000011 V
1#
#110000
b10 \
1f
1O
1S
b1100 =
b1011 /
0#
#115000
0)
b10001 i
b110100 C
b110100 G
0d
0L
0Q
b10001 8
0e
b10 j
0M
0R
b1111110 7
b1111110 :
b0 Z
b1111111111111111111111111111111111111111111111111111111110000010 ;
b11111111111100000000111110010011 W
b1 \
b10100101000011010110011 V
1P
1T
b1100 >
b110000 @
b1011 <
1#
#120000
b11111100 i
b1111110 8
b1111110 5
b1111110 k
b0 \
0f
0O
0S
b1101 =
b101 -
b101 /
b1111110 6
b1111110 9
0#
#125000
b111000 C
b111000 G
1d
b1111111111111111111111111111111111111111111111111111111111111111 Z
1e
b0 j
b1111111111111111111111111111111111111111111111111111111110000010 *
b110101101000011100110011 W
b0 ;
b1111110 ]
b0 7
b0 :
1N
b1100 <
b1111111111111111111111111111111111111111111111111111111110000010 ^
b110100 @
b101 .
0P
0T
b1101 >
b1111110 _
b11111100 h
b11111111111100000000111110010011 V
1#
#130000
x+
b1111111111111111111111111111111111111111111111111111111111111111 i
b0 k
b0 8
b1111111111111111111111111111111111111111111111111111111111111110 X
b1111111111111111111111111111111111111111111111111111111111111111 5
b1111111111111111111111111111111111111111111111111111111111111111 Y
1f
b11111 =
b11111 -
b0 /
b0 6
b0 9
0#
#135000
b111100 C
b111100 G
0d
b1111111111111111111111111111111111111111111111111111111111111111 k
0e
b10 j
b0 Z
b0 ]
b1000000010101000000011110110011 W
b10 [
b11111100 *
b110101101000011100110011 V
b11111 .
b11111 >
b0 _
b1111111111111111111111111111111111111111111111111111111111111111 h
b111000 @
0N
b1101 <
b0 ^
b11111100 g
1#
#140000
0+
0)
b111111000 i
b11111100 8
b11111100 5
b11111100 k
b0 X
b1 \
b1 [
b0 Y
0f
b1110 =
b1101 -
b1101 /
0#
#145000
1)
b0 i
b110 D
b1000000 C
b1000000 G
b110 E
b0 5
b0 k
b0 8
b1111111111111111111111111111111111111111111111111111111111111111 *
b111001111000100000110011 W
b0 [
b0 \
b11111100 ]
b11111 <
b1111111111111111111111111111111111111111111111111111111111111111 g
b111100 @
b1101 .
b1110 >
b11111100 _
b111111000 h
b11111100 :
b1111110 7
b1000000010101000000011110110011 V
1#
#150000
0)
b1111110 i
b1111110 5
b1111110 k
b11111100 8
b110 F
b1111 =
b101 -
b1000 /
b1111110 6
b11111100 9
0#
#155000
b10 D
b1000100 C
b10 E
b1000100 G
b0 7
b0 :
b1111110 ]
b111101110000100010110011 W
b111111000 *
b111001111000100000110011 V
b101 .
b1111 >
b1111110 _
b1111110 h
b1000000 @
b1110 <
b111111000 g
1#
#160000
b111111000 5
b111111000 k
b1111110 8
b1001110110 i
b1 [
b10 \
b10 F
b10000 =
b1110 -
b1111 /
b0 6
b0 9
0#
#165000
b1001000 C
b1111110 i
b1001000 G
b0 5
b0 k
b1111110 8
b1111110 *
b1000110000000100100110011 W
b0 [
b1 \
b111111000 ]
b111111000 :
b1111 <
b1111110 g
b1000100 @
b1110 .
b10000 >
b111111000 _
b1001110110 h
b0 7
b111101110000100010110011 V
1#
#170000
b1001110110 i
b1111110 5
b1111110 k
b111111000 8
b1 [
b0 \
b10001 =
b1111 -
b1110 /
b111111000 9
0#
#175000
b111111000 i
b1001100 C
b1001100 G
b0 5
b0 k
b0 :
b1111110 ]
b1000110010000100100110011 W
b0 [
b1001110110 *
b1000110000000100100110011 V
b0 7
b1111 .
b10001 >
b1111110 _
b1001000 @
b10000 <
b1001110110 g
1#
#180000
0)
b10011101100 i
b1001110110 5
b1001110110 k
b1001110110 8
b10 [
b1 \
b10010 =
b10001 -
b10000 /
b0 9
0#
#185000
b1010000 C
b1001110110 i
b1010000 G
b0 8
b1001110110 5
b1001110110 k
b10010000100110110011 W
b1 [
b0 \
b1001110110 ]
b10001 <
b1001100 @
b10001 .
b10010 >
b1001110110 _
b10011101100 h
b0 :
b1000110010000100100110011 V
1#
#190000
b11101100010 i
b10011101100 8
b10 \
b1 [
b10010 /
0#
#195000
b11101100010 i
b1010100 C
b1010100 G
b0 5
b0 k
b11101100010 8
b1011011101000000011 W
b0 [
b10 \
b10011101100 *
b10010000100110110011 V
b0 7
b11101100010 h
b1010000 @
b10010 <
b10011101100 g
1#
#200000
b10 \
b10011 =
b0 -
0#
#205000
0)
b11101100010 i
b1011000 C
b1011000 G
b11101100010 8
1d
1L
1Q
1e
b0 j
1M
1R
b11101100010 *
b111010001011011110010100011 W
b1 \
b0 ]
b11101100010 g
b1010100 @
b0 .
b10011 >
b0 _
b10001 :
b1011011101000000011 V
1#
#210000
b10001 i
b10001 8
b0 \
1f
1O
1S
b10100 =
b1011 /
b10001 9
0#
#215000
b1011100 C
b1011100 G
00
1H
0L
0Q
01
1I
0M
0R
b1111001 Z
b1111111111111111111111111111111111111111111111111111111110000010 ;
b111100101011011101010000011 W
b111010001011011110010100011 V
1P
1T
b10100 >
b10001 h
b1011000 @
b10011 <
1#
#220000
x+
b10001010 i
b10001 k
b1111001 5
b11110010 X
b10 [
b1111001 Y
1J
03
0O
0S
b11001 =
b10100 -
0#
#225000
b1100000 C
b1100000 G
10
0H
1L
1Q
b1111111111111111111111111111111111111111111111111111111110000010 k
11
0I
1M
1R
b1111111111111111111111111111111111111111111111111111111110000010 *
b0 W
1U
b0 ;
b1 [
b1111111111111111111111111111111111111111111111111111111110000010 ]
b1111001 Z
1N
b10100 <
b1111111111111111111111111111111111111111111111111111111110000010 ^
b10001 g
b1011100 @
b10100 .
1K
04
0P
0T
b11001 >
b10001 _
b10001010 h
b111100101011011101010000011 V
1#
#230000
b0 k
b0 [
0J
13
1O
1S
b10101 =
b11001 -
0#
#235000
b1100100 C
b1100100 G
00
0d
0L
0Q
01
0e
0M
0R
b0 :
b0 Z
b1111111111111111111111111111111111111111111111111111111110000010 ;
0U
b0 ]
b10001010 *
b0 V
b11001 .
0K
14
1P
1T
b10101 >
b0 _
b1100000 @
02
0N
b11001 <
b0 ^
b10001010 g
1#
#240000
0+
1)
b0 i
b0 8
b0 X
b0 5
b0 Y
0f
03
0O
0S
b0 =
b0 -
b0 /
b0 9
0#
#245000
b1101000 C
b1101000 G
b1111111111111111111111111111111111111111111111111111111110000010 *
b0 ;
12
1N
b10101 <
b1111111111111111111111111111111111111111111111111111111110000010 ^
b1100100 @
b0 .
1(
04
0P
0T
b0 >
b0 h
1#
#250000
0#
#255000
b1101100 C
b1101100 G
b0 *
b1101000 @
02
0N
b0 <
b0 ^
b0 g
1#
#260000
0#
#265000
b1110000 C
b1110000 G
b1101100 @
1#
#270000
0#
#275000
b1110100 C
b1110100 G
b1110000 @
1#
#280000
0#
#285000
b1111000 C
b1111000 G
b1110100 @
1#
#290000
0#
#295000
b1111100 C
b1111100 G
b1111000 @
1#
#300000
0#
#305000
b10000000 C
b10000000 G
b1111100 @
1#
#310000
0#
#315000
b10000100 C
b10000100 G
b10000000 @
1#
#320000
0#
#325000
b10001000 C
b10001000 G
b10000100 @
1#
#330000
0#
#335000
b10001100 C
b10001100 G
b10001000 @
1#
#340000
0#
#345000
b10010000 C
b10010000 G
b10001100 @
1#
#350000
0#
#355000
b10010100 C
b10010100 G
b10010000 @
1#
#360000
0#
#365000
b10011000 C
b10011000 G
b10010100 @
1#
#370000
0#
#375000
b10011100 C
b10011100 G
b10011000 @
1#
#380000
0#
#385000
b10100000 C
b10100000 G
b10011100 @
1#
#390000
0#
#395000
b10100100 C
b10100100 G
b10100000 @
1#
#400000
0#
#405000
b10101000 C
b10101000 G
b10100100 @
1#
#410000
0#
#415000
b10101100 C
b10101100 G
b10101000 @
1#
#420000
0#
#425000
b10110000 C
b10110000 G
b10101100 @
1#
#430000
0#
#435000
b10110100 C
b10110100 G
b10110000 @
1#
#440000
0#
#445000
b10111000 C
b10111000 G
b10110100 @
1#
#450000
0#
#455000
b10111100 C
b10111100 G
b10111000 @
1#
#460000
0#
#465000
b11000000 C
b11000000 G
b10111100 @
1#
#470000
0#
#475000
b11000100 C
b11000100 G
b11000000 @
1#
#480000
0#
#485000
b11001000 C
b11001000 G
b11000100 @
1#
#490000
0#
#495000
b11001100 C
b11001100 G
b11001000 @
1#
#500000
0#
#505000
b11010000 C
b11010000 G
b11001100 @
1#
#510000
0#
#515000
b11010100 C
b11010100 G
b11010000 @
1#
#520000
0#
#525000
b11011000 C
b11011000 G
b11010100 @
1#
#530000
0#
#535000
b11011100 C
b11011100 G
b11011000 @
1#
#540000
0#
#545000
b11100000 C
b11100000 G
b11011100 @
1#
#550000
0#
#555000
b11100100 C
b11100100 G
b11100000 @
1#
#560000
0#
#565000
b11101000 C
b11101000 G
b11100100 @
1#
#570000
0#
#575000
b11101100 C
b11101100 G
b11101000 @
1#
#580000
0#
#585000
b11110000 C
b11110000 G
b11101100 @
1#
#590000
0#
#595000
b11110100 C
b11110100 G
b11110000 @
1#
#600000
0#
#605000
b11111000 C
b11111000 G
b11110100 @
1#
#610000
0#
#615000
b11111100 C
b11111100 G
b11111000 @
1#
#620000
0#
#625000
b100000000 C
b100000000 G
b11111100 @
1#
#630000
0#
#635000
b100000100 C
b100000100 G
b100000000 @
1#
#640000
0#
#645000
b100001000 C
b100001000 G
b100000100 @
1#
#650000
0#
#655000
b100001100 C
b100001100 G
b100001000 @
1#
#660000
0#
#665000
b100010000 C
b100010000 G
b100001100 @
1#
#670000
0#
#675000
b100010100 C
b100010100 G
b100010000 @
1#
#680000
0#
#685000
b100011000 C
b100011000 G
b100010100 @
1#
#690000
0#
#695000
b100011100 C
b100011100 G
b100011000 @
1#
#700000
0#
#705000
b100100000 C
b100100000 G
b100011100 @
1#
#710000
0#
#715000
b100100100 C
b100100100 G
b100100000 @
1#
#720000
0#
#725000
b100101000 C
b100101000 G
b100100100 @
1#
#730000
0#
#735000
b100101100 C
b100101100 G
b100101000 @
1#
#740000
0#
#745000
b100110000 C
b100110000 G
b100101100 @
1#
#750000
0#
#755000
b100110100 C
b100110100 G
b100110000 @
1#
#760000
0#
#765000
b100111000 C
b100111000 G
b100110100 @
1#
#770000
0#
#775000
b100111100 C
b100111100 G
b100111000 @
1#
#780000
0#
#785000
b101000000 C
b101000000 G
b100111100 @
1#
#790000
0#
#795000
b101000100 C
b101000100 G
b101000000 @
1#
#800000
0#
#805000
b101001000 C
b101001000 G
b101000100 @
1#
#810000
0#
#815000
b101001100 C
b101001100 G
b101001000 @
1#
#820000
0#
#825000
b101010000 C
b101010000 G
b101001100 @
1#
#830000
0#
#835000
b101010100 C
b101010100 G
b101010000 @
1#
#840000
0#
#845000
b101011000 C
b101011000 G
b101010100 @
1#
#850000
0#
#855000
b101011100 C
b101011100 G
b101011000 @
1#
#860000
0#
#865000
b101100000 C
b101100000 G
b101011100 @
1#
#870000
0#
#875000
b101100100 C
b101100100 G
b101100000 @
1#
#880000
0#
#885000
b101101000 C
b101101000 G
b101100100 @
1#
#890000
0#
#895000
b101101100 C
b101101100 G
b101101000 @
1#
#900000
0#
#905000
b101110000 C
b101110000 G
b101101100 @
1#
#910000
0#
#915000
b101110100 C
b101110100 G
b101110000 @
1#
#920000
0#
#925000
b101111000 C
b101111000 G
b101110100 @
1#
#930000
0#
#935000
b101111100 C
b101111100 G
b101111000 @
1#
#940000
0#
#945000
b110000000 C
b110000000 G
b101111100 @
1#
#950000
0#
#955000
b110000100 C
b110000100 G
b110000000 @
1#
#960000
0#
#965000
b110001000 C
b110001000 G
b110000100 @
1#
#970000
0#
#975000
b110001100 C
b110001100 G
b110001000 @
1#
#980000
0#
#985000
b110010000 C
b110010000 G
b110001100 @
1#
#990000
0#
#995000
b110010100 C
b110010100 G
b110010000 @
1#
#1000000
0#
#1005000
b110011000 C
b110011000 G
b110010100 @
1#
#1010000
0#
#1015000
b110011100 C
b110011100 G
b110011000 @
1#
#1020000
0#
#1025000
b110100000 C
b110100000 G
b110011100 @
1#
#1030000
0#
#1035000
b110100100 C
b110100100 G
b110100000 @
1#
#1040000
0#
#1045000
b110101000 C
b110101000 G
b110100100 @
1#
#1050000
0#
#1055000
b110101100 C
b110101100 G
b110101000 @
1#
#1060000
0#
#1065000
b110110000 C
b110110000 G
b110101100 @
1#
#1070000
0#
#1075000
b110110100 C
b110110100 G
b110110000 @
1#
#1080000
0#
#1085000
b110111000 C
b110111000 G
b110110100 @
1#
#1090000
0#
#1095000
b110111100 C
b110111100 G
b110111000 @
1#
#1100000
0#
#1105000
b111000000 C
b111000000 G
b110111100 @
1#
#1110000
0#
#1115000
b111000100 C
b111000100 G
b111000000 @
1#
#1120000
0#
#1125000
b111001000 C
b111001000 G
b111000100 @
1#
#1130000
0#
#1135000
b111001100 C
b111001100 G
b111001000 @
1#
#1140000
0#
#1145000
b111010000 C
b111010000 G
b111001100 @
1#
#1150000
0#
#1155000
b111010100 C
b111010100 G
b111010000 @
1#
#1160000
0#
#1165000
b111011000 C
b111011000 G
b111010100 @
1#
#1170000
0#
#1175000
b111011100 C
b111011100 G
b111011000 @
1#
#1180000
0#
#1185000
b111100000 C
b111100000 G
b111011100 @
1#
#1190000
0#
#1195000
b111100100 C
b111100100 G
b111100000 @
1#
#1200000
0#
#1205000
b111101000 C
b111101000 G
b111100100 @
1#
#1210000
0#
#1215000
b111101100 C
b111101100 G
b111101000 @
1#
#1220000
0#
#1225000
b111110000 C
b111110000 G
b111101100 @
1#
#1230000
0#
#1235000
b111110100 C
b111110100 G
b111110000 @
1#
#1240000
0#
#1245000
b111111000 C
b111111000 G
b111110100 @
1#
#1250000
0#
#1255000
b111111100 C
b111111100 G
b111111000 @
1#
#1260000
0#
#1265000
b1000000000 C
b1000000000 G
b111111100 @
1#
#1270000
0#
#1275000
b1000000100 C
b1000000100 G
b1000000000 @
1#
#1280000
0#
#1285000
b1000001000 C
b1000001000 G
b1000000100 @
1#
#1290000
0#
#1295000
b1000001100 C
b1000001100 G
b1000001000 @
1#
#1300000
0#
#1305000
b1000010000 C
b1000010000 G
b1000001100 @
1#
#1310000
0#
#1315000
b1000010100 C
b1000010100 G
b1000010000 @
1#
#1320000
0#
#1325000
b1000011000 C
b1000011000 G
b1000010100 @
1#
#1330000
0#
#1335000
b1000011100 C
b1000011100 G
b1000011000 @
1#
#1340000
0#
#1345000
b1000100000 C
b1000100000 G
b1000011100 @
1#
#1350000
0#
#1355000
b1000100100 C
b1000100100 G
b1000100000 @
1#
#1360000
0#
#1365000
b1000101000 C
b1000101000 G
b1000100100 @
1#
#1370000
0#
#1375000
b1000101100 C
b1000101100 G
b1000101000 @
1#
#1380000
0#
#1385000
b1000110000 C
b1000110000 G
b1000101100 @
1#
#1390000
0#
#1395000
b1000110100 C
b1000110100 G
b1000110000 @
1#
#1400000
0#
#1405000
b1000111000 C
b1000111000 G
b1000110100 @
1#
#1410000
0#
#1415000
b1000111100 C
b1000111100 G
b1000111000 @
1#
#1420000
0#
#1425000
b1001000000 C
b1001000000 G
b1000111100 @
1#
#1430000
0#
#1435000
b1001000100 C
b1001000100 G
b1001000000 @
1#
#1440000
0#
#1445000
b1001001000 C
b1001001000 G
b1001000100 @
1#
#1450000
0#
#1455000
b1001001100 C
b1001001100 G
b1001001000 @
1#
#1460000
0#
#1465000
b1001010000 C
b1001010000 G
b1001001100 @
1#
#1470000
0#
#1475000
b1001010100 C
b1001010100 G
b1001010000 @
1#
#1480000
0#
#1485000
b1001011000 C
b1001011000 G
b1001010100 @
1#
#1490000
0#
#1495000
b1001011100 C
b1001011100 G
b1001011000 @
1#
#1500000
0#
#1505000
b1001100000 C
b1001100000 G
b1001011100 @
1#
#1510000
0#
#1515000
b1001100100 C
b1001100100 G
b1001100000 @
1#
#1520000
0#
#1525000
b1001101000 C
b1001101000 G
b1001100100 @
1#
#1530000
0#
#1535000
b1001101100 C
b1001101100 G
b1001101000 @
1#
#1540000
0#
#1545000
b1001110000 C
b1001110000 G
b1001101100 @
1#
#1550000
0#
#1555000
b1001110100 C
b1001110100 G
b1001110000 @
1#
#1560000
0#
#1565000
b1001111000 C
b1001111000 G
b1001110100 @
1#
#1570000
0#
#1575000
b1001111100 C
b1001111100 G
b1001111000 @
1#
#1580000
0#
#1585000
b1010000000 C
b1010000000 G
b1001111100 @
1#
#1590000
0#
#1595000
b1010000100 C
b1010000100 G
b1010000000 @
1#
#1600000
0#
#1605000
b1010001000 C
b1010001000 G
b1010000100 @
1#
#1610000
0#
#1615000
b1010001100 C
b1010001100 G
b1010001000 @
1#
#1620000
0#
#1625000
b1010010000 C
b1010010000 G
b1010001100 @
1#
#1630000
0#
#1635000
b1010010100 C
b1010010100 G
b1010010000 @
1#
#1640000
0#
#1645000
b1010011000 C
b1010011000 G
b1010010100 @
1#
#1650000
0#
#1655000
b1010011100 C
b1010011100 G
b1010011000 @
1#
#1660000
0#
#1665000
b1010100000 C
b1010100000 G
b1010011100 @
1#
#1670000
0#
#1675000
b1010100100 C
b1010100100 G
b1010100000 @
1#
#1680000
0#
#1685000
b1010101000 C
b1010101000 G
b1010100100 @
1#
#1690000
0#
#1695000
b1010101100 C
b1010101100 G
b1010101000 @
1#
#1700000
0#
#1705000
b1010110000 C
b1010110000 G
b1010101100 @
1#
#1710000
0#
#1715000
b1010110100 C
b1010110100 G
b1010110000 @
1#
#1720000
0#
#1725000
b1010111000 C
b1010111000 G
b1010110100 @
1#
#1730000
0#
#1735000
b1010111100 C
b1010111100 G
b1010111000 @
1#
#1740000
0#
#1745000
b1011000000 C
b1011000000 G
b1010111100 @
1#
#1750000
0#
#1755000
b1011000100 C
b1011000100 G
b1011000000 @
1#
#1760000
0#
#1765000
b1011001000 C
b1011001000 G
b1011000100 @
1#
#1770000
0#
#1775000
b1011001100 C
b1011001100 G
b1011001000 @
1#
#1780000
0#
#1785000
b1011010000 C
b1011010000 G
b1011001100 @
1#
#1790000
0#
#1795000
b1011010100 C
b1011010100 G
b1011010000 @
1#
#1800000
0#
#1805000
b1011011000 C
b1011011000 G
b1011010100 @
1#
#1810000
0#
#1815000
b1011011100 C
b1011011100 G
b1011011000 @
1#
#1820000
0#
#1825000
b1011100000 C
b1011100000 G
b1011011100 @
1#
#1830000
0#
#1835000
b1011100100 C
b1011100100 G
b1011100000 @
1#
#1840000
0#
#1845000
b1011101000 C
b1011101000 G
b1011100100 @
1#
#1850000
0#
#1855000
b1011101100 C
b1011101100 G
b1011101000 @
1#
#1860000
0#
#1865000
b1011110000 C
b1011110000 G
b1011101100 @
1#
#1870000
0#
#1875000
b1011110100 C
b1011110100 G
b1011110000 @
1#
#1880000
0#
#1885000
b1011111000 C
b1011111000 G
b1011110100 @
1#
#1890000
0#
#1895000
b1011111100 C
b1011111100 G
b1011111000 @
1#
#1900000
0#
#1905000
b1100000000 C
b1100000000 G
b1011111100 @
1#
#1910000
0#
#1915000
b1100000100 C
b1100000100 G
b1100000000 @
1#
#1920000
0#
#1925000
b1100001000 C
b1100001000 G
b1100000100 @
1#
#1930000
0#
#1935000
b1100001100 C
b1100001100 G
b1100001000 @
1#
#1940000
0#
#1945000
b1100010000 C
b1100010000 G
b1100001100 @
1#
#1950000
0#
#1955000
b1100010100 C
b1100010100 G
b1100010000 @
1#
#1960000
0#
#1965000
b1100011000 C
b1100011000 G
b1100010100 @
1#
#1970000
0#
#1975000
b1100011100 C
b1100011100 G
b1100011000 @
1#
#1980000
0#
#1985000
b1100100000 C
b1100100000 G
b1100011100 @
1#
#1990000
0#
#1995000
b1100100100 C
b1100100100 G
b1100100000 @
1#
