PIPI/pipelined_processor_tb.vcd
$date
	Sat Mar 08 00:14:49 2025
$end
$version
	Icarus Verilog
$end
$timescale
	1ps
$end
$scope module pipelined_processor_tb $end
$scope module uut $end
$var wire 1 ! clk $end
$var wire 1 " reset $end
$var wire 1 # z_flag_EX_MEM $end
$var wire 1 $ z_flag $end
$var wire 64 % write_data [63:0] $end
$var wire 1 & tmp_carry_2 $end
$var wire 1 ' tmp_carry $end
$var wire 5 ( rs2_ID_EX [4:0] $end
$var wire 5 ) rs2_EX_MEM [4:0] $end
$var wire 5 * rs1_ID_EX [4:0] $end
$var wire 1 + reg_write_en_out_mux $end
$var wire 1 , reg_write_en_in_mux $end
$var wire 1 - reg_write_en_MEM_WB $end
$var wire 1 . reg_write_en_ID_EX $end
$var wire 1 / reg_write_en_EX_MEM $end
$var wire 64 0 read_data2_mux [63:0] $end
$var wire 64 1 read_data2_ID_EX [63:0] $end
$var wire 64 2 read_data2 [63:0] $end
$var wire 64 3 read_data1_mux [63:0] $end
$var wire 64 4 read_data1_ID_EX [63:0] $end
$var wire 64 5 read_data1 [63:0] $end
$var wire 64 6 read_data [63:0] $end
$var wire 5 7 rd_MEM_WB [4:0] $end
$var wire 5 8 rd_ID_EX [4:0] $end
$var wire 5 9 rd_EX_MEM [4:0] $end
$var wire 1 : pc_write $end
$var wire 1 ; pc_src $end
$var wire 64 < pc_out [63:0] $end
$var wire 64 = pc_next_EX_MEM [63:0] $end
$var wire 64 > pc_next [63:0] $end
$var wire 64 ? pc_in [63:0] $end
$var wire 4 @ op_out_mux [3:0] $end
$var wire 4 A op_in_mux [3:0] $end
$var wire 4 B op_ID_EX [3:0] $end
$var wire 64 C mux_pc_1 [63:0] $end
$var wire 1 D mem_write_out_mux $end
$var wire 1 E mem_write_in_mux $end
$var wire 1 F mem_write_ID_EX $end
$var wire 1 G mem_write_EX_MEM $end
$var wire 1 H mem_to_reg_out_mux $end
$var wire 1 I mem_to_reg_in_mux $end
$var wire 1 J mem_to_reg_MEM_WB $end
$var wire 1 K mem_to_reg_ID_EX $end
$var wire 1 L mem_to_reg_EX_MEM $end
$var wire 1 M mem_read_out_mux $end
$var wire 1 N mem_read_in_mux $end
$var wire 1 O mem_read_ID_EX $end
$var wire 1 P mem_read_EX_MEM $end
$var wire 1 Q ld_sd_sel $end
$var wire 32 R instr_IF_ID [31:0] $end
$var wire 32 S instr [31:0] $end
$var wire 64 T imm_shifted [63:0] $end
$var wire 64 U imm_ID_EX [63:0] $end
$var wire 64 V imm [63:0] $end
$var wire 2 W forward_B [1:0] $end
$var wire 2 X forward_A [1:0] $end
$var wire 1 Y flush $end
$var wire 64 Z data_mem_in [63:0] $end
$var wire 64 [ data_MEM_WB [63:0] $end
$var wire 64 \ data_EX_MEM [63:0] $end
$var wire 1 ] control_mux_sel $end
$var wire 1 ^ branch_out_mux $end
$var wire 1 _ branch_in_mux $end
$var wire 1 ` branch_ID_EX $end
$var wire 1 a branch_EX_MEM $end
$var wire 1 b alu_src_out_mux $end
$var wire 1 c alu_src_in_mux $end
$var wire 1 d alu_src_ID_EX $end
$var wire 64 e alu_out_MEM_WB [63:0] $end
$var wire 64 f alu_out_EX_MEM [63:0] $end
$var wire 64 g alu_out [63:0] $end
$var wire 2 h alu_op [1:0] $end
$var wire 64 i alu_in_2 [63:0] $end
$var wire 1 j IF_ID_write $end
$var wire 64 k IF_ID_pc_out [63:0] $end
$var wire 64 l ID_EX_pc_out [63:0] $end
$upscope $end
$upscope $end
$enddefinitions $end
$comment Show the parameter values. $end
$dumpall
$end
#0
$dumpvars
b0 l
b0 k
1j
b0 i
b0 h
b0 g
b0 f
b0 e
0d
0c
0b
0a
0`
0_
0^
0]
b0 \
b0 [
b0 Z
0Y
b0 X
b0 W
b0 V
b0 U
b0 T
b1111000000000000010010011 S
b0 R
0Q
0P
0O
0N
0M
0L
0K
0J
0I
0H
0G
0F
0E
0D
b100 C
b0 B
b10 A
b10 @
b100 ?
b0 >
b0 =
b0 <
0;
1:
b0 9
b0 8
b0 7
b0 6
b0 5
b0 4
b0 3
b0 2
b0 1
b0 0
0/
0.
0-
0,
0+
b0 *
b0 )
b0 (
0'
0&
b0 %
1$
0#
1"
0!
$end
#2000
0"
#5000
b1000 ?
b1000 C
1b
1+
b11110 V
1,
1c
b100010011 S
b100 <
1#
b1111000000000000010010011 R
b10 B
1!
#10000
0!
#15000
b1100 ?
b111100 >
b1100 C
0$
b11110 g
b100000000000110010011 S
b111100 T
b11110 0
b0 V
b1000 <
b11110 U
1d
1.
b1 8
b11110 (
b100 k
b100010011 R
1!
#20000
0!
#25000
b10000 ?
b100 >
b10000 C
1$
b0 g
b11000010100110011 S
b1 V
b0 0
b0 T
b1100 <
b11110 )
b111100 =
0#
1/
b1 9
b11110 f
b1000 k
b100000000000110010011 R
b100 l
b0 U
b10 8
b0 (
1!
#30000
0!
#35000
b10100 ?
b10100 C
b1010 >
0$
b1 g
b11110 i
0b
0c
b10 h
b1100010000000100110011 S
b11110 %
b1 0
b10 T
b1 W
b0 V
b0 )
b100 =
1#
b10 9
b0 f
b10000 <
1-
b1 7
b11110 e
b1000 l
b1 U
b11 8
b1 (
b1100 k
b11000010100110011 R
1!
#40000
0!
#45000
b11000 ?
b11000 C
b1100 >
b1 g
b0 i
b1 3
b0 %
b100011000000110010011 S
b11110 Z
b0 T
b0 0
b10 X
b0 W
b10 7
b0 e
b10100 <
b1 )
b1010 =
0#
b11 9
b11110 \
b1 f
b10000 k
b1100010000000100110011 R
b1100 l
b0 U
0d
b1010 8
b0 (
b11 *
1!
#50000
0!
#55000
0$
b1 g
b11100 ?
b11100 C
b10000 >
b1 0
b1 i
1b
b0 3
b1 V
1c
b0 h
b0 Z
b1000000000100011000001000110011 S
b1 %
b1 W
b0 X
b11110 2
b0 )
b1100 =
b1010 9
b0 \
b11000 <
b11 7
b1 e
b10000 l
b10 8
b11 (
b10 *
b10100 k
b100011000000110010011 R
1!
#60000
b1 5
0!
#65000
b110 @
b100000 ?
0$
b10 g
b100000 C
b110 A
b10110 >
0b
b11110 i
0c
b10 h
b1 3
b101000100000001001100011 S
b1 Z
b0 V
b10 T
b0 W
b1010 7
b11100 <
b11 )
b10000 =
b10 9
b1 \
b11000 k
b1000000000100011000001000110011 R
b10100 l
b1 U
1d
b11 8
b1 (
b11 *
b11110 1
b1 4
1!
#70000
0!
#75000
b100100 ?
b100100 C
b11000 >
1^
0+
b10 3
b100 V
0,
b1 h
1_
b11110 Z
b11111110000000000000110011100011 S
b10 X
b0 T
b11110 0
0$
b1111111111111111111111111111111111111111111111111111111111100100 g
b1 2
b0 5
b1 )
b10110 =
b11 9
b11110 \
b10 f
b100000 <
b10 7
b11000 l
b0 U
0d
b110 B
b100 8
b11100 k
b101000100000001001100011 R
1!
#80000
0!
#85000
b101000 ?
b1111111111111111111111111111111111111111111111111111111111100011 g
b101000 C
b100100 >
b1 0
b1111111111111111111111111111111111111111111111111111111111100100 3
b1 i
b10 %
b0 S
b0 2
b1111111111111111111111111111111111111111111111111111111111111000 V
b1000 T
b10 X
b11 7
b10 e
b100100 <
b11000 =
b100 9
b1111111111111111111111111111111111111111111111111111111111100100 f
b100000 k
b11111110000000000000110011100011 R
b11100 l
b100 U
1`
0.
b1010 (
b100 *
b1 1
b0 4
1!
#90000
0!
#95000
1$
1&
b10 @
b0 g
b101100 ?
b101100 C
b10000 >
b10 A
0^
b0 0
b0 3
b0 i
b0 h
0_
b1 Z
b1111111111111111111111111111111111111111111111111111111111100100 %
b1111111111111111111111111111111111111111111111111111111111110000 T
b0 X
b0 V
b1010 )
b100100 =
1a
0/
b1 \
b1111111111111111111111111111111111111111111111111111111111100011 f
b101000 <
b100 7
b1111111111111111111111111111111111111111111111111111111111100100 e
b100000 l
b1111111111111111111111111111111111111111111111111111111111111000 U
b11001 8
b0 (
b0 *
b0 1
b100100 k
b0 R
1!
#100000
0!
#105000
0&
b110000 C
b100100 >
1Y
b10000 ?
b1111111111111111111111111111111111111111111111111111111111100011 %
1;
b0 Z
b0 T
0-
b1111111111111111111111111111111111111111111111111111111111100011 e
b101100 <
b0 )
b10000 =
1#
b11001 9
b0 \
b0 f
b101000 k
b100100 l
b0 U
0`
b0 B
b0 8
1!
#110000
0!
#115000
b101000 >
1+
1,
b10 h
b10 2
b1 5
b101000 l
b10 B
b10000 k
b1100010000000100110011 R
b10100 C
0Y
b10100 ?
0;
b1100010000000100110011 S
b0 %
b100100 =
0a
b0 9
b10000 <
b11001 7
b0 e
1!
#120000
0!
#125000
b11000 ?
0$
b11 g
b11000 C
b10000 >
b10 0
b10 i
b1 3
b100011000000110010011 S
b0 7
b10100 <
b101000 =
b10000 l
1.
b10 8
b11 (
b10 *
b10 1
b1 4
1!
#130000
0!
#135000
b101 g
b11100 ?
b11100 C
1b
b11 3
b1 V
1c
b0 h
b10 X
b10 Z
b1000000000100011000001000110011 S
b11110 2
b10 5
b11 )
b10000 =
0#
1/
b10 9
b10 \
b11 f
b11000 <
b10100 k
b100011000000110010011 R
1!
#140000
0!
#145000
b110 @
b100000 ?
b100000 C
b110 A
b10110 >
0b
b11 g
b10 3
0c
b10 h
b11110 i
b11 %
b101000100000001001100011 S
b0 V
b10 T
b1 0
b0 X
1-
b10 7
b11 e
b11100 <
b101 f
b11000 k
b1000000000100011000001000110011 R
b10100 l
b1 U
1d
b11 8
b1 (
b11 *
b11110 1
b10 4
1!
#150000
0!
#155000
b100100 ?
b100100 C
b11000 >
1^
0+
b11 3
b100 V
0,
b1 h
1_
b10 X
b11110 Z
b11111110000000000000110011100011 S
b101 %
b0 T
b11110 0
b1111111111111111111111111111111111111111111111111111111111100101 g
b1 2
b1111111111111111111111111111111111111111111111111111111111100100 5
b1 )
b10110 =
b11 9
b11110 \
b11 f
b100000 <
b101 e
b11000 l
b0 U
0d
b110 B
b100 8
b11100 k
b101000100000001001100011 R
1!
#160000
0!
#165000
b101000 ?
b1111111111111111111111111111111111111111111111111111111111100100 g
b101000 C
b100100 >
b1 0
b1111111111111111111111111111111111111111111111111111111111100101 3
b1 i
b11 %
b0 S
b0 2
b0 5
b1111111111111111111111111111111111111111111111111111111111111000 V
b1000 T
b10 X
b11 7
b11 e
b100100 <
b11000 =
b100 9
b1111111111111111111111111111111111111111111111111111111111100101 f
b100000 k
b11111110000000000000110011100011 R
b11100 l
b100 U
1`
0.
b1010 (
b100 *
b1 1
b1111111111111111111111111111111111111111111111111111111111100100 4
1!
#170000
0!
#175000
1$
1&
b10 @
b0 g
b101100 ?
b101100 C
b10000 >
b10 A
0^
b0 0
b0 3
b0 i
b0 h
0_
b1 Z
b1111111111111111111111111111111111111111111111111111111111100101 %
b1111111111111111111111111111111111111111111111111111111111110000 T
b0 X
b0 V
b1010 )
b100100 =
1a
0/
b1 \
b1111111111111111111111111111111111111111111111111111111111100100 f
b101000 <
b100 7
b1111111111111111111111111111111111111111111111111111111111100101 e
b100000 l
b1111111111111111111111111111111111111111111111111111111111111000 U
b11001 8
b0 (
b0 *
b0 1
b0 4
b100100 k
b0 R
1!
#180000
0!
#185000
0&
b110000 C
b100100 >
1Y
b10000 ?
b1111111111111111111111111111111111111111111111111111111111100100 %
1;
b0 Z
b0 T
0-
b1111111111111111111111111111111111111111111111111111111111100100 e
b101100 <
b0 )
b10000 =
1#
b11001 9
b0 \
b0 f
b101000 k
b100100 l
b0 U
0`
b0 B
b0 8
1!
#190000
0!
#195000
b101000 >
1+
1,
b10 h
b11 2
b101 5
b101000 l
b10 B
b10000 k
b1100010000000100110011 R
b10100 C
0Y
b10100 ?
0;
b1100010000000100110011 S
b0 %
b100100 =
0a
b0 9
b10000 <
b11001 7
b0 e
1!
#200000
0!
#205000
b11000 ?
0$
b1000 g
b11000 C
b10000 >
b11 0
b11 i
b101 3
b100011000000110010011 S
b0 7
b10100 <
b101000 =
b10000 l
1.
b10 8
b11 (
b10 *
b11 1
b101 4
1!
#210000
0!
#215000
b1011 g
b11100 ?
b11100 C
1b
b1000 3
b1 V
1c
b0 h
b10 X
b11 Z
b1000000000100011000001000110011 S
b11110 2
b11 5
b11 )
b10000 =
0#
1/
b10 9
b11 \
b1000 f
b11000 <
b10100 k
b100011000000110010011 R
1!
#220000
0!
#225000
0$
b110 @
b100000 ?
b100000 C
b110 A
b10110 >
0b
b100 g
b11 3
0c
b10 h
b11110 i
b1000 %
b101000100000001001100011 S
b0 V
b10 T
b1 0
b0 X
1-
b10 7
b1000 e
b11100 <
b1011 f
b11000 k
b1000000000100011000001000110011 R
b10100 l
b1 U
1d
b11 8
b1 (
b11 *
b11110 1
b11 4
1!
#230000
0!
#235000
b100100 ?
b100100 C
b11000 >
1^
0+
b100 3
b100 V
0,
b1 h
1_
b10 X
b11110 Z
b11111110000000000000110011100011 S
b1011 %
b0 T
b11110 0
b1111111111111111111111111111111111111111111111111111111111100110 g
b1 2
b1111111111111111111111111111111111111111111111111111111111100101 5
b1 )
b10110 =
b11 9
b11110 \
b100 f
b100000 <
b1011 e
b11000 l
b0 U
0d
b110 B
b100 8
b11100 k
b101000100000001001100011 R
1!
#240000
0!
#245000
b101000 ?
b1111111111111111111111111111111111111111111111111111111111100101 g
b101000 C
b100100 >
b1 0
b1111111111111111111111111111111111111111111111111111111111100110 3
b1 i
b100 %
b0 S
b0 2
b0 5
b1111111111111111111111111111111111111111111111111111111111111000 V
b1000 T
b10 X
b11 7
b100 e
b100100 <
b11000 =
b100 9
b1111111111111111111111111111111111111111111111111111111111100110 f
b100000 k
b11111110000000000000110011100011 R
b11100 l
b100 U
1`
0.
b1010 (
b100 *
b1 1
b1111111111111111111111111111111111111111111111111111111111100101 4
1!
#250000
0!
#255000
1$
1&
b10 @
b0 g
b101100 ?
b101100 C
b10000 >
b10 A
0^
b0 0
b0 3
b0 i
b0 h
0_
b1 Z
b1111111111111111111111111111111111111111111111111111111111100110 %
b1111111111111111111111111111111111111111111111111111111111110000 T
b0 X
b0 V
b1010 )
b100100 =
1a
0/
b1 \
b1111111111111111111111111111111111111111111111111111111111100101 f
b101000 <
b100 7
b1111111111111111111111111111111111111111111111111111111111100110 e
b100000 l
b1111111111111111111111111111111111111111111111111111111111111000 U
b11001 8
b0 (
b0 *
b0 1
b0 4
b100100 k
b0 R
1!
#260000
0!
#265000
0&
b110000 C
b100100 >
1Y
b10000 ?
b1111111111111111111111111111111111111111111111111111111111100101 %
1;
b0 Z
b0 T
0-
b1111111111111111111111111111111111111111111111111111111111100101 e
b101100 <
b0 )
b10000 =
1#
b11001 9
b0 \
b0 f
b101000 k
b100100 l
b0 U
0`
b0 B
b0 8
1!
#270000
0!
#275000
b101000 >
1+
1,
b10 h
b100 2
b1011 5
b101000 l
b10 B
b10000 k
b1100010000000100110011 R
b10100 C
0Y
b10100 ?
0;
b1100010000000100110011 S
b0 %
b100100 =
0a
b0 9
b10000 <
b11001 7
b0 e
1!
#280000
0!
#285000
b11000 ?
0$
b1111 g
b11000 C
b10000 >
b100 0
b100 i
b1011 3
b100011000000110010011 S
b0 7
b10100 <
b101000 =
b10000 l
1.
b10 8
b11 (
b10 *
b100 1
b1011 4
1!
#290000
0!
#295000
b10011 g
b11100 ?
b11100 C
1b
b1111 3
b1 V
1c
b0 h
b10 X
b100 Z
b1000000000100011000001000110011 S
b11110 2
b100 5
b11 )
b10000 =
0#
1/
b10 9
b100 \
b1111 f
b11000 <
b10100 k
b100011000000110010011 R
1!
#300000
0!
#305000
b110 @
b100000 ?
b100000 C
b110 A
b10110 >
0b
b101 g
b100 3
0c
b10 h
b11110 i
b1111 %
b101000100000001001100011 S
b0 V
b10 T
b1 0
b0 X
1-
b10 7
b1111 e
b11100 <
b10011 f
b11000 k
b1000000000100011000001000110011 R
b10100 l
b1 U
1d
b11 8
b1 (
b11 *
b11110 1
b100 4
1!
#310000
0!
#315000
b100100 ?
b100100 C
b11000 >
1^
0+
b101 3
b100 V
0,
b1 h
1_
b10 X
b11110 Z
b11111110000000000000110011100011 S
b10011 %
b0 T
b11110 0
b1111111111111111111111111111111111111111111111111111111111100111 g
b1 2
b1111111111111111111111111111111111111111111111111111111111100110 5
b1 )
b10110 =
b11 9
b11110 \
b101 f
b100000 <
b10011 e
b11000 l
b0 U
0d
b110 B
b100 8
b11100 k
b101000100000001001100011 R
1!
#320000
0!
#325000
b101000 ?
b1111111111111111111111111111111111111111111111111111111111100110 g
b101000 C
b100100 >
b1 0
b1111111111111111111111111111111111111111111111111111111111100111 3
b1 i
b101 %
b0 S
b0 2
b0 5
b1111111111111111111111111111111111111111111111111111111111111000 V
b1000 T
b10 X
b11 7
b101 e
b100100 <
b11000 =
b100 9
b1111111111111111111111111111111111111111111111111111111111100111 f
b100000 k
b11111110000000000000110011100011 R
b11100 l
b100 U
1`
0.
b1010 (
b100 *
b1 1
b1111111111111111111111111111111111111111111111111111111111100110 4
1!
#330000
0!
#335000
1$
1&
b10 @
b0 g
b101100 ?
b101100 C
b10000 >
b10 A
0^
b0 0
b0 3
b0 i
b0 h
0_
b1 Z
b1111111111111111111111111111111111111111111111111111111111100111 %
b1111111111111111111111111111111111111111111111111111111111110000 T
b0 X
b0 V
b1010 )
b100100 =
1a
0/
b1 \
b1111111111111111111111111111111111111111111111111111111111100110 f
b101000 <
b100 7
b1111111111111111111111111111111111111111111111111111111111100111 e
b100000 l
b1111111111111111111111111111111111111111111111111111111111111000 U
b11001 8
b0 (
b0 *
b0 1
b0 4
b100100 k
b0 R
1!
#340000
0!
#345000
0&
b110000 C
b100100 >
1Y
b10000 ?
b1111111111111111111111111111111111111111111111111111111111100110 %
1;
b0 Z
b0 T
0-
b1111111111111111111111111111111111111111111111111111111111100110 e
b101100 <
b0 )
b10000 =
1#
b11001 9
b0 \
b0 f
b101000 k
b100100 l
b0 U
0`
b0 B
b0 8
1!
#350000
0!
#355000
b101000 >
1+
1,
b10 h
b101 2
b10011 5
b101000 l
b10 B
b10000 k
b1100010000000100110011 R
b10100 C
0Y
b10100 ?
0;
b1100010000000100110011 S
b0 %
b100100 =
0a
b0 9
b10000 <
b11001 7
b0 e
1!
#360000
0!
#365000
b11000 ?
0$
b11000 g
b11000 C
b10000 >
b101 0
b101 i
b10011 3
b100011000000110010011 S
b0 7
b10100 <
b101000 =
b10000 l
1.
b10 8
b11 (
b10 *
b101 1
b10011 4
1!
#370000
0!
#375000
b11101 g
b11100 ?
b11100 C
1b
b11000 3
b1 V
1c
b0 h
b10 X
b101 Z
b1000000000100011000001000110011 S
b11110 2
b101 5
b11 )
b10000 =
0#
1/
b10 9
b101 \
b11000 f
b11000 <
b10100 k
b100011000000110010011 R
1!
#380000
0!
#385000
b110 @
b100000 ?
b100000 C
b110 A
b10110 >
0b
b110 g
b101 3
0c
b10 h
b11110 i
b11000 %
b101000100000001001100011 S
b0 V
b10 T
b1 0
b0 X
1-
b10 7
b11000 e
b11100 <
b11101 f
b11000 k
b1000000000100011000001000110011 R
b10100 l
b1 U
1d
b11 8
b1 (
b11 *
b11110 1
b101 4
1!
#390000
0!
#395000
b100100 ?
b100100 C
b11000 >
1^
0+
b110 3
b100 V
0,
b1 h
1_
b10 X
b11110 Z
b11111110000000000000110011100011 S
b11101 %
b0 T
b11110 0
b1111111111111111111111111111111111111111111111111111111111101000 g
b1 2
b1111111111111111111111111111111111111111111111111111111111100111 5
b1 )
b10110 =
b11 9
b11110 \
b110 f
b100000 <
b11101 e
b11000 l
b0 U
0d
b110 B
b100 8
b11100 k
b101000100000001001100011 R
1!
#400000
0!
#405000
b101000 ?
b1111111111111111111111111111111111111111111111111111111111100111 g
b101000 C
b100100 >
b1 0
b1111111111111111111111111111111111111111111111111111111111101000 3
b1 i
b110 %
b0 S
b0 2
b0 5
b1111111111111111111111111111111111111111111111111111111111111000 V
b1000 T
b10 X
b11 7
b110 e
b100100 <
b11000 =
b100 9
b1111111111111111111111111111111111111111111111111111111111101000 f
b100000 k
b11111110000000000000110011100011 R
b11100 l
b100 U
1`
0.
b1010 (
b100 *
b1 1
b1111111111111111111111111111111111111111111111111111111111100111 4
1!
#410000
0!
#415000
1$
1&
b10 @
b0 g
b101100 ?
b101100 C
b10000 >
b10 A
0^
b0 0
b0 3
b0 i
b0 h
0_
b1 Z
b1111111111111111111111111111111111111111111111111111111111101000 %
b1111111111111111111111111111111111111111111111111111111111110000 T
b0 X
b0 V
b1010 )
b100100 =
1a
0/
b1 \
b1111111111111111111111111111111111111111111111111111111111100111 f
b101000 <
b100 7
b1111111111111111111111111111111111111111111111111111111111101000 e
b100000 l
b1111111111111111111111111111111111111111111111111111111111111000 U
b11001 8
b0 (
b0 *
b0 1
b0 4
b100100 k
b0 R
1!
#420000
0!
#425000
0&
b110000 C
b100100 >
1Y
b10000 ?
b1111111111111111111111111111111111111111111111111111111111100111 %
1;
b0 Z
b0 T
0-
b1111111111111111111111111111111111111111111111111111111111100111 e
b101100 <
b0 )
b10000 =
1#
b11001 9
b0 \
b0 f
b101000 k
b100100 l
b0 U
0`
b0 B
b0 8
1!
#430000
0!
#435000
b101000 >
1+
1,
b10 h
b110 2
b11101 5
b101000 l
b10 B
b10000 k
b1100010000000100110011 R
b10100 C
0Y
b10100 ?
0;
b1100010000000100110011 S
b0 %
b100100 =
0a
b0 9
b10000 <
b11001 7
b0 e
1!
#440000
0!
#445000
b11000 ?
0$
b100011 g
b11000 C
b10000 >
b110 0
b110 i
b11101 3
b100011000000110010011 S
b0 7
b10100 <
b101000 =
b10000 l
1.
b10 8
b11 (
b10 *
b110 1
b11101 4
1!
#450000
0!
#455000
b101001 g
b11100 ?
b11100 C
1b
b100011 3
b1 V
1c
b0 h
b10 X
b110 Z
b1000000000100011000001000110011 S
b11110 2
b110 5
b11 )
b10000 =
0#
1/
b10 9
b110 \
b100011 f
b11000 <
b10100 k
b100011000000110010011 R
1!
#460000
0!
#465000
b110 @
b100000 ?
b100000 C
b110 A
b10110 >
0b
b111 g
b110 3
0c
b10 h
b11110 i
b100011 %
b101000100000001001100011 S
b0 V
b10 T
b1 0
b0 X
1-
b10 7
b100011 e
b11100 <
b101001 f
b11000 k
b1000000000100011000001000110011 R
b10100 l
b1 U
1d
b11 8
b1 (
b11 *
b11110 1
b110 4
1!
#470000
0!
#475000
b100100 ?
b100100 C
b11000 >
1^
0+
b111 3
b100 V
0,
b1 h
1_
b10 X
b11110 Z
b11111110000000000000110011100011 S
b101001 %
b0 T
b11110 0
b1111111111111111111111111111111111111111111111111111111111101001 g
b1 2
b1111111111111111111111111111111111111111111111111111111111101000 5
b1 )
b10110 =
b11 9
b11110 \
b111 f
b100000 <
b101001 e
b11000 l
b0 U
0d
b110 B
b100 8
b11100 k
b101000100000001001100011 R
1!
#480000
0!
#485000
b101000 ?
b1111111111111111111111111111111111111111111111111111111111101000 g
b101000 C
b100100 >
b1 0
b1111111111111111111111111111111111111111111111111111111111101001 3
b1 i
b111 %
b0 S
b0 2
b0 5
b1111111111111111111111111111111111111111111111111111111111111000 V
b1000 T
b10 X
b11 7
b111 e
b100100 <
b11000 =
b100 9
b1111111111111111111111111111111111111111111111111111111111101001 f
b100000 k
b11111110000000000000110011100011 R
b11100 l
b100 U
1`
0.
b1010 (
b100 *
b1 1
b1111111111111111111111111111111111111111111111111111111111101000 4
1!
#490000
0!
#495000
1$
1&
b10 @
b0 g
b101100 ?
b101100 C
b10000 >
b10 A
0^
b0 0
b0 3
b0 i
b0 h
0_
b1 Z
b1111111111111111111111111111111111111111111111111111111111101001 %
b1111111111111111111111111111111111111111111111111111111111110000 T
b0 X
b0 V
b1010 )
b100100 =
1a
0/
b1 \
b1111111111111111111111111111111111111111111111111111111111101000 f
b101000 <
b100 7
b1111111111111111111111111111111111111111111111111111111111101001 e
b100000 l
b1111111111111111111111111111111111111111111111111111111111111000 U
b11001 8
b0 (
b0 *
b0 1
b0 4
b100100 k
b0 R
1!
#500000
0!
#505000
0&
b110000 C
b100100 >
1Y
b10000 ?
b1111111111111111111111111111111111111111111111111111111111101000 %
1;
b0 Z
b0 T
0-
b1111111111111111111111111111111111111111111111111111111111101000 e
b101100 <
b0 )
b10000 =
1#
b11001 9
b0 \
b0 f
b101000 k
b100100 l
b0 U
0`
b0 B
b0 8
1!
#510000
0!
#515000
b101000 >
1+
1,
b10 h
b111 2
b101001 5
b101000 l
b10 B
b10000 k
b1100010000000100110011 R
b10100 C
0Y
b10100 ?
0;
b1100010000000100110011 S
b0 %
b100100 =
0a
b0 9
b10000 <
b11001 7
b0 e
1!
#520000
0!
#525000
b11000 ?
0$
b110000 g
b11000 C
b10000 >
b111 0
b111 i
b101001 3
b100011000000110010011 S
b0 7
b10100 <
b101000 =
b10000 l
1.
b10 8
b11 (
b10 *
b111 1
b101001 4
1!
#530000
0!
#535000
b110111 g
b11100 ?
b11100 C
1b
b110000 3
b1 V
1c
b0 h
b10 X
b111 Z
b1000000000100011000001000110011 S
b11110 2
b111 5
b11 )
b10000 =
0#
1/
b10 9
b111 \
b110000 f
b11000 <
b10100 k
b100011000000110010011 R
1!
#540000
0!
#545000
0$
b110 @
b100000 ?
b100000 C
b110 A
b10110 >
0b
b1000 g
b111 3
0c
b10 h
b11110 i
b110000 %
b101000100000001001100011 S
b0 V
b10 T
b1 0
b0 X
1-
b10 7
b110000 e
b11100 <
b110111 f
b11000 k
b1000000000100011000001000110011 R
b10100 l
b1 U
1d
b11 8
b1 (
b11 *
b11110 1
b111 4
1!
#550000
0!
#555000
b100100 ?
b100100 C
b11000 >
1^
0+
b1000 3
b100 V
0,
b1 h
1_
b10 X
b11110 Z
b11111110000000000000110011100011 S
b110111 %
b0 T
b11110 0
b1111111111111111111111111111111111111111111111111111111111101010 g
b1 2
b1111111111111111111111111111111111111111111111111111111111101001 5
b1 )
b10110 =
b11 9
b11110 \
b1000 f
b100000 <
b110111 e
b11000 l
b0 U
0d
b110 B
b100 8
b11100 k
b101000100000001001100011 R
1!
#560000
0!
#565000
b101000 ?
b1111111111111111111111111111111111111111111111111111111111101001 g
b101000 C
b100100 >
b1 0
b1111111111111111111111111111111111111111111111111111111111101010 3
b1 i
b1000 %
b0 S
b0 2
b0 5
b1111111111111111111111111111111111111111111111111111111111111000 V
b1000 T
b10 X
b11 7
b1000 e
b100100 <
b11000 =
b100 9
b1111111111111111111111111111111111111111111111111111111111101010 f
b100000 k
b11111110000000000000110011100011 R
b11100 l
b100 U
1`
0.
b1010 (
b100 *
b1 1
b1111111111111111111111111111111111111111111111111111111111101001 4
1!
#570000
0!
#575000
1$
1&
b10 @
b0 g
b101100 ?
b101100 C
b10000 >
b10 A
0^
b0 0
b0 3
b0 i
b0 h
0_
b1 Z
b1111111111111111111111111111111111111111111111111111111111101010 %
b1111111111111111111111111111111111111111111111111111111111110000 T
b0 X
b0 V
b1010 )
b100100 =
1a
0/
b1 \
b1111111111111111111111111111111111111111111111111111111111101001 f
b101000 <
b100 7
b1111111111111111111111111111111111111111111111111111111111101010 e
b100000 l
b1111111111111111111111111111111111111111111111111111111111111000 U
b11001 8
b0 (
b0 *
b0 1
b0 4
b100100 k
b0 R
1!
#580000
0!
#585000
0&
b110000 C
b100100 >
1Y
b10000 ?
b1111111111111111111111111111111111111111111111111111111111101001 %
1;
b0 Z
b0 T
0-
b1111111111111111111111111111111111111111111111111111111111101001 e
b101100 <
b0 )
b10000 =
1#
b11001 9
b0 \
b0 f
b101000 k
b100100 l
b0 U
0`
b0 B
b0 8
1!
#590000
0!
#595000
b101000 >
1+
1,
b10 h
b1000 2
b110111 5
b101000 l
b10 B
b10000 k
b1100010000000100110011 R
b10100 C
0Y
b10100 ?
0;
b1100010000000100110011 S
b0 %
b100100 =
0a
b0 9
b10000 <
b11001 7
b0 e
1!
#600000
0!
#605000
b11000 ?
0$
b111111 g
b11000 C
b10000 >
b1000 0
b1000 i
b110111 3
b100011000000110010011 S
b0 7
b10100 <
b101000 =
b10000 l
1.
b10 8
b11 (
b10 *
b1000 1
b110111 4
1!
#610000
0!
#615000
b1000111 g
b11100 ?
b11100 C
1b
b111111 3
b1 V
1c
b0 h
b10 X
b1000 Z
b1000000000100011000001000110011 S
b11110 2
b1000 5
b11 )
b10000 =
0#
1/
b10 9
b1000 \
b111111 f
b11000 <
b10100 k
b100011000000110010011 R
1!
#620000
0!
#625000
b110 @
b100000 ?
b100000 C
b110 A
b10110 >
0b
b1001 g
b1000 3
0c
b10 h
b11110 i
b111111 %
b101000100000001001100011 S
b0 V
b10 T
b1 0
b0 X
1-
b10 7
b111111 e
b11100 <
b1000111 f
b11000 k
b1000000000100011000001000110011 R
b10100 l
b1 U
1d
b11 8
b1 (
b11 *
b11110 1
b1000 4
1!
#630000
0!
#635000
b100100 ?
b100100 C
b11000 >
1^
0+
b1001 3
b100 V
0,
b1 h
1_
b10 X
b11110 Z
b11111110000000000000110011100011 S
b1000111 %
b0 T
b11110 0
b1111111111111111111111111111111111111111111111111111111111101011 g
b1 2
b1111111111111111111111111111111111111111111111111111111111101010 5
b1 )
b10110 =
b11 9
b11110 \
b1001 f
b100000 <
b1000111 e
b11000 l
b0 U
0d
b110 B
b100 8
b11100 k
b101000100000001001100011 R
1!
#640000
0!
#645000
b101000 ?
b1111111111111111111111111111111111111111111111111111111111101010 g
b101000 C
b100100 >
b1 0
b1111111111111111111111111111111111111111111111111111111111101011 3
b1 i
b1001 %
b0 S
b0 2
b0 5
b1111111111111111111111111111111111111111111111111111111111111000 V
b1000 T
b10 X
b11 7
b1001 e
b100100 <
b11000 =
b100 9
b1111111111111111111111111111111111111111111111111111111111101011 f
b100000 k
b11111110000000000000110011100011 R
b11100 l
b100 U
1`
0.
b1010 (
b100 *
b1 1
b1111111111111111111111111111111111111111111111111111111111101010 4
1!
#650000
0!
