PIPI/pipelined_processor_tb.vcd
$date
	Sat Mar 08 02:01:37 2025
$end
$version
	Icarus Verilog
$end
$timescale
	1ps
$end
$scope module pipelined_processor_tb $end
$scope module uut $end
$var wire 1 ! clk $end
$var wire 1 " reset $end
$var wire 1 # z_flag_EX_MEM $end
$var wire 1 $ z_flag $end
$var wire 64 % write_data [63:0] $end
$var wire 1 & tmp_carry_2 $end
$var wire 1 ' tmp_carry $end
$var wire 5 ( rs2_ID_EX [4:0] $end
$var wire 5 ) rs2_EX_MEM [4:0] $end
$var wire 5 * rs1_ID_EX [4:0] $end
$var wire 1 + reg_write_en_out_mux $end
$var wire 1 , reg_write_en_in_mux $end
$var wire 1 - reg_write_en_MEM_WB $end
$var wire 1 . reg_write_en_ID_EX $end
$var wire 1 / reg_write_en_EX_MEM $end
$var wire 64 0 read_data2_mux [63:0] $end
$var wire 64 1 read_data2_ID_EX [63:0] $end
$var wire 64 2 read_data2 [63:0] $end
$var wire 64 3 read_data1_mux [63:0] $end
$var wire 64 4 read_data1_ID_EX [63:0] $end
$var wire 64 5 read_data1 [63:0] $end
$var wire 64 6 read_data [63:0] $end
$var wire 5 7 rd_MEM_WB [4:0] $end
$var wire 5 8 rd_ID_EX [4:0] $end
$var wire 5 9 rd_EX_MEM [4:0] $end
$var wire 1 : pc_write $end
$var wire 1 ; pc_src $end
$var wire 64 < pc_out [63:0] $end
$var wire 64 = pc_next [63:0] $end
$var wire 64 > pc_in [63:0] $end
$var wire 4 ? op_out_mux [3:0] $end
$var wire 4 @ op_in_mux [3:0] $end
$var wire 4 A op_ID_EX [3:0] $end
$var wire 64 B mux_pc_1 [63:0] $end
$var wire 1 C mem_write_out_mux $end
$var wire 1 D mem_write_in_mux $end
$var wire 1 E mem_write_ID_EX $end
$var wire 1 F mem_write_EX_MEM $end
$var wire 1 G mem_to_reg_out_mux $end
$var wire 1 H mem_to_reg_in_mux $end
$var wire 1 I mem_to_reg_MEM_WB $end
$var wire 1 J mem_to_reg_ID_EX $end
$var wire 1 K mem_to_reg_EX_MEM $end
$var wire 1 L mem_read_out_mux $end
$var wire 1 M mem_read_in_mux $end
$var wire 1 N mem_read_ID_EX $end
$var wire 1 O mem_read_EX_MEM $end
$var wire 1 P ld_sd_sel $end
$var wire 32 Q instr_IF_ID [31:0] $end
$var wire 32 R instr [31:0] $end
$var wire 64 S imm_shifted [63:0] $end
$var wire 64 T imm_ID_EX [63:0] $end
$var wire 64 U imm [63:0] $end
$var wire 2 V forward_B [1:0] $end
$var wire 2 W forward_A [1:0] $end
$var wire 1 X flush $end
$var wire 64 Y data_mem_in [63:0] $end
$var wire 64 Z data_MEM_WB [63:0] $end
$var wire 64 [ data_EX_MEM [63:0] $end
$var wire 1 \ control_mux_sel $end
$var wire 1 ] branch_out_mux $end
$var wire 1 ^ branch_in_mux $end
$var wire 1 _ branch_ID_EX $end
$var wire 1 ` branch_EX_MEM $end
$var wire 1 a alu_src_out_mux $end
$var wire 1 b alu_src_in_mux $end
$var wire 1 c alu_src_ID_EX $end
$var wire 64 d alu_out_MEM_WB [63:0] $end
$var wire 64 e alu_out_EX_MEM [63:0] $end
$var wire 64 f alu_out [63:0] $end
$var wire 2 g alu_op [1:0] $end
$var wire 64 h alu_in_2 [63:0] $end
$var wire 1 i IF_ID_write $end
$var wire 64 j IF_ID_pc_out [63:0] $end
$var wire 64 k ID_EX_pc_out [63:0] $end
$upscope $end
$upscope $end
$enddefinitions $end
$comment Show the parameter values. $end
$dumpall
$end
#0
$dumpvars
b0 k
b0 j
1i
b0 h
b0 g
b0 f
b0 e
b0 d
0c
0b
0a
0`
0_
0^
0]
0\
b0 [
b0 Z
b0 Y
0X
b0 W
b0 V
b0 U
b0 T
b0 S
b101000000000000010010011 R
b0 Q
0P
0O
0N
0M
0L
0K
0J
0I
0H
0G
0F
0E
0D
0C
b100 B
b0 A
b10 @
b10 ?
b100 >
b0 =
b0 <
0;
1:
b0 9
b0 8
b0 7
b0 6
b0 5
b0 4
b0 3
b0 2
b0 1
b0 0
0/
0.
0-
0,
0+
b0 *
b0 )
b0 (
0'
0&
b0 %
1$
z#
1"
0!
$end
#2000
0"
#5000
b1000 >
b1000 B
1a
1+
b1010 U
1,
1b
b100010011 R
b100 <
b10 A
b101000000000000010010011 Q
1!
#10000
0!
#15000
b10100 =
b1100 >
b1100 B
0$
b1010 f
b0 U
b10100 S
b1010 0
b110010011 R
b100 j
b100010011 Q
b1010 T
1c
1.
b1 8
b1010 (
b1000 <
1!
#20000
0!
#25000
b10000 >
b100 =
b10000 B
1$
b0 f
b100000000001000010011 R
b0 0
b0 S
b1100 <
b1010 )
1/
b1 9
b1010 e
b100 k
b0 T
b10 8
b0 (
b1000 j
b110010011 Q
1!
#30000
0!
#35000
b10100 >
b1000 =
b10100 B
b1 U
b1100010011000000100011 R
b1010 %
b1100 j
b100000000001000010011 Q
b1000 k
b11 8
b0 )
b10 9
b0 e
b10000 <
1-
b1 7
b1010 d
1!
#40000
b1010 2
0!
#45000
b11000 >
b11000 B
b1110 =
0$
b1 f
1C
0+
b1010 h
0,
1D
b0 %
b100010000000100010011 R
b1 0
b10 S
b0 2
b0 U
b10 7
b0 d
b10100 <
b11 9
b1100 k
b1 T
b100 8
b1 (
b1010 1
b10000 j
b1100010011000000100011 Q
1!
#50000
0!
#55000
b11100 >
b10000 =
b11100 B
0C
1+
1$
b0 f
1,
0D
b0 h
b1010 2
b1 U
b0 0
b0 S
b1010 Y
b10000010011000000100011 R
b1 V
b10100 j
b100010000000100010011 Q
b10000 k
b0 T
1E
0.
b0 8
b11 (
b10 *
b0 1
b1 )
b100 9
b1010 [
b1 e
b11000 <
b11 7
1!
#60000
0!
#65000
b100000 >
b100000 B
b10110 =
0$
b1 f
1C
0+
b1010 h
0,
1D
b1 %
b100010000000100010011 R
b0 Y
b1 0
b10 S
b0 V
b0 2
b0 U
b100 7
b1 d
b11100 <
b11 )
1F
0/
b0 9
b0 [
b0 e
b10100 k
b1 T
0E
1.
b10 8
b1 (
b1010 1
b11000 j
b10000010011000000100011 Q
1!
#70000
b1 2
0!
#75000
b100100 >
b11000 =
b100100 B
0C
1+
0$
b1 f
b1 3
1,
0D
b1 h
b1010 2
b1 U
b0 0
b0 S
b1010 Y
b1000000000001010010011 R
b10 W
b0 %
b11100 j
b100010000000100010011 Q
b11000 k
b0 T
1E
0.
b0 8
b100 (
b1 1
b1 )
0F
1/
b10 9
b1010 [
b1 e
b100000 <
0-
b0 7
b0 d
1!
#80000
0!
#85000
b101000 >
b101000 B
b11110 =
0$
b10 f
b1 3
b1010 h
b1 %
b100101000100001100011 R
b1 Y
b1 0
b10 S
b1 W
b0 2
b10 U
1-
b10 7
b1 d
b100100 <
b100 )
1F
0/
b0 9
b1 [
b11100 k
b1 T
0E
1.
b10 8
b1 (
b1010 1
b100000 j
b1000000000001010010011 Q
1!
#90000
b1 2
0!
#95000
b110 ?
b101100 >
b100100 =
b101100 B
b110 @
1]
0a
0+
b10 f
b0 3
0,
0b
b1 g
1^
b10 h
b1010 2
b10000 U
b10 0
b100 S
b1010 Y
b10000011000001100110011 R
b10 V
b0 W
b100100 j
b100101000100001100011 Q
b100000 k
b10 T
b101 8
b10 (
b0 *
b1 1
b1 )
0F
1/
b10 9
b1010 [
b10 e
b101000 <
0-
b0 7
1!
#100000
0!
#105000
b10 ?
b110000 >
b1000100 =
b110000 B
b1010 0
b10 @
0]
1+
b10 3
b1010 h
1,
b10 g
0^
b10 %
b11000010011000000100011 R
b10 Y
b100000 S
b1111111111111111111111111111111111111111111111111111111111111000 f
b10 W
b0 V
b1 2
b0 U
1-
b10 7
b10 d
b101100 <
b10 )
b101 9
b10 [
b100100 k
b10000 T
1_
0c
b110 A
0.
b10000 8
b1 (
b101 *
b1010 1
b101000 j
b10000011000001100110011 Q
1!
#110000
0!
#115000
b110100 >
b101000 =
b110100 B
1C
1a
0+
b1 0
0,
1b
1D
b0 g
b1 h
b0 3
b0 2
b10 5
b0 S
b1 f
b1010 Y
b100010000000100010011 R
b0 W
b101100 j
b11000010011000000100011 Q
b101000 k
b0 T
0_
b10 A
1.
b110 8
b100 (
b11 *
b1 1
b1 )
1`
0/
b10000 9
b1010 [
b1111111111111111111111111111111111111111111111111111111111111000 e
b110000 <
b101 7
1!
#120000
0!
#125000
b111000 >
b111000 B
b101100 =
0$
b10 f
0C
1+
b1 h
b10 3
1,
0D
b1111111111111111111111111111111111111111111111111111111111111000 %
b100101000001010010011 R
b1 Y
b0 0
b10 V
b1010 2
b1 U
0-
b10000 7
b1111111111111111111111111111111111111111111111111111111111111000 d
b110100 <
b100 )
0`
1/
b110 9
b1 [
b1 e
b101100 k
1c
1E
0.
b0 8
b110 (
b10 *
b0 1
b10 4
b110000 j
b100010000000100010011 Q
1!
#130000
0!
#135000
b111100 >
b110010 =
b111100 B
b11 f
b1010 h
b1 0
b10 S
b10000000000000110110011 R
b0 V
b1 %
b110100 j
b100101000001010010011 Q
b110000 k
b1 T
0E
1.
b10 8
b1 (
b1010 1
b110 )
1F
0/
b0 9
b10 e
b111000 <
1-
b110 7
b1 d
1!
#140000
0!
#145000
b1000000 >
b1000000 B
b110110 =
0a
0b
b10 g
b10 %
b11000000000001000110011 R
b1010 Y
b1 2
b0 5
b0 U
0-
b0 7
b10 d
b111100 <
b1 )
0F
1/
b10 9
b1010 [
b11 e
b110100 k
b101 8
b101 *
b111000 j
b10000000000000110110011 Q
1!
#150000
0!
#155000
b1000100 >
b111000 =
b1000100 B
b1 f
b1 h
b0 3
b0 S
b1 0
b11111110000000000000100111100011 R
b11 %
b111100 j
b11000000000001000110011 Q
b111000 k
b0 T
0c
b11 8
b100 (
b0 *
b1 1
b0 4
b101 9
b1000000 <
1-
b10 7
b11 d
1!
#160000
0!
#165000
b110 ?
b1001000 >
b1001000 B
b111100 =
b110 @
1]
0+
b1111111111111111111111111111111111111111111111111111111111110010 U
0,
b1 g
1^
b100110011 R
b1 Y
b0 2
b101 7
b1000100 <
b100 )
b11 9
b1 [
b1 e
b111100 k
b100 8
b110 (
b1000000 j
b11111110000000000000100111100011 Q
1!
#170000
0!
#175000
1X
1;
1$
1&
b10 ?
b100100 >
b100100 =
b1001100 B
b10 @
0]
1+
b0 0
1,
b10 g
0^
b0 h
b0 U
b1111111111111111111111111111111111111111111111111111111111100100 S
b0 f
b10011010100000011 R
b1 %
b1000100 j
b100110011 Q
b1000000 k
b1111111111111111111111111111111111111111111111111111111111110010 T
1_
b110 A
0.
b10011 8
b0 (
b0 1
b110 )
b100 9
b1001000 <
b11 7
b1 d
1!
#180000
0!
#185000
0&
b0 =
b101000 B
0+
b101000 >
0,
b0 g
b100101000100001100011 R
b0 Y
b0 S
0;
0X
b100 7
b100100 <
b0 )
1`
0/
b10011 9
b0 [
b0 e
b0 k
b0 T
0_
b0 A
b0 8
b0 j
b0 Q
1!
#190000
0!
#195000
b110 ?
b101100 >
b101100 B
b110 @
1]
b10000 U
b1 g
1^
b1010 2
b11 5
b10000011000001100110011 R
b0 %
b100100 j
b100101000100001100011 Q
b10 A
0`
b0 9
b101000 <
0-
b10011 7
b0 d
1!
#200000
0!
#205000
b10 ?
0$
b1111111111111111111111111111111111111111111111111111111111111001 f
b110000 B
b1000100 =
b10 @
0]
1+
b1010 0
0X
b110000 >
b1010 h
b11 3
1,
b10 g
0^
b11000010011000000100011 R
b100000 S
0;
b1 2
b1 5
b0 U
b0 7
b101100 <
b100100 k
b10000 T
1_
b110 A
b10000 8
b1 (
b101 *
b1010 1
b11 4
b101000 j
b10000011000001100110011 Q
1!
#210000
0!
#215000
0$
b110100 >
b101000 =
b110100 B
1C
1a
0+
b1 0
0,
1b
1D
b0 g
b1 h
b1 3
b11 5
b0 S
b10 f
b1010 Y
b100010000000100010011 R
b101100 j
b11000010011000000100011 Q
b101000 k
b0 T
0_
b10 A
1.
b110 8
b100 (
b11 *
b1 1
b1 4
b1 )
1`
b10000 9
b1010 [
b1111111111111111111111111111111111111111111111111111111111111001 e
b110000 <
1!
#220000
0!
#225000
b111000 >
b111000 B
b101100 =
b11 f
0C
1+
b10 h
b11 3
1,
0D
b1111111111111111111111111111111111111111111111111111111111111001 %
b100101000001010010011 R
b1 Y
b0 0
b10 V
b1010 2
b1 U
b10000 7
b1111111111111111111111111111111111111111111111111111111111111001 d
b110100 <
b100 )
0`
1/
b110 9
b1 [
b10 e
b101100 k
1c
1E
0.
b0 8
b110 (
b10 *
b11 4
b110000 j
b100010000000100010011 Q
1!
#230000
0!
#235000
0$
b111100 >
b110010 =
b111100 B
b100 f
b1010 h
b1 0
b10 S
b10 Y
b10000000000000110110011 R
b0 V
b10 %
b110100 j
b100101000001010010011 Q
b110000 k
b1 T
0E
1.
b10 8
b1 (
b1010 1
b110 )
1F
0/
b0 9
b10 [
b11 e
b111000 <
1-
b110 7
b10 d
1!
#240000
0!
#245000
b1000000 >
b1000000 B
b110110 =
0a
0b
b10 g
b11 %
b11000000000001000110011 R
b1010 Y
b1 2
b0 5
b0 U
0-
b0 7
b11 d
b111100 <
b1 )
0F
1/
b10 9
b1010 [
b100 e
b110100 k
b101 8
b101 *
b111000 j
b10000000000000110110011 Q
1!
#250000
0!
#255000
b1000100 >
b111000 =
b1000100 B
b1 f
b1 h
b0 3
b10 2
b0 S
b1 0
b11111110000000000000100111100011 R
b100 %
b111100 j
b11000000000001000110011 Q
b111000 k
b0 T
0c
b11 8
b100 (
b0 *
b1 1
b0 4
b101 9
b1000000 <
1-
b10 7
b100 d
1!
#260000
0!
#265000
b110 ?
b1001000 >
b10 f
b1001000 B
b111100 =
b110 @
1]
0+
b10 0
b10 h
b1111111111111111111111111111111111111111111111111111111111110010 U
0,
b1 g
1^
b100110011 R
b1 Y
b0 2
b101 7
b1000100 <
b100 )
b11 9
b1 [
b1 e
b111100 k
b100 8
b110 (
b10 1
b1000000 j
b11111110000000000000100111100011 Q
1!
#270000
0!
#275000
1X
1;
1$
1&
b10 ?
b100100 >
b100100 =
b1001100 B
b10 @
0]
1+
b0 0
1,
b10 g
0^
b0 h
b0 U
b1111111111111111111111111111111111111111111111111111111111100100 S
b0 f
b10 Y
b10011010100000011 R
b1 %
b1000100 j
b100110011 Q
b1000000 k
b1111111111111111111111111111111111111111111111111111111111110010 T
1_
b110 A
0.
b10011 8
b0 (
b0 1
b110 )
b100 9
b10 [
b10 e
b1001000 <
b11 7
b1 d
1!
#280000
0!
#285000
0&
b0 =
b101000 B
0+
b101000 >
0,
b0 g
b10 %
b100101000100001100011 R
b0 Y
b0 S
0;
0X
b100 7
b10 d
b100100 <
b0 )
1`
0/
b10011 9
b0 [
b0 e
b0 k
b0 T
0_
b0 A
b0 8
b0 j
b0 Q
1!
#290000
0!
#295000
b110 ?
b101100 >
b101100 B
b110 @
1]
b10000 U
b1 g
1^
b1010 2
b100 5
b10000011000001100110011 R
b0 %
b100100 j
b100101000100001100011 Q
b10 A
0`
b0 9
b101000 <
0-
b10011 7
b0 d
1!
#300000
0!
#305000
b10 ?
0$
b1111111111111111111111111111111111111111111111111111111111111010 f
b110000 B
b1000100 =
b10 @
0]
1+
b1010 0
0X
b110000 >
b1010 h
b100 3
1,
b10 g
0^
b11000010011000000100011 R
b100000 S
0;
b10 2
b1 5
b0 U
b0 7
b101100 <
b100100 k
b10000 T
1_
b110 A
b10000 8
b1 (
b101 *
b1010 1
b100 4
b101000 j
b10000011000001100110011 Q
1!
#310000
0!
#315000
b110100 >
b101000 =
b110100 B
1C
1a
0+
b10 0
0,
1b
1D
b0 g
b10 h
b1 3
b100 5
b0 S
b11 f
b1010 Y
b100010000000100010011 R
b101100 j
b11000010011000000100011 Q
b101000 k
b0 T
0_
b10 A
1.
b110 8
b100 (
b11 *
b10 1
b1 4
b1 )
1`
b10000 9
b1010 [
b1111111111111111111111111111111111111111111111111111111111111010 e
b110000 <
1!
#320000
0!
#325000
b111000 >
b111000 B
b101100 =
b100 f
0C
1+
b11 h
b100 3
1,
0D
b1111111111111111111111111111111111111111111111111111111111111010 %
b100101000001010010011 R
b10 Y
b0 0
b10 V
b1010 2
b1 U
b10000 7
b1111111111111111111111111111111111111111111111111111111111111010 d
b110100 <
b100 )
0`
1/
b110 9
b10 [
b11 e
b101100 k
1c
1E
0.
b0 8
b110 (
b10 *
b100 4
b110000 j
b100010000000100010011 Q
1!
#330000
0!
#335000
b111100 >
b110010 =
b111100 B
b101 f
b1010 h
b1 0
b10 S
b11 Y
b10000000000000110110011 R
b0 V
b11 %
b110100 j
b100101000001010010011 Q
b110000 k
b1 T
0E
1.
b10 8
b1 (
b1010 1
b110 )
1F
0/
b0 9
b11 [
b100 e
b111000 <
1-
b110 7
b11 d
1!
#340000
0!
#345000
b1000000 >
b1000000 B
b110110 =
0a
0b
b10 g
b100 %
b11000000000001000110011 R
b1010 Y
b10 2
b0 5
b0 U
0-
b0 7
b100 d
b111100 <
b1 )
0F
1/
b10 9
b1010 [
b101 e
b110100 k
b101 8
b101 *
b111000 j
b10000000000000110110011 Q
1!
#350000
0!
#355000
b1000100 >
b111000 =
b1000100 B
b10 f
b10 h
b0 3
b11 2
b0 S
b10 0
b11111110000000000000100111100011 R
b101 %
b111100 j
b11000000000001000110011 Q
b111000 k
b0 T
0c
b11 8
b100 (
b0 *
b10 1
b0 4
b101 9
b1000000 <
1-
b10 7
b101 d
1!
#360000
0!
#365000
b110 ?
b1001000 >
b11 f
b1001000 B
b111100 =
b110 @
1]
0+
b11 0
b11 h
b1111111111111111111111111111111111111111111111111111111111110010 U
0,
b1 g
1^
b100110011 R
b10 Y
b0 2
b101 7
b1000100 <
b100 )
b11 9
b10 [
b10 e
b111100 k
b100 8
b110 (
b11 1
b1000000 j
b11111110000000000000100111100011 Q
1!
#370000
0!
#375000
1X
1;
1$
1&
b10 ?
b100100 >
b100100 =
b1001100 B
b10 @
0]
1+
b0 0
1,
b10 g
0^
b0 h
b0 U
b1111111111111111111111111111111111111111111111111111111111100100 S
b0 f
b11 Y
b10011010100000011 R
b10 %
b1000100 j
b100110011 Q
b1000000 k
b1111111111111111111111111111111111111111111111111111111111110010 T
1_
b110 A
0.
b10011 8
b0 (
b0 1
b110 )
b100 9
b11 [
b11 e
b1001000 <
b11 7
b10 d
1!
#380000
0!
#385000
0&
b0 =
b101000 B
0+
b101000 >
0,
b0 g
b11 %
b100101000100001100011 R
b0 Y
b0 S
0;
0X
b100 7
b11 d
b100100 <
b0 )
1`
0/
b10011 9
b0 [
b0 e
b0 k
b0 T
0_
b0 A
b0 8
b0 j
b0 Q
1!
#390000
0!
#395000
b110 ?
b101100 >
b101100 B
b110 @
1]
b10000 U
b1 g
1^
b1010 2
b101 5
b10000011000001100110011 R
b0 %
b100100 j
b100101000100001100011 Q
b10 A
0`
b0 9
b101000 <
0-
b10011 7
b0 d
1!
#400000
0!
#405000
b10 ?
0$
b1111111111111111111111111111111111111111111111111111111111111011 f
b110000 B
b1000100 =
b10 @
0]
1+
b1010 0
0X
b110000 >
b1010 h
b101 3
1,
b10 g
0^
b11000010011000000100011 R
b100000 S
0;
b11 2
b10 5
b0 U
b0 7
b101100 <
b100100 k
b10000 T
1_
b110 A
b10000 8
b1 (
b101 *
b1010 1
b101 4
b101000 j
b10000011000001100110011 Q
1!
#410000
0!
#415000
b110100 >
b101000 =
b110100 B
1C
1a
0+
b11 0
0,
1b
1D
b0 g
b11 h
b10 3
b101 5
b0 S
b101 f
b1010 Y
b100010000000100010011 R
b101100 j
b11000010011000000100011 Q
b101000 k
b0 T
0_
b10 A
1.
b110 8
b100 (
b11 *
b11 1
b10 4
b1 )
1`
b10000 9
b1010 [
b1111111111111111111111111111111111111111111111111111111111111011 e
b110000 <
1!
#420000
0!
#425000
b111000 >
b101 f
b111000 B
b101100 =
0C
1+
b101 h
b101 3
1,
0D
b1111111111111111111111111111111111111111111111111111111111111011 %
b100101000001010010011 R
b11 Y
b0 0
b10 V
b1010 2
b1 U
b10000 7
b1111111111111111111111111111111111111111111111111111111111111011 d
b110100 <
b100 )
0`
1/
b110 9
b11 [
b101 e
b101100 k
1c
1E
0.
b0 8
b110 (
b10 *
b101 4
b110000 j
b100010000000100010011 Q
1!
#430000
0!
#435000
b111100 >
b110010 =
b111100 B
b110 f
b1010 h
b1 0
b10 S
b101 Y
b10000000000000110110011 R
b0 V
b101 %
b110100 j
b100101000001010010011 Q
b110000 k
b1 T
0E
1.
b10 8
b1 (
b1010 1
b110 )
1F
0/
b0 9
b101 [
b111000 <
1-
b110 7
b101 d
1!
#440000
0!
#445000
b1000000 >
b1000000 B
b110110 =
0a
0b
b10 g
b11000000000001000110011 R
b1010 Y
b11 2
b0 5
b0 U
0-
b0 7
b111100 <
b1 )
0F
1/
b10 9
b1010 [
b110 e
b110100 k
b101 8
b101 *
b111000 j
b10000000000000110110011 Q
1!
#450000
0!
#455000
b1000100 >
b111000 =
b1000100 B
b11 f
b11 h
b0 3
b101 2
b0 S
b11 0
b11111110000000000000100111100011 R
b110 %
b111100 j
b11000000000001000110011 Q
b111000 k
b0 T
0c
b11 8
b100 (
b0 *
b11 1
b0 4
b101 9
b1000000 <
1-
b10 7
b110 d
1!
#460000
0!
#465000
b110 ?
b1001000 >
b101 f
b1001000 B
b111100 =
b110 @
1]
0+
b101 0
b101 h
b1111111111111111111111111111111111111111111111111111111111110010 U
0,
b1 g
1^
b100110011 R
b11 Y
b0 2
b101 7
b1000100 <
b100 )
b11 9
b11 [
b11 e
b111100 k
b100 8
b110 (
b101 1
b1000000 j
b11111110000000000000100111100011 Q
1!
#470000
0!
#475000
1X
1;
1$
1&
b10 ?
b100100 >
b100100 =
b1001100 B
b10 @
0]
1+
b0 0
1,
b10 g
0^
b0 h
b0 U
b1111111111111111111111111111111111111111111111111111111111100100 S
b0 f
b101 Y
b10011010100000011 R
b11 %
b1000100 j
b100110011 Q
b1000000 k
b1111111111111111111111111111111111111111111111111111111111110010 T
1_
b110 A
0.
b10011 8
b0 (
b0 1
b110 )
b100 9
b101 [
b101 e
b1001000 <
b11 7
b11 d
1!
#480000
0!
#485000
0&
b0 =
b101000 B
0+
b101000 >
0,
b0 g
b101 %
b100101000100001100011 R
b0 Y
b0 S
0;
0X
b100 7
b101 d
b100100 <
b0 )
1`
0/
b10011 9
b0 [
b0 e
b0 k
b0 T
0_
b0 A
b0 8
b0 j
b0 Q
1!
#490000
0!
#495000
b110 ?
b101100 >
b101100 B
b110 @
1]
b10000 U
b1 g
1^
b1010 2
b110 5
b10000011000001100110011 R
b0 %
b100100 j
b100101000100001100011 Q
b10 A
0`
b0 9
b101000 <
0-
b10011 7
b0 d
1!
#500000
0!
#505000
b10 ?
0$
b1111111111111111111111111111111111111111111111111111111111111100 f
b110000 B
b1000100 =
b10 @
0]
1+
b1010 0
0X
b110000 >
b1010 h
b110 3
1,
b10 g
0^
b11000010011000000100011 R
b100000 S
0;
b101 2
b11 5
b0 U
b0 7
b101100 <
b100100 k
b10000 T
1_
b110 A
b10000 8
b1 (
b101 *
b1010 1
b110 4
b101000 j
b10000011000001100110011 Q
1!
#510000
0!
#515000
0$
b110100 >
b101000 =
b110100 B
1C
1a
0+
b101 0
0,
1b
1D
b0 g
b101 h
b11 3
b110 5
b0 S
b1000 f
b1010 Y
b100010000000100010011 R
b101100 j
b11000010011000000100011 Q
b101000 k
b0 T
0_
b10 A
1.
b110 8
b100 (
b11 *
b101 1
b11 4
b1 )
1`
b10000 9
b1010 [
b1111111111111111111111111111111111111111111111111111111111111100 e
b110000 <
1!
#520000
0!
#525000
b110 f
b111000 >
b111000 B
b101100 =
0C
1+
b1000 h
b110 3
1,
0D
b1111111111111111111111111111111111111111111111111111111111111100 %
b100101000001010010011 R
b101 Y
b0 0
b10 V
b1010 2
b1 U
b10000 7
b1111111111111111111111111111111111111111111111111111111111111100 d
b110100 <
b100 )
0`
1/
b110 9
b101 [
b1000 e
b101100 k
1c
1E
0.
b0 8
b110 (
b10 *
b110 4
b110000 j
b100010000000100010011 Q
1!
#530000
0!
#535000
b111100 >
b110010 =
b111100 B
b111 f
b1010 h
b1 0
b10 S
b1000 Y
b10000000000000110110011 R
b0 V
b1000 %
b110100 j
b100101000001010010011 Q
b110000 k
b1 T
0E
1.
b10 8
b1 (
b1010 1
b110 )
1F
0/
b0 9
b1000 [
b110 e
b111000 <
1-
b110 7
b1000 d
1!
#540000
0!
#545000
b1000000 >
b1000000 B
b110110 =
0a
0b
b10 g
b110 %
b11000000000001000110011 R
b1010 Y
b101 2
b0 5
b0 U
0-
b0 7
b110 d
b111100 <
b1 )
0F
1/
b10 9
b1010 [
b111 e
b110100 k
b101 8
b101 *
b111000 j
b10000000000000110110011 Q
1!
#550000
0!
#555000
b1000100 >
b111000 =
b1000100 B
b101 f
b101 h
b0 3
b1000 2
b0 S
b101 0
b11111110000000000000100111100011 R
b111 %
b111100 j
b11000000000001000110011 Q
b111000 k
b0 T
0c
b11 8
b100 (
b0 *
b101 1
b0 4
b101 9
b1000000 <
1-
b10 7
b111 d
1!
#560000
0!
#565000
b110 ?
b1001000 >
b1000 f
b1001000 B
b111100 =
b110 @
1]
0+
b1000 0
b1000 h
b1111111111111111111111111111111111111111111111111111111111110010 U
0,
b1 g
1^
b100110011 R
b101 Y
b0 2
b101 7
b1000100 <
b100 )
b11 9
b101 [
b101 e
b111100 k
b100 8
b110 (
b1000 1
b1000000 j
b11111110000000000000100111100011 Q
1!
#570000
0!
#575000
1X
1;
1$
1&
b10 ?
b100100 >
b100100 =
b1001100 B
b10 @
0]
1+
b0 0
1,
b10 g
0^
b0 h
b0 U
b1111111111111111111111111111111111111111111111111111111111100100 S
b0 f
b1000 Y
b10011010100000011 R
b101 %
b1000100 j
b100110011 Q
b1000000 k
b1111111111111111111111111111111111111111111111111111111111110010 T
1_
b110 A
0.
b10011 8
b0 (
b0 1
b110 )
b100 9
b1000 [
b1000 e
b1001000 <
b11 7
b101 d
1!
#580000
0!
#585000
0&
b0 =
b101000 B
0+
b101000 >
0,
b0 g
b1000 %
b100101000100001100011 R
b0 Y
b0 S
0;
0X
b100 7
b1000 d
b100100 <
b0 )
1`
0/
b10011 9
b0 [
b0 e
b0 k
b0 T
0_
b0 A
b0 8
b0 j
b0 Q
1!
#590000
0!
#595000
b110 ?
b101100 >
b101100 B
b110 @
1]
b10000 U
b1 g
1^
b1010 2
b111 5
b10000011000001100110011 R
b0 %
b100100 j
b100101000100001100011 Q
b10 A
0`
b0 9
b101000 <
0-
b10011 7
b0 d
1!
#600000
0!
#605000
b10 ?
0$
b1111111111111111111111111111111111111111111111111111111111111101 f
b110000 B
b1000100 =
b10 @
0]
1+
b1010 0
0X
b110000 >
b1010 h
b111 3
1,
b10 g
0^
b11000010011000000100011 R
b100000 S
0;
b1000 2
b101 5
b0 U
b0 7
b101100 <
b100100 k
b10000 T
1_
b110 A
b10000 8
b1 (
b101 *
b1010 1
b111 4
b101000 j
b10000011000001100110011 Q
1!
#610000
0!
#615000
b110100 >
b101000 =
b110100 B
1C
1a
0+
b1000 0
0,
1b
1D
b0 g
b1000 h
b101 3
b111 5
b0 S
b1101 f
b1010 Y
b100010000000100010011 R
b101100 j
b11000010011000000100011 Q
b101000 k
b0 T
0_
b10 A
1.
b110 8
b100 (
b11 *
b1000 1
b101 4
b1 )
1`
b10000 9
b1010 [
b1111111111111111111111111111111111111111111111111111111111111101 e
b110000 <
1!
#620000
0!
#625000
b111000 >
b111000 B
b101100 =
b111 f
0C
1+
b1101 h
b111 3
1,
0D
b1111111111111111111111111111111111111111111111111111111111111101 %
b100101000001010010011 R
b1000 Y
b0 0
b10 V
b1010 2
b1 U
b10000 7
b1111111111111111111111111111111111111111111111111111111111111101 d
b110100 <
b100 )
0`
1/
b110 9
b1000 [
b1101 e
b101100 k
1c
1E
0.
b0 8
b110 (
b10 *
b111 4
b110000 j
b100010000000100010011 Q
1!
#630000
0!
#635000
0$
b111100 >
b110010 =
b111100 B
b1000 f
b1010 h
b1 0
b10 S
b1101 Y
b10000000000000110110011 R
b0 V
b1101 %
b110100 j
b100101000001010010011 Q
b110000 k
b1 T
0E
1.
b10 8
b1 (
b1010 1
b110 )
1F
0/
b0 9
b1101 [
b111 e
b111000 <
1-
b110 7
b1101 d
1!
#640000
0!
#645000
b1000000 >
b1000000 B
b110110 =
0a
0b
b10 g
b111 %
b11000000000001000110011 R
b1010 Y
b1000 2
b0 5
b0 U
0-
b0 7
b111 d
b111100 <
b1 )
0F
1/
b10 9
b1010 [
b1000 e
b110100 k
b101 8
b101 *
b111000 j
b10000000000000110110011 Q
1!
#650000
0!
#655000
b1000100 >
b111000 =
b1000100 B
0$
b1000 f
b1000 h
b0 3
b1101 2
b0 S
b1000 0
b11111110000000000000100111100011 R
b1000 %
b111100 j
b11000000000001000110011 Q
b111000 k
b0 T
0c
b11 8
b100 (
b0 *
b1000 1
b0 4
b101 9
b1000000 <
1-
b10 7
b1000 d
1!
#660000
0!
#665000
b110 ?
b1001000 >
b1101 f
b1001000 B
b111100 =
b110 @
1]
0+
b1101 0
b1101 h
b1111111111111111111111111111111111111111111111111111111111110010 U
0,
b1 g
1^
b100110011 R
b1000 Y
b0 2
b101 7
b1000100 <
b100 )
b11 9
b1000 [
b111100 k
b100 8
b110 (
b1101 1
b1000000 j
b11111110000000000000100111100011 Q
1!
#670000
0!
