PIPI/pipelined_processor_tb.vcd
$date
	Sat Mar  8 15:08:44 2025
$end
$version
	Icarus Verilog
$end
$timescale
	1ps
$end
$scope module pipelined_processor_tb $end
$scope module uut $end
$var wire 1 ! clk $end
$var wire 1 " reset $end
$var wire 1 # z_flag_EX_MEM $end
$var wire 1 $ z_flag $end
$var wire 64 % write_data [63:0] $end
$var wire 1 & tmp_carry_2 $end
$var wire 1 ' tmp_carry $end
$var wire 5 ( rs2_ID_EX [4:0] $end
$var wire 5 ) rs2_EX_MEM [4:0] $end
$var wire 5 * rs1_ID_EX [4:0] $end
$var wire 1 + reg_write_en_out_mux $end
$var wire 1 , reg_write_en_in_mux $end
$var wire 1 - reg_write_en_MEM_WB $end
$var wire 1 . reg_write_en_ID_EX $end
$var wire 1 / reg_write_en_EX_MEM $end
$var wire 64 0 read_data2_mux [63:0] $end
$var wire 64 1 read_data2_ID_EX [63:0] $end
$var wire 64 2 read_data2 [63:0] $end
$var wire 64 3 read_data1_mux [63:0] $end
$var wire 64 4 read_data1_ID_EX [63:0] $end
$var wire 64 5 read_data1 [63:0] $end
$var wire 64 6 read_data [63:0] $end
$var wire 5 7 rd_MEM_WB [4:0] $end
$var wire 5 8 rd_ID_EX [4:0] $end
$var wire 5 9 rd_EX_MEM [4:0] $end
$var wire 1 : pc_write $end
$var wire 1 ; pc_src $end
$var wire 64 < pc_out [63:0] $end
$var wire 64 = pc_next [63:0] $end
$var wire 64 > pc_in [63:0] $end
$var wire 4 ? op_out_mux [3:0] $end
$var wire 4 @ op_in_mux [3:0] $end
$var wire 4 A op_ID_EX [3:0] $end
$var wire 64 B mux_pc_1 [63:0] $end
$var wire 1 C mem_write_out_mux $end
$var wire 1 D mem_write_in_mux $end
$var wire 1 E mem_write_ID_EX $end
$var wire 1 F mem_write_EX_MEM $end
$var wire 1 G mem_to_reg_out_mux $end
$var wire 1 H mem_to_reg_in_mux $end
$var wire 1 I mem_to_reg_MEM_WB $end
$var wire 1 J mem_to_reg_ID_EX $end
$var wire 1 K mem_to_reg_EX_MEM $end
$var wire 1 L mem_read_out_mux $end
$var wire 1 M mem_read_in_mux $end
$var wire 1 N mem_read_ID_EX $end
$var wire 1 O mem_read_EX_MEM $end
$var wire 1 P ld_sd_sel $end
$var wire 32 Q instr_IF_ID [31:0] $end
$var wire 32 R instr [31:0] $end
$var wire 64 S imm_shifted [63:0] $end
$var wire 64 T imm_ID_EX [63:0] $end
$var wire 64 U imm [63:0] $end
$var wire 2 V forward_B [1:0] $end
$var wire 2 W forward_A [1:0] $end
$var wire 1 X flush $end
$var wire 64 Y data_mem_in [63:0] $end
$var wire 64 Z data_MEM_WB [63:0] $end
$var wire 64 [ data_EX_MEM [63:0] $end
$var wire 1 \ control_mux_sel $end
$var wire 1 ] branch_out_mux $end
$var wire 1 ^ branch_in_mux $end
$var wire 1 _ branch_ID_EX $end
$var wire 1 ` branch_EX_MEM $end
$var wire 1 a alu_src_out_mux $end
$var wire 1 b alu_src_in_mux $end
$var wire 1 c alu_src_ID_EX $end
$var wire 64 d alu_out_MEM_WB [63:0] $end
$var wire 64 e alu_out_EX_MEM [63:0] $end
$var wire 64 f alu_out [63:0] $end
$var wire 2 g alu_op [1:0] $end
$var wire 64 h alu_in_2 [63:0] $end
$var wire 1 i IF_ID_write $end
$var wire 64 j IF_ID_pc_out [63:0] $end
$var wire 64 k ID_EX_pc_out [63:0] $end
$upscope $end
$upscope $end
$enddefinitions $end
$comment Show the parameter values. $end
$dumpall
$end
#0
$dumpvars
b0 k
b0 j
1i
b0 h
b0 g
b0 f
b0 e
b0 d
0c
0b
0a
0`
0_
0^
0]
0\
b0 [
b0 Z
b0 Y
0X
b0 W
b0 V
b0 U
b0 T
b0 S
b11111100000000001010010011 R
b0 Q
0P
0O
0N
0M
0L
0K
0J
0I
0H
0G
0F
0E
0D
0C
b100 B
b0 A
b10 @
b10 ?
b100 >
b0 =
b0 <
0;
1:
b0 9
b0 8
b0 7
b0 6
b0 5
b0 4
b0 3
b0 2
b0 1
b0 0
0/
0.
0-
0,
0+
b0 *
b0 )
b0 (
0'
0&
b0 %
1$
z#
1"
0!
$end
#2000
0"
#5000
b1000 >
b1000 B
1a
1+
b111111 U
1,
1b
b10100101000001010110011 R
b100 <
b10 A
b11111100000000001010010011 Q
1!
#10000
0!
#15000
b1111110 =
b1100 >
b1100 B
0a
0$
b111111 f
0b
b10 g
b0 U
b1111110 S
b111111 0
b1000000010100000000001100110011 R
b100 j
b10100101000001010110011 Q
b111111 T
1c
1.
b101 8
b11111 (
b1000 <
1!
#20000
0!
#25000
b110 ?
b10000 >
b100 =
b10000 B
b110 @
0$
b1111110 f
b111111 h
b111111 3
b11000000011100010100011 R
b0 S
b111111 0
b10 V
b10 W
b1100 <
b11111 )
1/
b101 9
b111111 e
b100 k
b0 T
0c
b101 (
b101 *
b1000 j
b1000000010100000000001100110011 Q
1!
#30000
0!
#35000
b10 ?
b10100 >
b10 @
b1000 =
b10100 B
1C
1a
0+
b1111110 0
b10001 U
0,
1b
1D
b0 g
b1111110 h
b0 3
0$
b1111111111111111111111111111111111111111111111111111111110000010 f
b111111 Y
b1000100000011001110000011 R
b10 V
b0 W
b111111 %
b1100 j
b11000000011100010100011 Q
b1000 k
b110 A
b110 8
b0 *
b101 )
b111111 [
b1111110 e
b10000 <
1-
b101 7
b111111 d
1!
#40000
0!
#45000
b11000 >
b11000 B
b101110 =
1L
1G
0C
1+
b1111111111111111111111111111111111111111111111111111111110000010 h
1,
0D
1H
1M
b1111110 %
b10100101000010000110011 R
b1111110 Y
b100010 S
b10001 0
b10001 f
b10 V
b10001 U
b1111110 d
b10100 <
b110 9
b1111110 [
b1111111111111111111111111111111111111111111111111111111110000010 e
b1100 k
b10001 T
1c
1E
b10 A
0.
b10001 8
b110 (
b10000 j
b1000100000011001110000011 Q
1!
#50000
0!
#55000
b11100 >
b110010 =
b11100 B
0L
0G
0a
0b
b10 g
0H
0M
b0 h
b1111110 2
b1111110 5
b0 U
b1111111111111111111111111111111111111111111111111111111110000010 Y
b11101000011000000100011 R
b0 V
b1111111111111111111111111111111111111111111111111111111110000010 %
b10100 j
b10100101000010000110011 Q
b10000 k
0E
1.
1J
1N
b111 8
b10001 (
b110 )
1F
0/
b10001 9
b1111111111111111111111111111111111111111111111111111111110000010 [
b10001 e
b11000 <
b110 7
b1111111111111111111111111111111111111111111111111111111110000010 d
1!
#60000
0!
#65000
0$
b100000 >
b100000 B
b10100 =
b11111100 f
1C
1a
0+
b1111110 h
b1111110 3
0,
1b
1D
b0 g
b10001 %
b1000011010010000011 R
b1111111111111111111111111111111111111111111111111111111110000010 6
b0 Y
b0 S
b1111110 0
b0 2
b0 5
0-
b10001 7
b10001 d
b11100 <
b10001 )
0F
1/
1K
1O
b111 9
b0 [
b10100 k
b0 T
0c
0J
0N
b1000 8
b101 (
b101 *
b1111110 1
b1111110 4
b11000 j
b11101000011000000100011 Q
1!
#70000
0!
#75000
b100100 >
b11000 =
0$
b100100 B
1L
1G
0C
1+
b11111100 f
1,
0D
1H
1M
b1111111111111111111111111111111111111111111111111111111110000010 h
b11111100 3
b0 U
b0 0
b0 6
b1111110 Y
b1000100000000010100010011 R
b1111111111111111111111111111111111111111111111111111111110000010 %
b1 V
b10 W
b11100 j
b1000011010010000011 Q
b11000 k
1c
1E
0.
b0 8
b111 (
b1000 *
b0 1
b0 4
b101 )
0K
0O
b1000 9
b1111110 [
b11111100 e
b100000 <
1-
1I
b111 7
b1111111111111111111111111111111111111111111111111111111110000010 Z
1!
#80000
0!
#85000
0$
b11111100 f
b101000 >
b101000 B
b11100 =
0L
0G
b0 h
b11111100 3
0H
0M
b11111100 %
b1010000010110110011 R
b1111111111111111111111111111111111111111111111111111111110000010 Y
b0 V
b1 W
b10001 U
0I
b1000 7
b0 Z
b11111100 d
b100100 <
b111 )
1F
0/
b0 9
b1111111111111111111111111111111111111111111111111111111110000010 [
b11100 k
0E
1.
1J
1N
b1001 8
b0 (
b100000 j
b1000100000000010100010011 Q
1!
#90000
0!
#95000
b101100 >
b1000010 =
b101100 B
0a
b10001 f
b0 3
0b
b10 g
b0 U
b10001 0
b100010 S
b0 Y
b1011011011000000011 R
b1111111111111111111111111111111111111111111111111111111110000010 6
b0 W
b100100 j
b1010000010110110011 Q
b100000 k
b10001 T
0J
0N
b1010 8
b10001 (
b0 *
b0 )
0F
1/
1K
1O
b1001 9
b0 [
b101000 <
0-
b0 7
1!
#100000
0!
#105000
b110000 >
b110000 B
b100100 =
0$
b10001 f
1L
1G
1a
b10001 3
1b
b0 g
1H
1M
b1111111111111111111111111111111111111111111111111111111110000010 %
b10100101000011010110011 R
b0 6
b0 S
b0 0
b10 W
1-
1I
b1001 7
b1111111111111111111111111111111111111111111111111111111110000010 Z
b101100 <
b10001 )
0K
0O
b1010 9
b10001 e
b100100 k
b0 T
0c
b1011 8
b0 (
b1010 *
b101000 j
b1011011011000000011 Q
1!
#110000
0!
#115000
b110100 >
b101000 =
b110100 B
0L
0G
0a
0b
b10 g
0H
0M
b1111110 2
b1111110 5
b0 U
b100001101000001001100011 R
b10 W
b10001 %
b101100 j
b10100101000011010110011 Q
b101000 k
1c
1J
1N
b1100 8
b1011 *
b0 )
b1011 9
b110000 <
0I
b1010 7
b0 Z
b10001 d
1!
#120000
0!
#125000
0$
b110 ?
b111000 >
b11111100 f
b111000 B
b101100 =
b110 @
1]
0+
b1111110 3
b1111110 0
b1111110 h
b100 U
0,
b1 g
1^
b11111111111100000000111110010011 R
b1111111111111111111111111111111111111111111111111111111110000010 6
b0 W
b11111100 2
b0 5
b1011 7
b110100 <
1K
1O
b1100 9
b101100 k
0c
0J
0N
b1101 8
b101 (
b101 *
b1111110 1
b1111110 4
b110000 j
b100001101000001001100011 Q
1!
#130000
0!
#135000
b10 ?
b111000 =
b111100 B
b10 @
0]
1a
1+
b11111100 0
1,
1b
b0 g
0^
1X
b111000 >
b11111100 h
b11111100 3
b0 2
b1111111111111111111111111111111111111111111111111111111111111111 U
b1000 S
1;
1$
b0 f
b0 6
b1111110 Y
b110101101000011100110011 R
b1111111111111111111111111111111111111111111111111111111110000010 %
b10 W
b110100 j
b11111111111100000000111110010011 Q
b110000 k
b100 T
1_
b110 A
0.
b100 8
b1000 (
b1101 *
b11111100 1
b0 4
b101 )
0K
0O
b1101 9
b1111110 [
b11111100 e
b111000 <
1I
b1100 7
b1111111111111111111111111111111111111111111111111111111110000010 Z
1!
#140000
0!
#145000
b0 =
0a
0+
b0 0
b0 3
b111100 >
b0 h
0,
0b
b11111100 %
b11111100 Y
b0 S
0;
1$
b0 f
0X
b0 W
b0 U
0I
b1101 7
b0 Z
b11111100 d
b1000 )
1`
0/
b100 9
b11111100 [
b0 e
b0 k
b0 T
0_
b0 A
b0 8
b0 (
b0 *
b0 1
b0 j
b0 Q
1!
#150000
0!
#155000
b1000000 >
b1000000 B
1+
1,
b10 g
b11111100 2
b11111100 5
b0 Y
b1000000010101000000011110110011 R
b0 %
b111000 j
b110101101000011100110011 Q
b10 A
b0 )
0`
b0 9
b0 [
b111100 <
0-
b100 7
b0 d
1!
#160000
0!
#165000
b110 ?
b1000100 >
0$
b111111000 f
b1000100 B
b111000 =
b110 @
b11111100 0
b11111100 h
b11111100 3
b111001111000100000110011 R
b1111110 2
b0 7
b1000000 <
b111000 k
1.
b1110 8
b1101 (
b1101 *
b11111100 1
b11111100 4
b111100 j
b1000000010101000000011110110011 Q
1!
#170000
0!
#175000
b10 ?
b1001000 >
b10 @
b111100 =
b1001000 B
b1111110 0
b1111110 h
b0 2
b0 5
0$
b1111110 f
b11111100 Y
b111101110000100010110011 R
b1000000 j
b111001111000100000110011 Q
b111100 k
b110 A
b1111 8
b101 (
b1000 *
b1111110 1
b1101 )
1/
b1110 9
b11111100 [
b111111000 e
b1000100 <
1!
#180000
0!
#185000
b1001100 >
b1001100 B
b1000000 =
b111111000 0
b111111000 h
b1111110 3
b111111000 %
b1000110000000100100110011 R
b1111110 Y
b1001110110 f
b1 V
b10 W
1-
b1110 7
b111111000 d
b1001000 <
b101 )
b1111 9
b1111110 [
b1111110 e
b1000000 k
b10 A
b10000 8
b1110 (
b1111 *
b0 1
b0 4
b1000100 j
b111101110000100010110011 Q
1!
#190000
b111111000 5
0!
#195000
b1001110110 f
b1010000 >
b1000100 =
b1010000 B
b1111110 0
b1111110 h
b111111000 3
b0 5
b111111000 Y
b1000110010000100100110011 R
b1 V
b0 W
b1111110 %
b1001000 j
b1000110000000100100110011 Q
b1000100 k
b10001 8
b1111 (
b1110 *
b111111000 4
b1110 )
b10000 9
b111111000 [
b1001110110 e
b1001100 <
b1111 7
b1111110 d
1!
#200000
0!
#205000
b1010100 >
b10011101100 f
b1010100 B
b1001000 =
b1001110110 0
b1001110110 h
b1001110110 3
b1001110110 %
b10010000100110110011 R
b1111110 Y
b1 W
b10 V
b10000 7
b1001110110 d
b1010000 <
b1111 )
b10001 9
b1111110 [
b1001000 k
b10010 8
b10001 (
b10000 *
b0 4
b1001100 j
b1000110010000100100110011 Q
1!
#210000
0!
#215000
0$
b11101100010 f
b1011000 >
b1001100 =
b1011000 B
b1001110110 0
b10011101100 3
b1001110110 h
b1001110110 Y
b1011011101000000011 R
b1 V
b10 W
b1010000 j
b10010000100110110011 Q
b1001100 k
b10010 *
b10001 )
b10010 9
b1001110110 [
b10011101100 e
b1010100 <
b10001 7
1!
#220000
0!
#225000
b1011100 >
b11101100010 f
b1011100 B
b1010000 =
b0 0
1L
1G
1a
b0 h
b11101100010 3
1b
b0 g
1H
1M
b10011101100 %
b111010001011011110010100011 R
b0 V
b10 W
b10001 5
b10010 7
b10011101100 d
b1011000 <
b11101100010 e
b1010000 k
b10011 8
b0 (
b1010100 j
b1011011101000000011 Q
1!
#230000
0!
#235000
b10001 f
b1100000 >
b1010100 =
b1100000 B
0L
0G
1C
0+
b10001 3
0,
1D
0H
0M
b1111001 U
b0 W
b0 Y
b111100101011011101010000011 R
b11101100010 %
b1011000 j
b111010001011011110010100011 Q
b1010100 k
1c
1J
1N
b10100 8
b1011 *
b10001 4
b0 )
b10011 9
b0 [
b1011100 <
b11101100010 d
1!
#240000
0!
#245000
b1100100 >
b1100100 B
b101001010 =
b10001010 f
1L
1G
0C
1+
b10001 h
1,
0D
1H
1M
b101000000011000010100011 R
b1111111111111111111111111111111111111111111111111111111110000010 6
b1111001 0
b11110010 S
b10 V
b1111001 U
b10011 7
b1100000 <
1K
1O
b10100 9
b10001 e
b1011000 k
b1111001 T
1E
0.
0J
0N
b11001 8
b10100 (
b1011100 j
b111100101011011101010000011 Q
1!
#250000
0!
#255000
b1101000 >
b101001110 =
b1101000 B
0L
0G
1C
0+
0,
1D
0H
0M
b0 h
b10001 2
b0 5
b1 U
b0 6
b1111111111111111111111111111111111111111111111111111111110000010 Y
b100000011101100000011 R
b0 V
1P
b1111111111111111111111111111111111111111111111111111111110000010 %
b1100000 j
b101000000011000010100011 Q
b1011100 k
0E
1.
1J
1N
b10101 8
b11001 (
b10100 )
1F
0/
0K
0O
b11001 9
b10001 [
b10001010 e
b1100100 <
1I
b10100 7
b1111111111111111111111111111111111111111111111111111111110000010 Z
b10001 d
1!
#260000
0!
#265000
b1101100 >
b1101100 B
b1100010 =
b1 f
1L
1G
0C
1+
b10001 h
b0 3
1,
0D
1H
1M
b0 Y
b10001010 %
b1010110110011000010100011 R
0P
b1111111111111111111111111111111111111111111111111111111110000010 6
b1 0
b10 S
b0 2
b1 U
0-
0I
b11001 7
b0 Z
b10001010 d
b1101000 <
b11001 )
0F
1/
1K
1O
b10101 9
b0 [
b1100000 k
b1 T
1E
0.
0J
0N
b1 8
b1010 (
b0 *
b10001 1
b0 4
b1100100 j
b100000011101100000011 Q
1!
#270000
0!
#275000
b1110000 >
b1100110 =
b1110000 B
0L
0G
b0 ?
0a
0+
1\
0i
0:
0,
1D
0H
0M
b0 h
b1 U
b0 6
b10001 Y
b110110011101110000011 R
b1111111111111111111111111111111111111111111111111111111110000010 %
b1101000 j
b1010110110011000010100011 Q
b1100100 k
0E
1.
1J
1N
b10110 8
b1 (
b0 1
b1010 )
1F
0/
0K
0O
b1 9
b10001 [
b1 e
b1101100 <
1-
1I
b10101 7
b1111111111111111111111111111111111111111111111111111111110000010 Z
1!
#280000
b1111111111111111111111111111111111111111111111111111111110000010 2
0!
#285000
b1101010 =
b10 ?
1C
1a
b1 3
b1111111111111111111111111111111111111111111111111111111110000010 h
b1 %
b10001 6
b0 Y
b1111111111111111111111111111111111111111111111111111111110000010 0
1$
b0 f
0\
1i
1:
b10 W
0-
0I
b1 7
b0 Z
b1 d
b1 )
0F
1/
1K
1O
b10110 9
b0 [
b1101000 k
0c
b0 A
0.
0J
0N
b1 8
b10101 (
b10110 *
b1111111111111111111111111111111111111111111111111111111110000010 1
1!
#290000
0!
#295000
b1110100 >
b1110100 B
1L
1G
0C
1+
1,
0D
1H
1M
b10001 3
b0 2
b1 U
b1 0
0$
b10010 f
b0 6
b1111111111111111111111111111111111111111111111111111111110000010 Y
b111100101011011110000000011 R
b10001 %
b1 W
b1101100 j
b110110011101110000011 Q
1c
1E
b10 A
b10101 )
0/
0K
0O
b1 9
b1111111111111111111111111111111111111111111111111111111110000010 [
b0 e
b1110000 <
1-
1I
b10110 7
b10001 Z
1!
#300000
b10001 5
0!
#305000
b1111000 >
b1111000 B
b1101110 =
b0 h
b0 %
b1000001100000000000110010110011 R
b0 W
b1111001 U
0-
0I
b1 7
b0 Z
b0 d
b1110100 <
1F
b10010 e
b1101100 k
0E
1.
1J
1N
b10111 8
b1 (
b0 1
b10001 4
b1110000 j
b111100101011011110000000011 Q
1!
#310000
0!
#315000
b110 @
b1111100 >
b101100010 =
b1111100 B
0L
0G
b0 ?
0a
0+
b10001010 f
1\
0i
0:
0b
b10 g
0H
0M
b0 5
b0 U
b1111001 0
b11110010 S
b0 Y
b100000011110100000011 R
b1111111111111111111111111111111111111111111111111111111110000010 6
b10010 %
b1110100 j
b1000001100000000000110010110011 Q
b1110000 k
b1111001 T
b11000 8
b11001 (
b1011 *
b1 )
0F
1/
1K
1O
b10111 9
b0 [
b1111000 <
b10010 d
1!
#320000
0!
#325000
b1110100 =
1$
b110 ?
1+
b10001010 h
b0 3
b1111111111111111111111111111111111111111111111111111111110000010 %
b0 S
b10001010 0
b0 f
0\
1i
1:
b10 V
1-
1I
b10111 7
b1111111111111111111111111111111111111111111111111111111110000010 Z
b11001 )
b11000 9
b10001010 e
b1110100 k
b0 T
0c
b0 A
0.
0J
0N
b11001 8
b11000 (
b0 *
b0 4
1!
#330000
0!
#335000
b10 ?
b10000000 >
b10 @
b10000000 B
1L
1G
1a
b1111111111111111111111111111111111111111111111111111111110000010 0
b1 U
1b
b0 g
1H
1M
b1111111111111111111111111111111111111111111111111111111110000010 h
0$
b1111110 f
b0 6
b10001010 Y
b1101001010000001001100011 R
b1 V
b1111000 j
b100000011110100000011 Q
b110 A
1.
b11000 )
0/
0K
0O
b11001 9
b10001010 [
b0 e
b1111100 <
b11000 7
b10001010 d
1!
#340000
0!
#345000
b10000100 >
b10000100 B
b1111010 =
b0 ?
b110 @
0]
0L
0G
0a
0+
b0 h
1\
0i
0:
0,
0b
b1 g
0H
0M
1^
b0 %
b1000000111100000000111110110011 R
b1111111111111111111111111111111111111111111111111111111110000010 Y
b10 S
b1 0
b1 f
b0 V
b10001 5
b100 U
0-
0I
b11001 7
b0 Z
b0 d
b10000000 <
1/
b1111111111111111111111111111111111111111111111111111111110000010 [
b1111110 e
b1111000 k
b1 T
1c
b10 A
1J
1N
b11010 8
b1 (
b1111100 j
b1101001010000001001100011 Q
1!
#350000
0!
#355000
b10000100 =
1]
b110 ?
b1 h
b10001 3
b1000 S
b1 0
0$
b1 f
0\
1i
1:
b10001 6
b0 Y
b10 V
b1111110 %
b1111100 k
b100 T
0c
b0 A
0.
0J
0N
b100 8
b11010 (
b1010 *
b10001 4
b1 )
1K
1O
b11010 9
b0 [
b1 e
1-
b1111110 d
1!
#360000
0!
#365000
1X
1;
1$
b110 ?
b10000100 >
b10001000 B
b10001 0
b110 @
0]
1+
b10001 h
1,
b10 g
0^
b10001 %
b100000011110110000011 R
b0 6
b1 V
b1 Y
b0 f
b1111110 2
b0 5
b0 U
1I
b11010 7
b10001 Z
b1 d
b10000100 <
b11010 )
0/
0K
0O
b100 9
b1 [
1_
b110 A
b10000000 j
b1000000111100000000111110110011 Q
1!
#370000
0!
#375000
b10 ?
b10 @
b0 =
0+
b0 0
b0 h
0,
b0 g
b10001000 >
b0 3
b0 2
b0 S
0;
1$
b0 f
0X
b10001 Y
b0 V
b1 %
b0 j
b0 Q
b0 k
b0 T
0_
b0 A
b0 8
b0 (
b0 *
b0 4
1`
b10001 [
b0 e
0-
0I
b100 7
b0 Z
1!
#380000
0!
#385000
b10001100 >
b10001100 B
1L
1G
1a
1+
b1 U
1,
1b
1H
1M
b0 %
b111011011111000000011 R
b0 Y
b0 d
b10001000 <
b0 )
0`
b0 9
b0 [
b10 A
b10000100 j
b100000011110110000011 Q
1!
#390000
0!
#395000
b10010000 >
b10000110 =
b10010000 B
0L
0G
b0 ?
0a
0+
0$
b1 f
1\
0i
0:
b10 S
b1 0
b0 R
b10001000 j
b111011011111000000011 Q
b10000100 k
b1 T
1c
1.
1J
1N
b11011 8
b1 (
b10001100 <
b0 7
1!
#400000
0!
#405000
b10001010 =
1L
1G
b10 ?
1a
1+
b1 3
b10001 6
b0 0
1$
b0 f
0\
1i
1:
b10 W
b1 )
1/
1K
1O
b11011 9
b1 e
b10001000 k
0c
b0 A
0.
0J
0N
b11100 8
b11011 *
1!
#410000
0!
#415000
b10010100 >
b10010100 B
0L
0G
0a
0+
0,
0b
0H
0M
b10001 3
b0 U
b1 0
0$
b10010 f
b0 6
b1 W
b10001 %
b10001100 j
b0 Q
1c
b10 A
1.
1J
1N
0/
0K
0O
b11100 9
b0 e
b10010000 <
1-
1I
b11011 7
b10001 Z
b1 d
1!
#420000
0!
#425000
1$
b10011000 >
b10011000 B
b10001100 =
b0 f
b0 3
b0 %
b1111111111111111111111111111111111111111111111111111111110000010 6
b0 S
b0 0
b0 W
0-
0I
b11100 7
b0 Z
b0 d
b10010100 <
1/
1K
1O
b10010 e
b10001100 k
b0 T
0c
0.
0J
0N
b0 8
b0 (
b0 *
b10010000 j
1!
#430000
0!
#435000
b10011100 >
b10010000 =
b10011100 B
b0 6
b1111111111111111111111111111111111111111111111111111111110000010 %
b10010100 j
b10010000 k
b0 )
0/
0K
0O
b0 9
b0 e
b10011000 <
1-
1I
b1111111111111111111111111111111111111111111111111111111110000010 Z
b10010 d
1!
#440000
0!
#445000
b10100000 >
b10100000 B
b10010100 =
b0 %
0-
0I
b0 7
b0 Z
b0 d
b10011100 <
b10010100 k
b10011000 j
1!
#450000
0!
#455000
b10100100 >
b10011000 =
b10100100 B
b10011100 j
b10011000 k
b10100000 <
1!
#460000
0!
#465000
b10101000 >
b10101000 B
b10011100 =
b10100100 <
b10011100 k
b10100000 j
1!
#470000
0!
#475000
b10101100 >
b10100000 =
b10101100 B
b10100100 j
b10100000 k
b10101000 <
1!
#480000
0!
#485000
b10110000 >
b10110000 B
b10100100 =
b10101100 <
b10100100 k
b10101000 j
1!
#490000
0!
#495000
b10110100 >
b10101000 =
b10110100 B
b10101100 j
b10101000 k
b10110000 <
1!
#500000
0!
#505000
b10111000 >
b10111000 B
b10101100 =
b10110100 <
b10101100 k
b10110000 j
1!
#510000
0!
#515000
b10111100 >
b10110000 =
b10111100 B
b10110100 j
b10110000 k
b10111000 <
1!
#520000
0!
#525000
b11000000 >
b11000000 B
b10110100 =
b10111100 <
b10110100 k
b10111000 j
1!
#530000
0!
#535000
b11000100 >
b10111000 =
b11000100 B
b10111100 j
b10111000 k
b11000000 <
1!
#540000
0!
#545000
b11001000 >
b11001000 B
b10111100 =
b11000100 <
b10111100 k
b11000000 j
1!
#550000
0!
#555000
b11001100 >
b11000000 =
b11001100 B
b11000100 j
b11000000 k
b11001000 <
1!
#560000
0!
#565000
b11010000 >
b11010000 B
b11000100 =
b11001100 <
b11000100 k
b11001000 j
1!
#570000
0!
#575000
b11010100 >
b11001000 =
b11010100 B
b11001100 j
b11001000 k
b11010000 <
1!
#580000
0!
#585000
b11011000 >
b11011000 B
b11001100 =
b11010100 <
b11001100 k
b11010000 j
1!
#590000
0!
#595000
b11011100 >
b11010000 =
b11011100 B
b11010100 j
b11010000 k
b11011000 <
1!
#600000
0!
#605000
b11100000 >
b11100000 B
b11010100 =
b11011100 <
b11010100 k
b11011000 j
1!
#610000
0!
#615000
b11100100 >
b11011000 =
b11100100 B
b11011100 j
b11011000 k
b11100000 <
1!
#620000
0!
#625000
b11101000 >
b11101000 B
b11011100 =
b11100100 <
b11011100 k
b11100000 j
1!
#630000
0!
#635000
b11101100 >
b11100000 =
b11101100 B
b11100100 j
b11100000 k
b11101000 <
1!
#640000
0!
#645000
b11110000 >
b11110000 B
b11100100 =
b11101100 <
b11100100 k
b11101000 j
1!
#650000
0!
#655000
b11110100 >
b11101000 =
b11110100 B
b11101100 j
b11101000 k
b11110000 <
1!
#660000
0!
#665000
b11111000 >
b11111000 B
b11101100 =
b11110100 <
b11101100 k
b11110000 j
1!
#670000
0!
#675000
b11111100 >
b11110000 =
b11111100 B
b11110100 j
b11110000 k
b11111000 <
1!
#680000
0!
#685000
b100000000 >
b100000000 B
b11110100 =
b11111100 <
b11110100 k
b11111000 j
1!
#690000
0!
#695000
b100000100 >
b11111000 =
b100000100 B
b11111100 j
b11111000 k
b100000000 <
1!
#700000
0!
#705000
b100001000 >
b100001000 B
b11111100 =
b100000100 <
b11111100 k
b100000000 j
1!
#710000
0!
#715000
b100001100 >
b100000000 =
b100001100 B
b100000100 j
b100000000 k
b100001000 <
1!
#720000
0!
#725000
b100010000 >
b100010000 B
b100000100 =
b100001100 <
b100000100 k
b100001000 j
1!
#730000
0!
#735000
b100010100 >
b100001000 =
b100010100 B
b100001100 j
b100001000 k
b100010000 <
1!
#740000
0!
#745000
b100011000 >
b100011000 B
b100001100 =
b100010100 <
b100001100 k
b100010000 j
1!
#750000
0!
#755000
b100011100 >
b100010000 =
b100011100 B
b100010100 j
b100010000 k
b100011000 <
1!
#760000
0!
#765000
b100100000 >
b100100000 B
b100010100 =
b100011100 <
b100010100 k
b100011000 j
1!
#770000
0!
#775000
b100100100 >
b100011000 =
b100100100 B
b100011100 j
b100011000 k
b100100000 <
1!
#780000
0!
#785000
b100101000 >
b100101000 B
b100011100 =
b100100100 <
b100011100 k
b100100000 j
1!
#790000
0!
#795000
b100101100 >
b100100000 =
b100101100 B
b100100100 j
b100100000 k
b100101000 <
1!
#800000
0!
#805000
b100110000 >
b100110000 B
b100100100 =
b100101100 <
b100100100 k
b100101000 j
1!
#810000
0!
#815000
b100110100 >
b100101000 =
b100110100 B
b100101100 j
b100101000 k
b100110000 <
1!
#820000
0!
#825000
b100111000 >
b100111000 B
b100101100 =
b100110100 <
b100101100 k
b100110000 j
1!
#830000
0!
#835000
b100111100 >
b100110000 =
b100111100 B
b100110100 j
b100110000 k
b100111000 <
1!
#840000
0!
#845000
b101000000 >
b101000000 B
b100110100 =
b100111100 <
b100110100 k
b100111000 j
1!
#850000
0!
#855000
b101000100 >
b100111000 =
b101000100 B
b100111100 j
b100111000 k
b101000000 <
1!
#860000
0!
#865000
b101001000 >
b101001000 B
b100111100 =
b101000100 <
b100111100 k
b101000000 j
1!
#870000
0!
#875000
b101001100 >
b101000000 =
b101001100 B
b101000100 j
b101000000 k
b101001000 <
1!
#880000
0!
#885000
b101010000 >
b101010000 B
b101000100 =
b101001100 <
b101000100 k
b101001000 j
1!
#890000
0!
#895000
b101010100 >
b101001000 =
b101010100 B
b101001100 j
b101001000 k
b101010000 <
1!
#900000
0!
#905000
b101011000 >
b101011000 B
b101001100 =
b101010100 <
b101001100 k
b101010000 j
1!
#910000
0!
#915000
b101011100 >
b101010000 =
b101011100 B
b101010100 j
b101010000 k
b101011000 <
1!
#920000
0!
#925000
b101100000 >
b101100000 B
b101010100 =
b101011100 <
b101010100 k
b101011000 j
1!
#930000
0!
#935000
b101100100 >
b101011000 =
b101100100 B
b101011100 j
b101011000 k
b101100000 <
1!
#940000
0!
#945000
b101101000 >
b101101000 B
b101011100 =
b101100100 <
b101011100 k
b101100000 j
1!
#950000
0!
#955000
b101101100 >
b101100000 =
b101101100 B
b101100100 j
b101100000 k
b101101000 <
1!
#960000
0!
#965000
b101110000 >
b101110000 B
b101100100 =
b101101100 <
b101100100 k
b101101000 j
1!
#970000
0!
#975000
b101110100 >
b101101000 =
b101110100 B
b101101100 j
b101101000 k
b101110000 <
1!
#980000
0!
#985000
b101111000 >
b101111000 B
b101101100 =
b101110100 <
b101101100 k
b101110000 j
1!
#990000
0!
#995000
b101111100 >
b101110000 =
b101111100 B
b101110100 j
b101110000 k
b101111000 <
1!
#1000000
0!
#1005000
b110000000 >
b110000000 B
b101110100 =
b101111100 <
b101110100 k
b101111000 j
1!
#1010000
0!
#1015000
b110000100 >
b101111000 =
b110000100 B
b101111100 j
b101111000 k
b110000000 <
1!
#1020000
0!
#1025000
b110001000 >
b110001000 B
b101111100 =
b110000100 <
b101111100 k
b110000000 j
1!
#1030000
0!
#1035000
b110001100 >
b110000000 =
b110001100 B
b110000100 j
b110000000 k
b110001000 <
1!
#1040000
0!
#1045000
b110010000 >
b110010000 B
b110000100 =
b110001100 <
b110000100 k
b110001000 j
1!
#1050000
0!
#1055000
b110010100 >
b110001000 =
b110010100 B
b110001100 j
b110001000 k
b110010000 <
1!
#1060000
0!
