PIPI/pipelined_processor_tb.vcd
$date
	Sat Mar 08 23:41:31 2025
$end
$version
	Icarus Verilog
$end
$timescale
	1ps
$end
$scope module pipelined_processor_tb $end
$scope module uut $end
$var wire 1 ! clk $end
$var wire 1 " reset $end
$var wire 1 # z_flag $end
$var wire 64 $ write_data [63:0] $end
$var wire 1 % tmp_carry_2 $end
$var wire 1 & tmp_carry $end
$var wire 5 ' rs2_ID_EX [4:0] $end
$var wire 5 ( rs2_EX_MEM [4:0] $end
$var wire 5 ) rs1_ID_EX [4:0] $end
$var wire 1 * reg_write_en_out_mux $end
$var wire 1 + reg_write_en_in_mux $end
$var wire 1 , reg_write_en_MEM_WB $end
$var wire 1 - reg_write_en_ID_EX $end
$var wire 1 . reg_write_en_EX_MEM $end
$var wire 64 / read_data2_mux [63:0] $end
$var wire 64 0 read_data2_ID_EX [63:0] $end
$var wire 64 1 read_data2 [63:0] $end
$var wire 64 2 read_data1_mux [63:0] $end
$var wire 64 3 read_data1_ID_EX [63:0] $end
$var wire 64 4 read_data1 [63:0] $end
$var wire 64 5 read_data [63:0] $end
$var wire 5 6 rd_MEM_WB [4:0] $end
$var wire 5 7 rd_ID_EX [4:0] $end
$var wire 5 8 rd_EX_MEM [4:0] $end
$var wire 1 9 pc_write $end
$var wire 1 : pc_src $end
$var wire 64 ; pc_out [63:0] $end
$var wire 64 < pc_next [63:0] $end
$var wire 64 = pc_in [63:0] $end
$var wire 4 > op_out_mux [3:0] $end
$var wire 4 ? op_in_mux [3:0] $end
$var wire 4 @ op_ID_EX [3:0] $end
$var wire 64 A mux_pc_1 [63:0] $end
$var wire 1 B mem_write_out_mux $end
$var wire 1 C mem_write_in_mux $end
$var wire 1 D mem_write_ID_EX $end
$var wire 1 E mem_write_EX_MEM $end
$var wire 1 F mem_to_reg_out_mux $end
$var wire 1 G mem_to_reg_in_mux $end
$var wire 1 H mem_to_reg_MEM_WB $end
$var wire 1 I mem_to_reg_ID_EX $end
$var wire 1 J mem_to_reg_EX_MEM $end
$var wire 1 K mem_read_out_mux $end
$var wire 1 L mem_read_in_mux $end
$var wire 1 M mem_read_ID_EX $end
$var wire 1 N mem_read_EX_MEM $end
$var wire 1 O ld_sd_sel $end
$var wire 32 P instr_IF_ID [31:0] $end
$var wire 32 Q instr [31:0] $end
$var wire 64 R imm_shifted [63:0] $end
$var wire 64 S imm_ID_EX [63:0] $end
$var wire 64 T imm [63:0] $end
$var wire 2 U forward_B [1:0] $end
$var wire 2 V forward_A [1:0] $end
$var wire 1 W flush $end
$var wire 64 X data_mem_in [63:0] $end
$var wire 64 Y data_MEM_WB [63:0] $end
$var wire 64 Z data_EX_MEM [63:0] $end
$var wire 1 [ control_mux_sel $end
$var wire 1 \ branch_out_mux $end
$var wire 1 ] branch_in_mux $end
$var wire 1 ^ branch_ID_EX $end
$var wire 1 _ alu_src_out_mux $end
$var wire 1 ` alu_src_in_mux $end
$var wire 1 a alu_src_ID_EX $end
$var wire 64 b alu_out_MEM_WB [63:0] $end
$var wire 64 c alu_out_EX_MEM [63:0] $end
$var wire 64 d alu_out [63:0] $end
$var wire 2 e alu_op [1:0] $end
$var wire 64 f alu_in_2 [63:0] $end
$var wire 1 g IF_ID_write $end
$var wire 64 h IF_ID_pc_out [63:0] $end
$var wire 64 i ID_EX_pc_out [63:0] $end
$upscope $end
$upscope $end
$enddefinitions $end
$comment Show the parameter values. $end
$dumpall
$end
#0
$dumpvars
b0 i
b0 h
1g
b0 f
b0 e
b0 d
b0 c
b0 b
0a
0`
0_
0^
0]
0\
0[
b0 Z
b0 Y
b0 X
0W
b0 V
b0 U
b0 T
b0 S
b0 R
b11111100000000001010010011 Q
b0 P
0O
0N
0M
0L
0K
0J
0I
0H
0G
0F
0E
0D
0C
0B
b100 A
b0 @
b10 ?
b10 >
b100 =
b0 <
b0 ;
0:
19
b0 8
b0 7
b0 6
b0 5
b0 4
b0 3
b0 2
b0 1
b0 0
b0 /
0.
0-
0,
0+
0*
b0 )
b0 (
b0 '
0&
0%
b0 $
1#
1"
0!
$end
#2000
0"
#5000
b1000 =
b1000 A
1_
1*
b111111 T
1+
1`
b10100101000001010110011 Q
b100 ;
b10 @
b11111100000000001010010011 P
1!
#10000
0!
#15000
b1111110 <
b1100 =
b1100 A
0_
0#
b111111 d
0`
b10 e
b0 T
b1111110 R
b111111 /
b1000000010100000000001100110011 Q
b100 h
b10100101000001010110011 P
b111111 S
1a
1-
b101 7
b11111 '
b1000 ;
1!
#20000
0!
#25000
b110 >
b10000 =
b100 <
b10000 A
b110 ?
0#
b1111110 d
b111111 f
b111111 2
b11000000011100010100011 Q
b0 R
b111111 /
b10 U
b10 V
b1100 ;
b11111 (
1.
b101 8
b111111 c
b100 i
b0 S
0a
b101 '
b101 )
b1000 h
b1000000010100000000001100110011 P
1!
#30000
0!
#35000
b10 >
b10100 =
b10 ?
b1000 <
b10100 A
1B
1_
0*
b1111110 /
b10001 T
0+
1`
1C
b0 e
b1111110 f
b0 2
0#
b1111111111111111111111111111111111111111111111111111111110000010 d
b111111 X
b1000100000011001110000011 Q
b10 U
b0 V
b111111 $
b1100 h
b11000000011100010100011 P
b1000 i
b110 @
b110 7
b0 )
b101 (
b111111 Z
b1111110 c
b10000 ;
1,
b101 6
b111111 b
1!
#40000
0!
#45000
b11000 =
b11000 A
b101110 <
1K
1F
0B
1*
b1111111111111111111111111111111111111111111111111111111110000010 f
1+
0C
1G
1L
b1111110 $
b10100101000010000110011 Q
b1111110 X
b100010 R
b10001 /
b10001 d
b10 U
b10001 T
b1111110 b
b10100 ;
b110 8
b1111110 Z
b1111111111111111111111111111111111111111111111111111111110000010 c
b1100 i
b10001 S
1a
1D
b10 @
0-
b10001 7
b110 '
b10000 h
b1000100000011001110000011 P
1!
#50000
0!
#55000
b11100 =
b110010 <
b11100 A
0K
0F
0_
0`
b10 e
0G
0L
b0 f
b1111110 1
b1111110 4
b0 T
b1111111111111111111111111111111111111111111111111111111110000010 X
b11101000011000000100011 Q
b0 U
b1111111111111111111111111111111111111111111111111111111110000010 $
b10100 h
b10100101000010000110011 P
b10000 i
0D
1-
1I
1M
b111 7
b10001 '
b110 (
1E
0.
b10001 8
b1111111111111111111111111111111111111111111111111111111110000010 Z
b10001 c
b11000 ;
b110 6
b1111111111111111111111111111111111111111111111111111111110000010 b
1!
#60000
0!
#65000
0#
b100000 =
b100000 A
b10100 <
b11111100 d
1B
1_
0*
b1111110 f
b1111110 2
0+
1`
1C
b0 e
b10001 $
b1000011010010000011 Q
b1111111111111111111111111111111111111111111111111111111110000010 5
b0 X
b0 R
b1111110 /
b0 1
b0 4
0,
b10001 6
b10001 b
b11100 ;
b10001 (
0E
1.
1J
1N
b111 8
b0 Z
b10100 i
b0 S
0a
0I
0M
b1000 7
b101 '
b101 )
b1111110 0
b1111110 3
b11000 h
b11101000011000000100011 P
1!
#70000
0!
#75000
b100100 =
b11000 <
0#
b100100 A
1K
1F
0B
1*
b11111100 d
1+
0C
1G
1L
b1111111111111111111111111111111111111111111111111111111110000010 f
b11111100 2
b0 T
b0 /
b0 5
b1111110 X
b1000100000000010100010011 Q
b1111111111111111111111111111111111111111111111111111111110000010 $
b1 U
b10 V
b11100 h
b1000011010010000011 P
b11000 i
1a
1D
0-
b0 7
b111 '
b1000 )
b0 0
b0 3
b101 (
0J
0N
b1000 8
b1111110 Z
b11111100 c
b100000 ;
1,
1H
b111 6
b1111111111111111111111111111111111111111111111111111111110000010 Y
1!
#80000
0!
#85000
0#
b11111100 d
b101000 =
b101000 A
b11100 <
0K
0F
b0 f
b11111100 2
0G
0L
b11111100 $
b1010000010110110011 Q
b1111111111111111111111111111111111111111111111111111111110000010 X
b0 U
b1 V
b10001 T
0H
b1000 6
b0 Y
b11111100 b
b100100 ;
b111 (
1E
0.
b0 8
b1111111111111111111111111111111111111111111111111111111110000010 Z
b11100 i
0D
1-
1I
1M
b1001 7
b0 '
b100000 h
b1000100000000010100010011 P
1!
#90000
0!
#95000
b101100 =
b1000010 <
b101100 A
0_
b10001 d
b0 2
0`
b10 e
b0 T
b10001 /
b100010 R
b0 X
b1011011011000000011 Q
b1111111111111111111111111111111111111111111111111111111110000010 5
b0 V
b100100 h
b1010000010110110011 P
b100000 i
b10001 S
0I
0M
b1010 7
b10001 '
b0 )
b0 (
0E
1.
1J
1N
b1001 8
b0 Z
b101000 ;
0,
b0 6
1!
#100000
0!
#105000
b110000 =
b110000 A
b100100 <
0#
b10001 d
1K
1F
1_
b10001 2
1`
b0 e
1G
1L
b1111111111111111111111111111111111111111111111111111111110000010 $
b10100101000011010110011 Q
b0 5
b0 R
b0 /
b10 V
1,
1H
b1001 6
b1111111111111111111111111111111111111111111111111111111110000010 Y
b101100 ;
b10001 (
0J
0N
b1010 8
b10001 c
b100100 i
b0 S
0a
b1011 7
b0 '
b1010 )
b101000 h
b1011011011000000011 P
1!
#110000
0!
#115000
b110100 =
b101000 <
b110100 A
0K
0F
0_
0`
b10 e
0G
0L
b1111110 1
b1111110 4
b0 T
b100001101000001001100011 Q
b10 V
b10001 $
b101100 h
b10100101000011010110011 P
b101000 i
1a
1I
1M
b1100 7
b1011 )
b0 (
b1011 8
b110000 ;
0H
b1010 6
b0 Y
b10001 b
1!
#120000
0!
#125000
0#
b110 >
b111000 =
b11111100 d
b111000 A
b101100 <
b110 ?
1\
0*
b1111110 2
b1111110 /
b1111110 f
b100 T
0+
b1 e
1]
b11111111111100000000111110010011 Q
b1111111111111111111111111111111111111111111111111111111110000010 5
b0 V
b11111100 1
b0 4
b1011 6
b110100 ;
1J
1N
b1100 8
b101100 i
0a
0I
0M
b1101 7
b101 '
b101 )
b1111110 0
b1111110 3
b110000 h
b100001101000001001100011 P
1!
#130000
0!
#135000
b10 >
b111000 <
b111100 A
b10 ?
0\
1_
1*
b11111100 /
1+
1`
b0 e
0]
1W
b111000 =
b11111100 f
b11111100 2
b0 1
b1111111111111111111111111111111111111111111111111111111111111111 T
b1000 R
1:
1#
b0 d
b0 5
b1111110 X
b110101101000011100110011 Q
b1111111111111111111111111111111111111111111111111111111110000010 $
b10 V
b110100 h
b11111111111100000000111110010011 P
b110000 i
b100 S
1^
b110 @
0-
b100 7
b1000 '
b1101 )
b11111100 0
b0 3
b101 (
0J
0N
b1101 8
b1111110 Z
b11111100 c
b111000 ;
1H
b1100 6
b1111111111111111111111111111111111111111111111111111111110000010 Y
1!
#140000
0!
#145000
b0 <
0_
0*
b0 /
b0 2
b111100 =
b0 f
0+
0`
b11111100 $
b11111100 X
b0 R
0:
1#
b0 d
0W
b0 V
b0 T
0H
b1101 6
b0 Y
b11111100 b
b1000 (
0.
b100 8
b11111100 Z
b0 c
b0 i
b0 S
0^
b0 @
b0 7
b0 '
b0 )
b0 0
b0 h
b0 P
1!
#150000
0!
#155000
b1000000 =
b1000000 A
1*
1+
b10 e
b11111100 1
b11111100 4
b0 X
b1000000010101000000011110110011 Q
b0 $
b111000 h
b110101101000011100110011 P
b10 @
b0 (
b0 8
b0 Z
b111100 ;
0,
b100 6
b0 b
1!
#160000
0!
#165000
b110 >
b1000100 =
0#
b111111000 d
b1000100 A
b111000 <
b110 ?
b11111100 /
b11111100 f
b11111100 2
b111001111000100000110011 Q
b1111110 1
b0 6
b1000000 ;
b111000 i
1-
b1110 7
b1101 '
b1101 )
b11111100 0
b11111100 3
b111100 h
b1000000010101000000011110110011 P
1!
#170000
0!
#175000
b10 >
b1001000 =
b10 ?
b111100 <
b1001000 A
b1111110 /
b1111110 f
b0 1
b0 4
0#
b1111110 d
b11111100 X
b111101110000100010110011 Q
b1000000 h
b111001111000100000110011 P
b111100 i
b110 @
b1111 7
b101 '
b1000 )
b1111110 0
b1101 (
1.
b1110 8
b11111100 Z
b111111000 c
b1000100 ;
1!
#180000
0!
#185000
b1001100 =
b1001100 A
b1000000 <
b111111000 /
b111111000 f
b1111110 2
b111111000 $
b1000110000000100100110011 Q
b1111110 X
b1001110110 d
b1 U
b10 V
1,
b1110 6
b111111000 b
b1001000 ;
b101 (
b1111 8
b1111110 Z
b1111110 c
b1000000 i
b10 @
b10000 7
b1110 '
b1111 )
b0 0
b0 3
b1000100 h
b111101110000100010110011 P
1!
#190000
b111111000 4
0!
#195000
b1001110110 d
b1010000 =
b1000100 <
b1010000 A
b1111110 /
b1111110 f
b111111000 2
b0 4
b111111000 X
b1000110010000100100110011 Q
b1 U
b0 V
b1111110 $
b1001000 h
b1000110000000100100110011 P
b1000100 i
b10001 7
b1111 '
b1110 )
b111111000 3
b1110 (
b10000 8
b111111000 Z
b1001110110 c
b1001100 ;
b1111 6
b1111110 b
1!
#200000
0!
#205000
b1010100 =
b10011101100 d
b1010100 A
b1001000 <
b1001110110 /
b1001110110 f
b1001110110 2
b1001110110 $
b10010000100110110011 Q
b1111110 X
b1 V
b10 U
b10000 6
b1001110110 b
b1010000 ;
b1111 (
b10001 8
b1111110 Z
b1001000 i
b10010 7
b10001 '
b10000 )
b0 3
b1001100 h
b1000110010000100100110011 P
1!
#210000
0!
#215000
0#
b11101100010 d
b1011000 =
b1001100 <
b1011000 A
b1001110110 /
b10011101100 2
b1001110110 f
b1001110110 X
b1011011101000000011 Q
b1 U
b10 V
b1010000 h
b10010000100110110011 P
b1001100 i
b10010 )
b10001 (
b10010 8
b1001110110 Z
b10011101100 c
b1010100 ;
b10001 6
1!
#220000
0!
#225000
b1011100 =
b11101100010 d
b1011100 A
b1010000 <
b0 /
1K
1F
1_
b0 f
b11101100010 2
1`
b0 e
1G
1L
b10011101100 $
b111010001011011110010100011 Q
b0 U
b10 V
b10001 4
b10010 6
b10011101100 b
b1011000 ;
b11101100010 c
b1010000 i
b10011 7
b0 '
b1010100 h
b1011011101000000011 P
1!
#230000
0!
#235000
b10001 d
b1100000 =
b1010100 <
b1100000 A
0K
0F
1B
0*
b10001 2
0+
1C
0G
0L
b1111001 T
b0 V
b0 X
b111100101011011101010000011 Q
b11101100010 $
b1011000 h
b111010001011011110010100011 P
b1010100 i
1a
1I
1M
b10100 7
b1011 )
b10001 3
b0 (
b10011 8
b0 Z
b1011100 ;
b11101100010 b
1!
#240000
0!
#245000
b1100100 =
b1100100 A
b101001010 <
b10001010 d
1K
1F
0B
1*
b10001 f
1+
0C
1G
1L
b101000000011000010100011 Q
b1111111111111111111111111111111111111111111111111111111110000010 5
b1111001 /
b11110010 R
b10 U
b1111001 T
b10011 6
b1100000 ;
1J
1N
b10100 8
b10001 c
b1011000 i
b1111001 S
1D
0-
0I
0M
b11001 7
b10100 '
b1011100 h
b111100101011011101010000011 P
1!
#250000
0!
#255000
b1101000 =
b101001110 <
b1101000 A
0K
0F
1B
0*
0+
1C
0G
0L
b0 f
b10001 1
b0 4
b1 T
b0 5
b1111111111111111111111111111111111111111111111111111111110000010 X
b100000011101100000011 Q
b0 U
1O
b1111111111111111111111111111111111111111111111111111111110000010 $
b1100000 h
b101000000011000010100011 P
b1011100 i
0D
1-
1I
1M
b10101 7
b11001 '
b10100 (
1E
0.
0J
0N
b11001 8
b10001 Z
b10001010 c
b1100100 ;
1H
b10100 6
b1111111111111111111111111111111111111111111111111111111110000010 Y
b10001 b
1!
#260000
0!
#265000
b1101100 =
b1101100 A
b1100010 <
b1 d
1K
1F
0B
1*
b10001 f
b0 2
1+
0C
1G
1L
b0 X
b10001010 $
b1010110110011000010100011 Q
0O
b1111111111111111111111111111111111111111111111111111111110000010 5
b1 /
b10 R
b0 1
b1 T
0,
0H
b11001 6
b0 Y
b10001010 b
b1101000 ;
b11001 (
0E
1.
1J
1N
b10101 8
b0 Z
b1100000 i
b1 S
1D
0-
0I
0M
b1 7
b1010 '
b0 )
b10001 0
b0 3
b1100100 h
b100000011101100000011 P
1!
#270000
0!
#275000
b1110000 =
b1100110 <
b1110000 A
0K
0F
b0 >
0_
0*
1[
0g
09
0+
1C
0G
0L
b0 f
b1 T
b0 5
b10001 X
b110110011101110000011 Q
b1111111111111111111111111111111111111111111111111111111110000010 $
b1101000 h
b1010110110011000010100011 P
b1100100 i
0D
1-
1I
1M
b10110 7
b1 '
b0 0
b1010 (
1E
0.
0J
0N
b1 8
b10001 Z
b1 c
b1101100 ;
1,
1H
b10101 6
b1111111111111111111111111111111111111111111111111111111110000010 Y
1!
#280000
b1111111111111111111111111111111111111111111111111111111110000010 1
0!
#285000
b1101010 <
b10 >
1B
1_
b1 2
b1111111111111111111111111111111111111111111111111111111110000010 f
b1 $
b10001 5
b0 X
b1111111111111111111111111111111111111111111111111111111110000010 /
1#
b0 d
0[
1g
19
b10 V
0,
0H
b1 6
b0 Y
b1 b
b1 (
0E
1.
1J
1N
b10110 8
b0 Z
b1101000 i
0a
b0 @
0-
0I
0M
b1 7
b10101 '
b10110 )
b1111111111111111111111111111111111111111111111111111111110000010 0
1!
#290000
0!
#295000
b1110100 =
b1110100 A
1K
1F
0B
1*
1+
0C
1G
1L
b10001 2
b0 1
b1 T
b1 /
0#
b10010 d
b0 5
b1111111111111111111111111111111111111111111111111111111110000010 X
b111100101011011110000000011 Q
b10001 $
b1 V
b1101100 h
b110110011101110000011 P
1a
1D
b10 @
b10101 (
0.
0J
0N
b1 8
b1111111111111111111111111111111111111111111111111111111110000010 Z
b0 c
b1110000 ;
1,
1H
b10110 6
b10001 Y
1!
#300000
b10001 4
0!
#305000
b1111000 =
b1111000 A
b1101110 <
b0 f
b0 $
b1000001100000000000110010110011 Q
b0 V
b1111001 T
0,
0H
b1 6
b0 Y
b0 b
b1110100 ;
1E
b10010 c
b1101100 i
0D
1-
1I
1M
b10111 7
b1 '
b0 0
b10001 3
b1110000 h
b111100101011011110000000011 P
1!
#310000
0!
#315000
b110 ?
b1111100 =
b101100010 <
b1111100 A
0K
0F
b0 >
0_
0*
b10001010 d
1[
0g
09
0`
b10 e
0G
0L
b0 4
b0 T
b1111001 /
b11110010 R
b0 X
b100000011110100000011 Q
b1111111111111111111111111111111111111111111111111111111110000010 5
b10010 $
b1110100 h
b1000001100000000000110010110011 P
b1110000 i
b1111001 S
b11000 7
b11001 '
b1011 )
b1 (
0E
1.
1J
1N
b10111 8
b0 Z
b1111000 ;
b10010 b
1!
#320000
0!
#325000
b1110100 <
1#
b110 >
1*
b10001010 f
b0 2
b1111111111111111111111111111111111111111111111111111111110000010 $
b0 R
b10001010 /
b0 d
0[
1g
19
b10 U
1,
1H
b10111 6
b1111111111111111111111111111111111111111111111111111111110000010 Y
b11001 (
b11000 8
b10001010 c
b1110100 i
b0 S
0a
b0 @
0-
0I
0M
b11001 7
b11000 '
b0 )
b0 3
1!
#330000
0!
#335000
b10 >
b10000000 =
b10 ?
b10000000 A
1K
1F
1_
b1111111111111111111111111111111111111111111111111111111110000010 /
b1 T
1`
b0 e
1G
1L
b1111111111111111111111111111111111111111111111111111111110000010 f
0#
b1111110 d
b0 5
b10001010 X
b1101001010000001001100011 Q
b1 U
b1111000 h
b100000011110100000011 P
b110 @
1-
b11000 (
0.
0J
0N
b11001 8
b10001010 Z
b0 c
b1111100 ;
b11000 6
b10001010 b
1!
#340000
0!
#345000
b10000100 =
b10000100 A
b1111010 <
b0 >
b110 ?
0\
0K
0F
0_
0*
b0 f
1[
0g
09
0+
0`
b1 e
0G
0L
1]
b0 $
b1000000111100000000111110110011 Q
b1111111111111111111111111111111111111111111111111111111110000010 X
b10 R
b1 /
b1 d
b0 U
b10001 4
b100 T
0,
0H
b11001 6
b0 Y
b0 b
b10000000 ;
1.
b1111111111111111111111111111111111111111111111111111111110000010 Z
b1111110 c
b1111000 i
b1 S
1a
b10 @
1I
1M
b11010 7
b1 '
b1111100 h
b1101001010000001001100011 P
1!
#350000
0!
#355000
b10000100 <
1\
b110 >
b1 f
b10001 2
b1000 R
b1 /
0#
b1 d
0[
1g
19
b10001 5
b0 X
b10 U
b1111110 $
b1111100 i
b100 S
0a
b0 @
0-
0I
0M
b100 7
b11010 '
b1010 )
b10001 3
b1 (
1J
1N
b11010 8
b0 Z
b1 c
1,
b1111110 b
1!
#360000
0!
#365000
1W
1:
1#
b110 >
b10000100 =
b10001000 A
b10001 /
b110 ?
0\
1*
b10001 f
1+
b10 e
0]
b10001 $
b100000011110110000011 Q
b0 5
b1 U
b1 X
b0 d
b1111110 1
b0 4
b0 T
1H
b11010 6
b10001 Y
b1 b
b10000100 ;
b11010 (
0.
0J
0N
b100 8
b1 Z
1^
b110 @
b10000000 h
b1000000111100000000111110110011 P
1!
#370000
0!
#375000
b10 >
b10 ?
b0 <
0*
b0 /
b0 f
0+
b0 e
b10001000 =
b0 2
b0 1
b0 R
0:
1#
b0 d
0W
b10001 X
b0 U
b1 $
b0 h
b0 P
b0 i
b0 S
0^
b0 @
b0 7
b0 '
b0 )
b0 3
b10001 Z
b0 c
0,
0H
b100 6
b0 Y
1!
#380000
0!
#385000
b10001100 =
b10001100 A
1K
1F
1_
1*
b1 T
1+
1`
1G
1L
b0 $
b111011011111000000011 Q
b0 X
b0 b
b10001000 ;
b0 (
b0 8
b0 Z
b10 @
b10000100 h
b100000011110110000011 P
1!
#390000
0!
#395000
b10010000 =
b10000110 <
b10010000 A
0K
0F
b0 >
0_
0*
0#
b1 d
1[
0g
09
b10 R
b1 /
b101010000111010010011 Q
b10001000 h
b111011011111000000011 P
b10000100 i
b1 S
1a
1-
1I
1M
b11011 7
b1 '
b10001100 ;
b0 6
1!
#400000
0!
#405000
b10001010 <
1K
1F
b10 >
1_
1*
b1 2
b10001 5
b0 /
1#
b0 d
0[
1g
19
b10 V
b1 (
1.
1J
1N
b11011 8
b1 c
b10001000 i
0a
b0 @
0-
0I
0M
b11100 7
b11011 )
1!
#410000
0!
#415000
b10010100 =
b10010100 A
0K
0F
0G
0L
b10001 2
b10001 4
b1 /
0#
b10010 d
b0 5
b110011 Q
b1 V
b10001 $
b10001100 h
b101010000111010010011 P
1a
b10 @
1-
1I
1M
0.
0J
0N
b11100 8
b0 c
b10010000 ;
1,
1H
b11011 6
b10001 Y
b1 b
1!
#420000
0!
#425000
b10011000 =
b10011000 A
b10001110 <
0_
0`
b10 e
b0 $
b11101011111100000011 Q
b1111111111111111111111111111111111111111111111111111111110000010 5
b0 V
b0 4
b0 T
0,
0H
b11100 6
b0 Y
b0 b
b10010100 ;
1.
1J
1N
b10010 c
b10001100 i
0I
0M
b11101 7
b1010 )
b10001 3
b10010000 h
b110011 P
1!
#430000
0!
#435000
1#
b0 d
b10011100 =
b10010000 <
b10011100 A
1K
1F
1_
1`
b0 e
1G
1L
b0 2
b0 R
b0 /
b0 5
b110011 Q
b1111111111111111111111111111111111111111111111111111111110000010 $
b10010100 h
b11101011111100000011 P
b10010000 i
b0 S
0a
b0 7
b0 '
b0 )
b0 3
0J
0N
b11101 8
b10011000 ;
1,
1H
b1111111111111111111111111111111111111111111111111111111110000010 Y
b10010 b
1!
#440000
0!
#445000
0#
b10010 d
b10100000 =
b10100000 A
b10010100 <
b10010 2
0K
0F
0_
0`
b10 e
0G
0L
b10010 $
b1111011110000001000110011 Q
b1 V
0H
b11101 6
b0 Y
b10011100 ;
b0 (
b0 8
b0 c
b10010100 i
1a
1I
1M
b11110 7
b11101 )
b10011000 h
b110011 P
1!
#450000
0!
#455000
1#
b0 d
b10100100 =
b10011000 <
b10100100 A
b0 2
b1111111111111111111111111111111111111111111111111111111110000010 5
b110011 Q
b0 V
b0 $
b10011100 h
b1111011110000001000110011 P
b10011000 i
0a
0I
0M
b0 7
b0 )
1J
1N
b11110 8
b10010 c
b10100000 ;
b0 6
b0 b
1!
#460000
0!
#465000
0#
b1111111111111111111111111111111111111111111111111111111100000100 d
b10101000 =
b10101000 A
b10011100 <
b1111111111111111111111111111111111111111111111111111111110000010 /
b1111111111111111111111111111111111111111111111111111111110000010 f
b1111111111111111111111111111111111111111111111111111111110000010 2
b1111111111111111111111111111111111111111111111111111111110000010 $
b0 5
b1 U
b1 V
1H
b11110 6
b1111111111111111111111111111111111111111111111111111111110000010 Y
b10010 b
b10100100 ;
0J
0N
b0 8
b0 c
b10011100 i
b100 7
b11110 '
b11110 )
b10100000 h
b110011 P
1!
#470000
0!
#475000
1#
b0 d
b10101100 =
b10100000 <
b10101100 A
b0 /
b0 f
b0 2
b1111111111111111111111111111111111111111111111111111111110000010 X
b100000000010110011 Q
b0 U
b0 V
b0 $
b10100100 h
b10100000 i
b0 7
b0 '
b0 )
b11110 (
b100 8
b1111111111111111111111111111111111111111111111111111111110000010 Z
b1111111111111111111111111111111111111111111111111111111100000100 c
b10101000 ;
0H
b0 6
b0 Y
b0 b
1!
#480000
0!
#485000
b10110000 =
b10110000 A
b10100100 <
b1111111111111111111111111111111111111111111111111111111100000100 $
b100000011000100000011 Q
b0 X
b100 6
b1111111111111111111111111111111111111111111111111111111100000100 b
b10101100 ;
b0 (
b0 8
b0 Z
b0 c
b10100100 i
b10101000 h
b100000000010110011 P
1!
#490000
b1111111111111111111111111111111111111111111111111111111100000100 4
0!
#495000
0#
b1111111111111111111111111111111111111111111111111111111100000100 d
b10110100 =
b10101000 <
b10110100 A
1K
1F
1_
b1 T
1`
b0 e
1G
1L
b1111111111111111111111111111111111111111111111111111111100000100 2
b0 4
b110011 Q
b0 $
b10101100 h
b100000011000100000011 P
b10101000 i
b1 7
b100 )
b1111111111111111111111111111111111111111111111111111111100000100 3
b10110000 ;
b0 6
b0 b
1!
#500000
0!
#505000
b10111000 =
b10111000 A
b10101110 <
b1 d
0K
0F
0_
b1111111111111111111111111111111111111111111111111111111100000100 f
b0 2
0`
b10 e
0G
0L
b10 R
b1 /
b10 U
b0 T
b10110100 ;
b1 8
b1111111111111111111111111111111111111111111111111111111100000100 c
b10101100 i
b1 S
1a
1I
1M
b10 7
b1 '
b0 )
b0 3
b10110000 h
b110011 P
1!
#510000
0!
#515000
1#
b10111100 =
b10110000 <
b10111100 A
b0 d
b0 f
b0 R
b0 /
b10001 5
b1111111111111111111111111111111111111111111111111111111100000100 X
b10000000110110011 Q
b0 U
b1111111111111111111111111111111111111111111111111111111100000100 $
b10110100 h
b10110000 i
b0 S
0a
0I
0M
b0 7
b0 '
b1 (
1J
1N
b10 8
b1111111111111111111111111111111111111111111111111111111100000100 Z
b1 c
b10111000 ;
b1 6
b1111111111111111111111111111111111111111111111111111111100000100 b
1!
#520000
0!
#525000
b11000000 =
b11000000 A
b10110100 <
b10001 $
b110011 Q
b0 5
b0 X
1H
b10 6
b10001 Y
b1 b
b10111100 ;
b0 (
0J
0N
b0 8
b0 Z
b0 c
b10110100 i
b10111000 h
b10000000110110011 P
1!
#530000
b10001 4
0!
#535000
0#
b10001 d
b11000100 =
b10111000 <
b11000100 A
b10001 2
b0 4
b0 $
b10111100 h
b110011 P
b10111000 i
b11 7
b10 )
b10001 3
b11000000 ;
0H
b0 6
b0 Y
b0 b
1!
#540000
0!
#545000
b11001000 =
1#
b0 d
b11001000 A
b10111100 <
b0 2
b11000100 ;
b11 8
b10001 c
b10111100 i
b0 7
b0 )
b0 3
b11000000 h
1!
#550000
0!
#555000
b11001100 =
b11000000 <
b11001100 A
b10001 $
b11000100 h
b11000000 i
b0 8
b0 c
b11001000 ;
b11 6
b10001 b
1!
#560000
0!
#565000
b11010000 =
b11010000 A
b11000100 <
b0 $
b0 Q
b0 6
b0 b
b11001100 ;
b11000100 i
b11001000 h
1!
#570000
0!
#575000
b11010100 =
b11001000 <
b11010100 A
0*
0+
b0 e
b11001100 h
b0 P
b11001000 i
b11010000 ;
1!
