PIPI/pipelined_processor_tb.vcd
$date
	Fri Mar  7 01:49:49 2025
$end
$version
	Icarus Verilog
$end
$timescale
	1ps
$end
$scope module pipelined_processor_tb $end
$scope module uut $end
$var wire 64 ! IF_ID_pc_out [63:0] $end
$var wire 1 " clk $end
$var wire 1 # flush $end
$var wire 1 $ reset $end
$var wire 1 % z_flag_EX_MEM $end
$var wire 1 & z_flag $end
$var wire 64 ' write_data [63:0] $end
$var wire 1 ( tmp_carry_2 $end
$var wire 1 ) tmp_carry $end
$var wire 5 * rs2_ID_EX [4:0] $end
$var wire 5 + rs1_ID_EX [4:0] $end
$var wire 1 , reg_write_en_out_mux $end
$var wire 1 - reg_write_en_in_mux $end
$var wire 1 . reg_write_en_MEM_WB $end
$var wire 1 / reg_write_en_ID_EX $end
$var wire 1 0 reg_write_en_EX_MEM $end
$var wire 64 1 read_data2_mux [63:0] $end
$var wire 64 2 read_data2_ID_EX [63:0] $end
$var wire 64 3 read_data2 [63:0] $end
$var wire 64 4 read_data1_mux [63:0] $end
$var wire 64 5 read_data1_ID_EX [63:0] $end
$var wire 64 6 read_data1 [63:0] $end
$var wire 64 7 read_data [63:0] $end
$var wire 5 8 rd_MEM_WB [4:0] $end
$var wire 5 9 rd_ID_EX [4:0] $end
$var wire 5 : rd_EX_MEM [4:0] $end
$var wire 1 ; pc_write $end
$var wire 1 < pc_src $end
$var wire 64 = pc_out [63:0] $end
$var wire 64 > pc_next_EX_MEM [63:0] $end
$var wire 64 ? pc_next [63:0] $end
$var wire 64 @ pc_in [63:0] $end
$var wire 4 A op_out_mux [3:0] $end
$var wire 4 B op_in_mux [3:0] $end
$var wire 4 C op_ID_EX [3:0] $end
$var wire 64 D mux_pc_1 [63:0] $end
$var wire 1 E mem_write_out_mux $end
$var wire 1 F mem_write_in_mux $end
$var wire 1 G mem_write_ID_EX $end
$var wire 1 H mem_write_EX_MEM $end
$var wire 1 I mem_to_reg_out_mux $end
$var wire 1 J mem_to_reg_in_mux $end
$var wire 1 K mem_to_reg_MEM_WB $end
$var wire 1 L mem_to_reg_ID_EX $end
$var wire 1 M mem_to_reg_EX_MEM $end
$var wire 1 N mem_read_out_mux $end
$var wire 1 O mem_read_in_mux $end
$var wire 1 P mem_read_ID_EX $end
$var wire 1 Q mem_read_EX_MEM $end
$var wire 32 R instr_IF_ID [31:0] $end
$var wire 32 S instr [31:0] $end
$var wire 64 T imm_shifted [63:0] $end
$var wire 64 U imm_ID_EX [63:0] $end
$var wire 64 V imm [63:0] $end
$var wire 2 W forward_B [1:0] $end
$var wire 2 X forward_A [1:0] $end
$var wire 64 Y data_MEM_WB [63:0] $end
$var wire 64 Z data_EX_MEM [63:0] $end
$var wire 1 [ control_mux_sel $end
$var wire 1 \ branch_out_mux $end
$var wire 1 ] branch_in_mux $end
$var wire 1 ^ branch_ID_EX $end
$var wire 1 _ branch_EX_MEM $end
$var wire 1 ` alu_src_out_mux $end
$var wire 1 a alu_src_in_mux $end
$var wire 1 b alu_src_ID_EX $end
$var wire 64 c alu_out_MEM_WB [63:0] $end
$var wire 64 d alu_out_EX_MEM [63:0] $end
$var wire 64 e alu_out [63:0] $end
$var wire 2 f alu_op [1:0] $end
$var wire 64 g alu_in_2 [63:0] $end
$var wire 1 h IF_ID_write $end
$var wire 64 i ID_EX_pc_out [63:0] $end
$upscope $end
$upscope $end
$enddefinitions $end
$comment Show the parameter values. $end
$dumpall
$end
#0
$dumpvars
b0 i
1h
b0 g
b0 f
b0 e
b0 d
b0 c
0b
0a
0`
0_
0^
0]
0\
0[
b0 Z
b0 Y
b0 X
b0 W
b0 V
b0 U
b0 T
b101000000000000110010011 S
b0 R
0Q
0P
0O
0N
0M
0L
0K
0J
0I
0H
0G
0F
0E
b100 D
b0 C
b10 B
b10 A
b100 @
b0 ?
b0 >
b0 =
0<
1;
b0 :
b0 9
b0 8
b0 7
b0 6
b0 5
b0 4
b0 3
b0 2
b0 1
00
0/
0.
0-
0,
b0 +
b0 *
0)
0(
b0 '
1&
0%
1$
z#
0"
bz !
$end
#2000
0$
#5000
b1000 @
b1000 D
1`
1,
b1010 V
1-
1a
b11001000011000001000010011 S
b100 =
1%
b101000000000000110010011 R
1"
#10000
x(
bx ?
0&
b1010 e
b10100 T
b1010 1
bz i
b1010 U
1b
b10 C
1/
b11 9
b1010 *
0"
#15000
b1100 @
b1100 D
b110010 V
b1000000001100100000001010110011 S
b11001000011000001000010011 R
b0x >
0%
10
b11 :
b1010 d
b1000 =
1"
#20000
b111100 e
b1010 4
b110010 1
b1100100 T
b10 X
b110010 U
b100 9
b10010 *
b11 +
0"
#25000
b110 A
b10000 @
b111100 e
b10000 D
b110 B
0`
b1010 4
0a
b10 f
b1010 '
b10100100111001100110011 S
b1 X
b0 V
1.
b11 8
b1010 c
b1100 =
b100 :
b111100 d
b1000000001100100000001010110011 R
1"
#30000
0(
b1010 g
b111100 4
b0 T
b1010 1
b110010 e
b1 W
b10 X
b0 U
0b
b110 C
b101 9
b11 *
b100 +
0"
#35000
b0 A
b111100 e
b10100 @
b0 B
b10100 D
b0 1
b0 g
b111100 4
b10100110110001110110011 S
b0 W
b1 X
b111100 '
b10100100111001100110011 R
b0 3
b101 :
b1010 Z
b110010 d
b10000 =
b100 8
b111100 c
1"
#40000
b110010 1
b110010 g
0&
b110000 e
b10 W
b1 X
b0 C
b110 9
b101 *
0"
#45000
b1 A
b11000 @
1&
b0 e
b11000 D
b1 B
b0 4
b110010 1
b110010 g
b110010 '
b1100011000000110110011 S
b1 W
b0 X
b101 8
b110010 c
b10100 =
b110 :
b110010 Z
b110000 d
b0 6
b10100110110001110110011 R
1"
#50000
b110000 4
0&
b110010 e
b10 X
b1 W
b1 C
b111 9
b110 +
0"
#55000
b10 A
b110000 e
b11100 @
b11100 D
b10 B
b0 1
b0 g
b110000 4
b1010 6
b0 W
b1 X
b110000 '
b1100011000000110110011 R
b1010 3
b111 :
b110010 d
b11000 =
b110 8
b110000 c
1"
#60000
0&
b10100 e
b1010 4
b1010 1
b1010 g
b0 X
b10 C
b11 9
b11 *
b11 +
b1010 2
b1010 5
0"
#65000
0&
b101000 e
b100000 @
b100000 D
b10100 1
b10100 g
b10100 4
b110010 '
b10 W
b10 X
b111 8
b110010 c
b11100 =
b11 :
b1010 Z
b10100 d
1"
#70000
0"
#75000
0&
b1010000 e
b100100 @
b100100 D
b101000 1
b101000 g
b101000 4
b10 W
b10 X
b10100 '
b10100 Z
b101000 d
b100000 =
b11 8
b10100 c
1"
#80000
0"
#85000
0&
b101000 @
b10100000 e
b101000 D
b1010000 1
b1010000 g
b1010000 4
b101000 '
b1100111011000000100011 S
b101000 c
b100100 =
b101000 Z
b1010000 d
b10100 6
b10100 3
1"
#90000
b10100 2
b10100 5
0"
#95000
0&
b101000000 e
b101100 @
b101100 D
1E
1`
0,
b10100000 1
0-
1a
1F
b0 f
b10100000 g
b10100000 4
b111011010000000011 S
b1010000 '
b1100111011000000100011 R
b110010 6
b101000 3
b1010000 Z
b10100000 d
b101000 =
b1010000 c
1"
#100000
b110010 e
b110010 4
b0 1
b10 W
b0 X
1b
1G
0/
b0 9
b111 +
b101000 2
b110010 5
0"
#105000
b110000 @
b110000 D
1N
1I
0E
1,
b10100000 g
1-
0F
1J
1O
b10100000 '
b1100111011010100100011 S
b1 W
b0 V
b10100000 c
b101100 =
1H
00
b0 :
b10100000 Z
b110010 d
b0 3
b111011010000000011 R
1"
#110000
b0 g
b0 W
0G
1/
1L
1P
b1000 9
b0 *
b0 2
0"
#115000
b110100 @
b110100 D
0N
0I
1E
0,
0-
1F
0J
0O
b10100000 3
b1010 V
b101000111011010010000011 S
b10100000 7
b110010 '
b1100111011010100100011 R
0H
10
1M
1Q
b1000 :
b0 Z
b110000 =
0.
b0 8
b110010 c
1"
#120000
x(
b111100 e
b10100000 g
b1010 1
b10100 T
b1010 U
1G
0/
0L
0P
b1010 9
b11 *
b10100000 2
0"
#125000
b111000 @
b111000 D
1N
1I
0E
1,
1-
0F
1J
1O
b10100000 '
b101000111011010100000011 S
b0 7
b0 3
b1010 V
1.
1K
b1000 8
b10100000 Y
b110100 =
1H
00
0M
0Q
b1010 :
b10100000 Z
b111100 d
b101000111011010010000011 R
1"
#130000
b0 g
0G
1/
1L
1P
b1001 9
b1010 *
b0 2
0"
#135000
b111100 @
b111100 D
b110101000111011101110100011 S
b10100000 7
b111100 '
b101000111011010100000011 R
0H
10
1M
1Q
b1001 :
b0 Z
b111000 =
0.
0K
b1010 8
b0 Y
b111100 c
1"
#140000
b1010 9
0"
#145000
b1000000 @
b1000000 D
0N
0I
1E
0,
b111100 g
0-
1F
0J
0O
b10100000 '
b111011100111011010110000011 S
b10 W
b1110111 V
1.
1K
b1001 8
b10100000 Y
b111100 =
b1010 :
b110101000111011101110100011 R
1"
#150000
b10101001 e
b1110111 1
b11101110 T
b1110111 U
1G
0/
0L
0P
b10111 9
0"
#155000
b1000100 @
b1000100 D
1N
1I
0E
1,
1-
0F
1J
1O
b10100000 g
b1110111 V
b0 7
b101101011000011000110011 S
b1 W
b111011100111011010110000011 R
1H
00
0M
0Q
b10111 :
b111100 Z
b10101001 d
b1000000 =
b1010 8
1"
#160000
b0 g
b0 W
0G
1/
1L
1P
b1011 9
b10111 *
0"
#165000
b1001000 @
b1001000 D
0N
0I
b0 A
0`
0,
1[
0h
0;
0a
b10 f
0J
0O
b10101001 '
b110011 S
b111100 7
b0 6
b0 V
0.
0K
b10111 8
b0 Y
b10101001 c
b1000100 =
0H
10
1M
1Q
b1011 :
b0 Z
b101101011000011000110011 R
1"
#170000
0(
0&
b10 A
1,
b10101001 g
b10101001 4
b0 T
b10101001 1
b10101001 e
0[
1h
1;
b10 W
b10 X
b0 U
0b
b0 C
0/
0L
0P
b1100 9
b1011 *
b1011 +
b0 5
0"
#175000
b1001100 @
0&
b111100 e
b1001100 D
b111100 1
b111100 g
b111100 4
b0 7
b111100 '
b1 W
b1 X
b110011 R
00
0M
0Q
b1100 :
b10101001 Z
b1001000 =
1.
1K
b1011 8
b111100 Y
1"
#180000
1&
b0 1
b0 g
b0 4
b0 e
b0 W
b0 X
b10 C
1/
b0 9
b0 *
b0 +
0"
#185000
b1010000 @
b1010000 D
b10101001 '
0.
0K
b1100 8
b0 Y
b1001100 =
1%
10
b0 :
b0 Z
b0 d
1"
#190000
0"
#195000
b1010100 @
b1010100 D
b0 '
b1010000 =
1.
b0 8
b0 c
1"
#200000
0"
#205000
b1011000 @
b1011000 D
b1010100 =
1"
#210000
0"
#215000
b1011100 @
b1011100 D
b1011000 =
1"
#220000
0"
#225000
b1100000 @
b1100000 D
b1011100 =
1"
#230000
0"
#235000
b1100100 @
b1100100 D
b0 S
b1100000 =
1"
#240000
0"
#245000
b1101000 @
b1101000 D
0,
0-
b0 f
b1100100 =
b0 R
1"
#250000
0/
0"
#255000
b1101100 @
b1101100 D
00
b1101000 =
1"
#260000
0"
#265000
b1110000 @
b1110000 D
0.
b1101100 =
1"
#270000
0"
#275000
b1110100 @
b1110100 D
b1110000 =
1"
#280000
0"
#285000
b1111000 @
b1111000 D
b1110100 =
1"
#290000
0"
#295000
b1111100 @
b1111100 D
b1111000 =
1"
#300000
0"
#305000
b10000000 @
b10000000 D
b1111100 =
1"
#310000
0"
#315000
b10000100 @
b10000100 D
b10000000 =
1"
#320000
0"
#325000
b10001000 @
b10001000 D
b10000100 =
1"
#330000
0"
#335000
b10001100 @
b10001100 D
b10001000 =
1"
#340000
0"
#345000
b10010000 @
b10010000 D
b10001100 =
1"
#350000
0"
#355000
b10010100 @
b10010100 D
b10010000 =
1"
#360000
0"
#365000
b10011000 @
b10011000 D
b10010100 =
1"
#370000
0"
#375000
b10011100 @
b10011100 D
b10011000 =
1"
#380000
0"
#385000
b10100000 @
b10100000 D
b10011100 =
1"
#390000
0"
#395000
b10100100 @
b10100100 D
b10100000 =
1"
#400000
0"
#405000
b10101000 @
b10101000 D
b10100100 =
1"
#410000
0"
#415000
b10101100 @
b10101100 D
b10101000 =
1"
#420000
0"
#425000
b10110000 @
b10110000 D
b10101100 =
1"
#430000
0"
#435000
b10110100 @
b10110100 D
b10110000 =
1"
#440000
0"
#445000
b10111000 @
b10111000 D
b10110100 =
1"
#450000
0"
#455000
b10111100 @
b10111100 D
b10111000 =
1"
#460000
0"
#465000
b11000000 @
b11000000 D
b10111100 =
1"
#470000
0"
#475000
b11000100 @
b11000100 D
b11000000 =
1"
#480000
0"
#485000
b11001000 @
b11001000 D
b11000100 =
1"
#490000
0"
#495000
b11001100 @
b11001100 D
b11001000 =
1"
#500000
0"
#505000
b11010000 @
b11010000 D
b11001100 =
1"
#510000
0"
#515000
b11010100 @
b11010100 D
b11010000 =
1"
#520000
0"
#525000
b11011000 @
b11011000 D
b11010100 =
1"
#530000
0"
#535000
b11011100 @
b11011100 D
b11011000 =
1"
#540000
0"
#545000
b11100000 @
b11100000 D
b11011100 =
1"
#550000
0"
#555000
b11100100 @
b11100100 D
b11100000 =
1"
#560000
0"
#565000
b11101000 @
b11101000 D
b11100100 =
1"
#570000
0"
#575000
b11101100 @
b11101100 D
b11101000 =
1"
#580000
0"
#585000
b11110000 @
b11110000 D
b11101100 =
1"
#590000
0"
#595000
b11110100 @
b11110100 D
b11110000 =
1"
#600000
0"
#605000
b11111000 @
b11111000 D
b11110100 =
1"
#610000
0"
#615000
b11111100 @
b11111100 D
b11111000 =
1"
#620000
0"
#625000
b100000000 @
b100000000 D
b11111100 =
1"
#630000
0"
#635000
b100000100 @
b100000100 D
b100000000 =
1"
#640000
0"
#645000
b100001000 @
b100001000 D
b100000100 =
1"
#650000
0"
#655000
b100001100 @
b100001100 D
b100001000 =
1"
#660000
0"
#665000
b100010000 @
b100010000 D
b100001100 =
1"
#670000
0"
#675000
b100010100 @
b100010100 D
b100010000 =
1"
#680000
0"
#685000
b100011000 @
b100011000 D
b100010100 =
1"
#690000
0"
#695000
b100011100 @
b100011100 D
b100011000 =
1"
#700000
0"
#705000
b100100000 @
b100100000 D
b100011100 =
1"
#710000
0"
#715000
b100100100 @
b100100100 D
b100100000 =
1"
#720000
0"
#725000
b100101000 @
b100101000 D
b100100100 =
1"
#730000
0"
#735000
b100101100 @
b100101100 D
b100101000 =
1"
#740000
0"
#745000
b100110000 @
b100110000 D
b100101100 =
1"
#750000
0"
#755000
b100110100 @
b100110100 D
b100110000 =
1"
#760000
0"
#765000
b100111000 @
b100111000 D
b100110100 =
1"
#770000
0"
#775000
b100111100 @
b100111100 D
b100111000 =
1"
#780000
0"
#785000
b101000000 @
b101000000 D
b100111100 =
1"
#790000
0"
#795000
b101000100 @
b101000100 D
b101000000 =
1"
#800000
0"
#805000
b101001000 @
b101001000 D
b101000100 =
1"
#810000
0"
#815000
b101001100 @
b101001100 D
b101001000 =
1"
#820000
0"
#825000
b101010000 @
b101010000 D
b101001100 =
1"
#830000
0"
#835000
b101010100 @
b101010100 D
b101010000 =
1"
#840000
0"
#845000
b101011000 @
b101011000 D
b101010100 =
1"
#850000
0"
#855000
b101011100 @
b101011100 D
b101011000 =
1"
#860000
0"
#865000
b101100000 @
b101100000 D
b101011100 =
1"
#870000
0"
#875000
b101100100 @
b101100100 D
b101100000 =
1"
#880000
0"
#885000
b101101000 @
b101101000 D
b101100100 =
1"
#890000
0"
#895000
b101101100 @
b101101100 D
b101101000 =
1"
#900000
0"
#905000
b101110000 @
b101110000 D
b101101100 =
1"
#910000
0"
#915000
b101110100 @
b101110100 D
b101110000 =
1"
#920000
0"
#925000
b101111000 @
b101111000 D
b101110100 =
1"
#930000
0"
#935000
b101111100 @
b101111100 D
b101111000 =
1"
#940000
0"
#945000
b110000000 @
b110000000 D
b101111100 =
1"
#950000
0"
#955000
b110000100 @
b110000100 D
b110000000 =
1"
#960000
0"
#965000
b110001000 @
b110001000 D
b110000100 =
1"
#970000
0"
#975000
b110001100 @
b110001100 D
b110001000 =
1"
#980000
0"
#985000
b110010000 @
b110010000 D
b110001100 =
1"
#990000
0"
#995000
b110010100 @
b110010100 D
b110010000 =
1"
#1000000
0"
#1005000
b110011000 @
b110011000 D
b110010100 =
1"
#1010000
0"
#1015000
b110011100 @
b110011100 D
b110011000 =
1"
#1020000
0"
#1025000
b110100000 @
b110100000 D
b110011100 =
1"
#1030000
0"
#1035000
b110100100 @
b110100100 D
b110100000 =
1"
#1040000
0"
#1045000
b110101000 @
b110101000 D
b110100100 =
1"
#1050000
0"
#1055000
b110101100 @
b110101100 D
b110101000 =
1"
#1060000
0"
#1065000
b110110000 @
b110110000 D
b110101100 =
1"
#1070000
0"
#1075000
b110110100 @
b110110100 D
b110110000 =
1"
#1080000
0"
#1085000
b110111000 @
b110111000 D
b110110100 =
1"
#1090000
0"
#1095000
b110111100 @
b110111100 D
b110111000 =
1"
#1100000
0"
#1105000
b111000000 @
b111000000 D
b110111100 =
1"
#1110000
0"
#1115000
b111000100 @
b111000100 D
b111000000 =
1"
#1120000
0"
#1125000
b111001000 @
b111001000 D
b111000100 =
1"
#1130000
0"
#1135000
b111001100 @
b111001100 D
b111001000 =
1"
#1140000
0"
#1145000
b111010000 @
b111010000 D
b111001100 =
1"
#1150000
0"
#1155000
b111010100 @
b111010100 D
b111010000 =
1"
#1160000
0"
#1165000
b111011000 @
b111011000 D
b111010100 =
1"
#1170000
0"
#1175000
b111011100 @
b111011100 D
b111011000 =
1"
#1180000
0"
#1185000
b111100000 @
b111100000 D
b111011100 =
1"
#1190000
0"
#1195000
b111100100 @
b111100100 D
b111100000 =
1"
#1200000
0"
#1205000
b111101000 @
b111101000 D
b111100100 =
1"
#1210000
0"
#1215000
b111101100 @
b111101100 D
b111101000 =
1"
#1220000
0"
#1225000
b111110000 @
b111110000 D
b111101100 =
1"
#1230000
0"
#1235000
b111110100 @
b111110100 D
b111110000 =
1"
#1240000
0"
#1245000
b111111000 @
b111111000 D
b111110100 =
1"
#1250000
0"
#1255000
b111111100 @
b111111100 D
b111111000 =
1"
#1260000
0"
#1265000
b1000000000 @
b1000000000 D
b111111100 =
1"
#1270000
0"
#1275000
b1000000100 @
b1000000100 D
b1000000000 =
1"
#1280000
0"
#1285000
b1000001000 @
b1000001000 D
b1000000100 =
1"
#1290000
0"
#1295000
b1000001100 @
b1000001100 D
b1000001000 =
1"
#1300000
0"
#1305000
b1000010000 @
b1000010000 D
b1000001100 =
1"
#1310000
0"
#1315000
b1000010100 @
b1000010100 D
b1000010000 =
1"
#1320000
0"
#1325000
b1000011000 @
b1000011000 D
b1000010100 =
1"
#1330000
0"
#1335000
b1000011100 @
b1000011100 D
b1000011000 =
1"
#1340000
0"
#1345000
b1000100000 @
b1000100000 D
b1000011100 =
1"
#1350000
0"
#1355000
b1000100100 @
b1000100100 D
b1000100000 =
1"
#1360000
0"
#1365000
b1000101000 @
b1000101000 D
b1000100100 =
1"
#1370000
0"
#1375000
b1000101100 @
b1000101100 D
b1000101000 =
1"
#1380000
0"
#1385000
b1000110000 @
b1000110000 D
b1000101100 =
1"
#1390000
0"
#1395000
b1000110100 @
b1000110100 D
b1000110000 =
1"
#1400000
0"
#1405000
b1000111000 @
b1000111000 D
b1000110100 =
1"
#1410000
0"
#1415000
b1000111100 @
b1000111100 D
b1000111000 =
1"
#1420000
0"
#1425000
b1001000000 @
b1001000000 D
b1000111100 =
1"
#1430000
0"
#1435000
b1001000100 @
b1001000100 D
b1001000000 =
1"
#1440000
0"
#1445000
b1001001000 @
b1001001000 D
b1001000100 =
1"
#1450000
0"
#1455000
b1001001100 @
b1001001100 D
b1001001000 =
1"
#1460000
0"
#1465000
b1001010000 @
b1001010000 D
b1001001100 =
1"
#1470000
0"
#1475000
b1001010100 @
b1001010100 D
b1001010000 =
1"
#1480000
0"
#1485000
b1001011000 @
b1001011000 D
b1001010100 =
1"
#1490000
0"
#1495000
b1001011100 @
b1001011100 D
b1001011000 =
1"
#1500000
0"
#1505000
b1001100000 @
b1001100000 D
b1001011100 =
1"
#1510000
0"
#1515000
b1001100100 @
b1001100100 D
b1001100000 =
1"
#1520000
0"
#1525000
b1001101000 @
b1001101000 D
b1001100100 =
1"
#1530000
0"
#1535000
b1001101100 @
b1001101100 D
b1001101000 =
1"
#1540000
0"
#1545000
b1001110000 @
b1001110000 D
b1001101100 =
1"
#1550000
0"
#1555000
b1001110100 @
b1001110100 D
b1001110000 =
1"
#1560000
0"
#1565000
b1001111000 @
b1001111000 D
b1001110100 =
1"
#1570000
0"
#1575000
b1001111100 @
b1001111100 D
b1001111000 =
1"
#1580000
0"
#1585000
b1010000000 @
b1010000000 D
b1001111100 =
1"
#1590000
0"
#1595000
b1010000100 @
b1010000100 D
b1010000000 =
1"
#1600000
0"
#1605000
b1010001000 @
b1010001000 D
b1010000100 =
1"
#1610000
0"
#1615000
b1010001100 @
b1010001100 D
b1010001000 =
1"
#1620000
0"
#1625000
b1010010000 @
b1010010000 D
b1010001100 =
1"
#1630000
0"
#1635000
b1010010100 @
b1010010100 D
b1010010000 =
1"
#1640000
0"
#1645000
b1010011000 @
b1010011000 D
b1010010100 =
1"
#1650000
0"
#1655000
b1010011100 @
b1010011100 D
b1010011000 =
1"
#1660000
0"
#1665000
b1010100000 @
b1010100000 D
b1010011100 =
1"
#1670000
0"
#1675000
b1010100100 @
b1010100100 D
b1010100000 =
1"
#1680000
0"
#1685000
b1010101000 @
b1010101000 D
b1010100100 =
1"
#1690000
0"
#1695000
b1010101100 @
b1010101100 D
b1010101000 =
1"
#1700000
0"
#1705000
b1010110000 @
b1010110000 D
b1010101100 =
1"
#1710000
0"
#1715000
b1010110100 @
b1010110100 D
b1010110000 =
1"
#1720000
0"
#1725000
b1010111000 @
b1010111000 D
b1010110100 =
1"
#1730000
0"
#1735000
b1010111100 @
b1010111100 D
b1010111000 =
1"
#1740000
0"
#1745000
b1011000000 @
b1011000000 D
b1010111100 =
1"
#1750000
0"
#1755000
b1011000100 @
b1011000100 D
b1011000000 =
1"
#1760000
0"
#1765000
b1011001000 @
b1011001000 D
b1011000100 =
1"
#1770000
0"
#1775000
b1011001100 @
b1011001100 D
b1011001000 =
1"
#1780000
0"
#1785000
b1011010000 @
b1011010000 D
b1011001100 =
1"
#1790000
0"
#1795000
b1011010100 @
b1011010100 D
b1011010000 =
1"
#1800000
0"
#1805000
b1011011000 @
b1011011000 D
b1011010100 =
1"
#1810000
0"
#1815000
b1011011100 @
b1011011100 D
b1011011000 =
1"
#1820000
0"
#1825000
b1011100000 @
b1011100000 D
b1011011100 =
1"
#1830000
0"
#1835000
b1011100100 @
b1011100100 D
b1011100000 =
1"
#1840000
0"
#1845000
b1011101000 @
b1011101000 D
b1011100100 =
1"
#1850000
0"
#1855000
b1011101100 @
b1011101100 D
b1011101000 =
1"
#1860000
0"
#1865000
b1011110000 @
b1011110000 D
b1011101100 =
1"
#1870000
0"
#1875000
b1011110100 @
b1011110100 D
b1011110000 =
1"
#1880000
0"
#1885000
b1011111000 @
b1011111000 D
b1011110100 =
1"
#1890000
0"
#1895000
b1011111100 @
b1011111100 D
b1011111000 =
1"
#1900000
0"
#1905000
b1100000000 @
b1100000000 D
b1011111100 =
1"
#1910000
0"
#1915000
b1100000100 @
b1100000100 D
b1100000000 =
1"
#1920000
0"
#1925000
b1100001000 @
b1100001000 D
b1100000100 =
1"
#1930000
0"
#1935000
b1100001100 @
b1100001100 D
b1100001000 =
1"
#1940000
0"
#1945000
b1100010000 @
b1100010000 D
b1100001100 =
1"
#1950000
0"
#1955000
b1100010100 @
b1100010100 D
b1100010000 =
1"
#1960000
0"
#1965000
b1100011000 @
b1100011000 D
b1100010100 =
1"
#1970000
0"
#1975000
b1100011100 @
b1100011100 D
b1100011000 =
1"
#1980000
0"
#1985000
b1100100000 @
b1100100000 D
b1100011100 =
1"
#1990000
0"
#1995000
b1100100100 @
b1100100100 D
b1100100000 =
1"
