SEQ/seq_processor_tb.vcd
$date
	Mon Mar 03 17:51:26 2025
$end
$version
	Icarus Verilog
$end
$timescale
	1ps
$end
$scope module seq_processor_tb $end
$scope module uut $end
$var wire 1 ! clk $end
$var wire 1 " reset $end
$var wire 1 # z_flag $end
$var wire 64 $ write_data [63:0] $end
$var wire 1 % tmp_carry_2 $end
$var wire 1 & tmp_carry $end
$var wire 1 ' reg_write_en $end
$var wire 64 ( read_data2 [63:0] $end
$var wire 64 ) read_data1 [63:0] $end
$var wire 64 * read_data [63:0] $end
$var wire 64 + pc_out [63:0] $end
$var wire 64 , pc_in [63:0] $end
$var wire 4 - op [3:0] $end
$var wire 64 . mux_pc_2 [63:0] $end
$var wire 64 / mux_pc_1 [63:0] $end
$var wire 1 0 mem_write $end
$var wire 1 1 mem_to_reg $end
$var wire 1 2 mem_read $end
$var wire 32 3 instr [31:0] $end
$var wire 64 4 imm_shifted [63:0] $end
$var wire 64 5 imm [63:0] $end
$var wire 1 6 branch $end
$var wire 1 7 and_out $end
$var wire 1 8 alu_src $end
$var wire 64 9 alu_out [63:0] $end
$var wire 2 : alu_op [1:0] $end
$var wire 64 ; alu_in_2 [63:0] $end
$upscope $end
$upscope $end
$enddefinitions $end
$comment Show the parameter values. $end
$dumpall
$end
#0
$dumpvars
b1010 ;
b0 :
b1010 9
18
07
06
b1010 5
b10100 4
b101000000000000010010011 3
02
01
00
b100 /
b10100 .
b10 -
b100 ,
b0 +
b0 *
b0 )
b0 (
1'
0&
0%
b1010 $
0#
1"
0!
$end
#2000
0"
#5000
b0 $
b1000 ,
1#
b0 9
b1000 /
b100 .
b0 ;
b0 4
b0 5
b100010011 3
b100 +
1!
#10000
0!
#15000
b1100 ,
b1100 /
b1000 .
b110010011 3
b1000 +
1!
#20000
0!
#25000
b1 $
b10000 ,
0#
b1 9
b10000 /
b1110 .
b1 ;
b10 4
b1010 (
b1 5
b100000000001000010011 3
b1100 +
1!
#30000
0!
#35000
1#
b0 $
b10100 ,
b0 9
b10100 /
b10000 .
0'
10
b0 ;
b0 4
b0 (
b0 5
b1100010011000000100011 3
b10000 +
1!
#40000
0!
#45000
b1 $
b11000 ,
0#
b1 9
b11000 /
b10110 .
1'
00
b1 ;
b10 4
b1010 (
b1 5
b100010000000100010011 3
b10100 +
1!
#50000
0!
#55000
b11100 ,
b11100 /
b11000 .
b1 $
0'
10
b0 ;
b0 4
0#
b1 9
b1 (
b0 5
b10000010011000000100011 3
b11000 +
b1 )
1!
#60000
0!
#65000
0#
b10 $
b100000 ,
b10 9
b100000 /
b11110 .
1'
00
b1 ;
b10 4
b1010 (
b1 5
b100010000000100010011 3
b11100 +
1!
#70000
0!
#75000
b100100 ,
b100100 /
b100100 .
b10 $
b10 ;
b100 4
b10 9
b10 (
b10 5
b1000000000001010010011 3
b100000 +
b0 )
1!
#80000
0!
#85000
b1111111111111111111111111111111111111111111111111111111111111000 $
b101000 ,
b1111111111111111111111111111111111111111111111111111111111111000 9
b101000 /
b1000100 .
b110 -
0'
08
b1 :
16
b1010 ;
b100000 4
b1010 (
b10 )
b10000 5
b100101000100001100011 3
b100100 +
1!
#90000
0!
#95000
b101100 ,
b1 $
b101100 /
b101000 .
b1 9
b10 -
b1 ;
1'
b10 :
06
b0 4
b1 (
b0 )
b0 5
b10000011000001100110011 3
b101000 +
1!
#100000
0!
#105000
b110000 ,
b10 $
b110000 /
b101100 .
b10 9
b0 ;
0'
18
10
b0 :
b10 )
b11000010011000000100011 3
b101100 +
1!
#110000
0!
#115000
b11 $
b110100 ,
0#
b11 9
b110100 /
b110010 .
1'
00
b1 ;
b10 4
b1010 (
b1 5
b100010000000100010011 3
b110000 +
1!
#120000
0!
#125000
b111000 ,
b111000 /
b110110 .
b11 $
b11 9
b100101000001010010011 3
b10 )
b110100 +
1!
#130000
0!
#135000
b111100 ,
b111100 /
b111000 .
b1 $
08
b10 :
b1 ;
b0 4
b1 9
b1 (
b0 5
b10000000000000110110011 3
b111000 +
b0 )
1!
#140000
0!
#145000
b1000000 ,
b1000000 /
b111100 .
b11000000000001000110011 3
b111100 +
1!
#150000
0!
#155000
17
1#
1%
b0 $
b100100 ,
b0 9
b1000100 /
b100100 .
b110 -
b1111111111111111111111111111111111111111111111111111111111100100 4
b1111111111111111111111111111111111111111111111111111111111110010 5
b0 ;
0'
b1 :
16
b0 (
b11111110000000000000100111100011 3
b1000000 +
1!
#160000
0!
#165000
0%
07
b1111111111111111111111111111111111111111111111111111111111111001 $
b101000 ,
0#
b1111111111111111111111111111111111111111111111111111111111111001 9
b101000 /
b1000100 .
b1010 ;
b100000 4
b1010 (
b11 )
b10000 5
b100101000100001100011 3
b100100 +
1!
#170000
0!
#175000
0#
b101100 ,
b10 $
b101100 /
b101000 .
b10 9
b10 -
b1 ;
1'
b10 :
06
b0 4
b1 (
b1 )
b0 5
b10000011000001100110011 3
b101000 +
1!
#180000
0!
#185000
b110000 ,
b11 $
b110000 /
b101100 .
0#
b11 9
b0 ;
0'
18
10
b0 :
b10 (
b11 )
b11000010011000000100011 3
b101100 +
1!
#190000
0!
#195000
0#
b100 $
b110100 ,
b100 9
b110100 /
b110010 .
1'
00
b1 ;
b10 4
b1010 (
b1 5
b100010000000100010011 3
b110000 +
1!
#200000
0!
#205000
0#
b111000 ,
b111000 /
b110110 .
b100 $
b100 9
b100101000001010010011 3
b11 )
b110100 +
1!
#210000
0!
#215000
b111100 ,
b111100 /
b111000 .
b1 $
08
b10 :
b1 ;
b0 4
b1 9
b1 (
b0 5
b10000000000000110110011 3
b111000 +
b0 )
1!
#220000
0!
#225000
b10 $
b1000000 ,
b10 9
b1000000 /
b111100 .
b10 ;
b10 (
b11000000000001000110011 3
b111100 +
1!
#230000
0!
#235000
17
1#
1%
b0 $
b100100 ,
b0 9
b1000100 /
b100100 .
b110 -
b1111111111111111111111111111111111111111111111111111111111100100 4
b1111111111111111111111111111111111111111111111111111111111110010 5
b0 ;
0'
b1 :
16
b0 (
b11111110000000000000100111100011 3
b1000000 +
1!
#240000
0!
#245000
0%
07
b1111111111111111111111111111111111111111111111111111111111111010 $
b101000 ,
0#
b1111111111111111111111111111111111111111111111111111111111111010 9
b101000 /
b1000100 .
b1010 ;
b100000 4
b1010 (
b100 )
b10000 5
b100101000100001100011 3
b100100 +
1!
#250000
0!
#255000
b101100 ,
b11 $
b101100 /
b101000 .
b11 9
b10 -
b10 ;
1'
b10 :
06
b0 4
b10 (
b1 )
b0 5
b10000011000001100110011 3
b101000 +
1!
#260000
0!
#265000
b110000 ,
b100 $
b110000 /
b101100 .
b100 9
b0 ;
0'
18
10
b0 :
b11 (
b100 )
b11000010011000000100011 3
b101100 +
1!
#270000
0!
#275000
b101 $
b110100 ,
b101 9
b110100 /
b110010 .
1'
00
b1 ;
b10 4
b1010 (
b1 5
b100010000000100010011 3
b110000 +
1!
#280000
0!
#285000
b111000 ,
b111000 /
b110110 .
b101 $
b101 9
b100101000001010010011 3
b100 )
b110100 +
1!
#290000
0!
#295000
b111100 ,
b111100 /
b111000 .
b10 $
08
b10 :
b10 ;
b0 4
b10 9
b10 (
b0 5
b10000000000000110110011 3
b111000 +
b0 )
1!
#300000
0!
#305000
b11 $
b1000000 ,
b11 9
b1000000 /
b111100 .
b11 ;
b11 (
b11000000000001000110011 3
b111100 +
1!
#310000
0!
#315000
17
1#
1%
b0 $
b100100 ,
b0 9
b1000100 /
b100100 .
b110 -
b1111111111111111111111111111111111111111111111111111111111100100 4
b1111111111111111111111111111111111111111111111111111111111110010 5
b0 ;
0'
b1 :
16
b0 (
b11111110000000000000100111100011 3
b1000000 +
1!
#320000
0!
#325000
0%
07
b1111111111111111111111111111111111111111111111111111111111111011 $
b101000 ,
0#
b1111111111111111111111111111111111111111111111111111111111111011 9
b101000 /
b1000100 .
b1010 ;
b100000 4
b1010 (
b101 )
b10000 5
b100101000100001100011 3
b100100 +
1!
#330000
0!
#335000
b101100 ,
b101 $
b101100 /
b101000 .
b101 9
b10 -
b11 ;
1'
b10 :
06
b0 4
b11 (
b10 )
b0 5
b10000011000001100110011 3
b101000 +
1!
#340000
0!
#345000
b110000 ,
b101 $
b110000 /
b101100 .
b101 9
b0 ;
0'
18
10
b0 :
b101 (
b101 )
b11000010011000000100011 3
b101100 +
1!
#350000
0!
#355000
b110 $
b110100 ,
b110 9
b110100 /
b110010 .
1'
00
b1 ;
b10 4
b1010 (
b1 5
b100010000000100010011 3
b110000 +
1!
#360000
0!
#365000
b111000 ,
b111000 /
b110110 .
b110 $
b110 9
b100101000001010010011 3
b101 )
b110100 +
1!
#370000
0!
#375000
b111100 ,
0#
b111100 /
b111000 .
b11 $
08
b10 :
b11 ;
b0 4
b11 9
b11 (
b0 5
b10000000000000110110011 3
b111000 +
b0 )
1!
#380000
0!
#385000
b101 $
b1000000 ,
b101 9
b1000000 /
b111100 .
b101 ;
b101 (
b11000000000001000110011 3
b111100 +
1!
#390000
0!
#395000
17
1#
1%
b0 $
b100100 ,
b0 9
b1000100 /
b100100 .
b110 -
b1111111111111111111111111111111111111111111111111111111111100100 4
b1111111111111111111111111111111111111111111111111111111111110010 5
b0 ;
0'
b1 :
16
b0 (
b11111110000000000000100111100011 3
b1000000 +
1!
#400000
0!
#405000
0%
07
b1111111111111111111111111111111111111111111111111111111111111100 $
b101000 ,
0#
b1111111111111111111111111111111111111111111111111111111111111100 9
b101000 /
b1000100 .
b1010 ;
b100000 4
b1010 (
b110 )
b10000 5
b100101000100001100011 3
b100100 +
1!
#410000
0!
#415000
0#
b101100 ,
b1000 $
b101100 /
b101000 .
b1000 9
b10 -
b101 ;
1'
b10 :
06
b0 4
b101 (
b11 )
b0 5
b10000011000001100110011 3
b101000 +
1!
#420000
0!
#425000
b110000 ,
b110 $
b110000 /
b101100 .
b110 9
b0 ;
0'
18
10
b0 :
b1000 (
b110 )
b11000010011000000100011 3
b101100 +
1!
#430000
0!
#435000
b111 $
b110100 ,
b111 9
b110100 /
b110010 .
1'
00
b1 ;
b10 4
b1010 (
b1 5
b100010000000100010011 3
b110000 +
1!
#440000
0!
#445000
b111000 ,
b111000 /
b110110 .
b111 $
b111 9
b100101000001010010011 3
b110 )
b110100 +
1!
#450000
0!
#455000
b111100 ,
b111100 /
b111000 .
b101 $
08
b10 :
b101 ;
b0 4
b101 9
b101 (
b0 5
b10000000000000110110011 3
b111000 +
b0 )
1!
#460000
0!
#465000
b1000 $
b1000000 ,
b1000 9
b1000000 /
b111100 .
b1000 ;
b1000 (
b11000000000001000110011 3
b111100 +
1!
#470000
0!
#475000
17
1#
1%
b0 $
b100100 ,
b0 9
b1000100 /
b100100 .
b110 -
b1111111111111111111111111111111111111111111111111111111111100100 4
b1111111111111111111111111111111111111111111111111111111111110010 5
b0 ;
0'
b1 :
16
b0 (
b11111110000000000000100111100011 3
b1000000 +
1!
#480000
0!
#485000
0%
07
b1111111111111111111111111111111111111111111111111111111111111101 $
b101000 ,
0#
b1111111111111111111111111111111111111111111111111111111111111101 9
b101000 /
b1000100 .
b1010 ;
b100000 4
b1010 (
b111 )
b10000 5
b100101000100001100011 3
b100100 +
1!
#490000
0!
#495000
b101100 ,
b1101 $
b101100 /
b101000 .
b1101 9
b10 -
b1000 ;
1'
b10 :
06
b0 4
b1000 (
b101 )
b0 5
b10000011000001100110011 3
b101000 +
1!
#500000
0!
#505000
b100 ,
0#
b100 /
b10100 .
b1010 $
b10100 4
b1010 9
b1010 5
18
b0 :
b1010 ;
b101000000000000010010011 3
b0 (
b0 )
b0 +
1"
1!
#507000
0"
#510000
0!
#515000
b0 $
b1000 ,
1#
b0 9
b1000 /
b100 .
b0 ;
b0 4
b0 5
b100010011 3
b100 +
1!
#520000
0!
#525000
b1100 ,
b1100 /
b1000 .
b110010011 3
b1000 +
1!
#530000
0!
#535000
b1 $
b10000 ,
0#
b1 9
b10000 /
b1110 .
b1 ;
b10 4
b1010 (
b1 5
b100000000001000010011 3
b1100 +
1!
#540000
0!
#545000
1#
b0 $
b10100 ,
b0 9
b10100 /
b10000 .
0'
10
b0 ;
b0 4
b0 (
b0 5
b1100010011000000100011 3
b10000 +
1!
#550000
0!
#555000
b1 $
b11000 ,
0#
b1 9
b11000 /
b10110 .
1'
00
b1 ;
b10 4
b1010 (
b1 5
b100010000000100010011 3
b10100 +
1!
#560000
0!
#565000
b11100 ,
b11100 /
b11000 .
b1 $
0#
b1 9
0'
10
b0 ;
b0 4
b1 (
b0 5
b10000010011000000100011 3
b1 )
b11000 +
1!
#570000
0!
#575000
0#
b10 $
b100000 ,
b10 9
b100000 /
b11110 .
1'
00
b1 ;
b10 4
b1010 (
b1 5
b100010000000100010011 3
b11100 +
1!
#580000
0!
#585000
b100100 ,
b100100 /
b100100 .
b10 $
b10 9
b10 ;
b100 4
b10 (
b10 5
b1000000000001010010011 3
b0 )
b100000 +
1!
#590000
0!
#595000
b1111111111111111111111111111111111111111111111111111111111111000 $
b101000 ,
b1111111111111111111111111111111111111111111111111111111111111000 9
b101000 /
b1000100 .
b110 -
0'
08
b1 :
16
b1010 ;
b100000 4
b1010 (
b10 )
b10000 5
b100101000100001100011 3
b100100 +
1!
#600000
0!
#605000
b101100 ,
b1 $
b101100 /
b101000 .
b1 9
b10 -
b1 ;
1'
b10 :
06
b0 4
b1 (
b0 )
b0 5
b10000011000001100110011 3
b101000 +
1!
#610000
0!
#615000
b110000 ,
b10 $
b110000 /
b101100 .
b10 9
b0 ;
0'
18
10
b0 :
b10 )
b11000010011000000100011 3
b101100 +
1!
#620000
0!
#625000
b11 $
b110100 ,
0#
b11 9
b110100 /
b110010 .
1'
00
b1 ;
b10 4
b1010 (
b1 5
b100010000000100010011 3
b110000 +
1!
#630000
0!
#635000
b111000 ,
b111000 /
b110110 .
b11 $
b11 9
b100101000001010010011 3
b110100 +
b10 )
1!
#640000
0!
#645000
b111100 ,
b111100 /
b111000 .
b1 $
b1 9
08
b10 :
b1 ;
b0 4
b1 (
b0 5
b10000000000000110110011 3
b0 )
b111000 +
1!
#650000
0!
#655000
b1000000 ,
b1000000 /
b111100 .
b11000000000001000110011 3
b111100 +
1!
#660000
0!
#665000
17
1#
1%
b0 $
b100100 ,
b0 9
b1000100 /
b100100 .
b110 -
b1111111111111111111111111111111111111111111111111111111111100100 4
b1111111111111111111111111111111111111111111111111111111111110010 5
b0 ;
0'
b1 :
16
b0 (
b11111110000000000000100111100011 3
b1000000 +
1!
#670000
0!
#675000
0%
07
b1111111111111111111111111111111111111111111111111111111111111001 $
b101000 ,
0#
b1111111111111111111111111111111111111111111111111111111111111001 9
b101000 /
b1000100 .
b1010 ;
b100000 4
b1010 (
b11 )
b10000 5
b100101000100001100011 3
b100100 +
1!
#680000
0!
#685000
0#
b101100 ,
b10 $
b101100 /
b101000 .
b10 9
b10 -
b1 ;
1'
b10 :
06
b0 4
b1 (
b1 )
b0 5
b10000011000001100110011 3
b101000 +
1!
#690000
0!
#695000
b110000 ,
b11 $
b110000 /
b101100 .
0#
b11 9
b0 ;
0'
18
10
b0 :
b10 (
b11 )
b11000010011000000100011 3
b101100 +
1!
#700000
0!
#705000
0#
b100 $
b110100 ,
b100 9
b110100 /
b110010 .
1'
00
b1 ;
b10 4
b1010 (
b1 5
b100010000000100010011 3
b110000 +
1!
#710000
0!
#715000
0#
b111000 ,
b111000 /
b110110 .
b100 $
b100 9
b100101000001010010011 3
b110100 +
b11 )
1!
#720000
0!
#725000
b111100 ,
0#
b111100 /
b111000 .
b1 $
b1 9
08
b10 :
b1 ;
b0 4
b1 (
b0 5
b10000000000000110110011 3
b0 )
b111000 +
1!
#730000
0!
#735000
b10 $
b1000000 ,
b10 9
b1000000 /
b111100 .
b10 ;
b10 (
b11000000000001000110011 3
b111100 +
1!
#740000
0!
#745000
17
1#
1%
b0 $
b100100 ,
b0 9
b1000100 /
b100100 .
b110 -
b1111111111111111111111111111111111111111111111111111111111100100 4
b1111111111111111111111111111111111111111111111111111111111110010 5
b0 ;
0'
b1 :
16
b0 (
b11111110000000000000100111100011 3
b1000000 +
1!
#750000
0!
#755000
0%
07
b1111111111111111111111111111111111111111111111111111111111111010 $
b101000 ,
0#
b1111111111111111111111111111111111111111111111111111111111111010 9
b101000 /
b1000100 .
b1010 ;
b100000 4
b1010 (
b100 )
b10000 5
b100101000100001100011 3
b100100 +
1!
#760000
0!
#765000
b101100 ,
b11 $
b101100 /
b101000 .
b11 9
b10 -
b10 ;
1'
b10 :
06
b0 4
b10 (
b1 )
b0 5
b10000011000001100110011 3
b101000 +
1!
#770000
0!
#775000
b110000 ,
b100 $
b110000 /
b101100 .
b100 9
b0 ;
0'
18
10
b0 :
b11 (
b100 )
b11000010011000000100011 3
b101100 +
1!
#780000
0!
#785000
b101 $
b110100 ,
b101 9
b110100 /
b110010 .
1'
00
b1 ;
b10 4
b1010 (
b1 5
b100010000000100010011 3
b110000 +
1!
#790000
0!
#795000
b111000 ,
b111000 /
b110110 .
b101 $
b101 9
b100101000001010010011 3
b110100 +
b100 )
1!
#800000
0!
#805000
b111100 ,
b111100 /
b111000 .
b10 $
b10 9
08
b10 :
b10 ;
b0 4
b10 (
b0 5
b10000000000000110110011 3
b0 )
b111000 +
1!
#810000
0!
#815000
b11 $
b1000000 ,
b11 9
b1000000 /
b111100 .
b11 ;
b11 (
b11000000000001000110011 3
b111100 +
1!
#820000
0!
#825000
17
1#
1%
b0 $
b100100 ,
b0 9
b1000100 /
b100100 .
b110 -
b1111111111111111111111111111111111111111111111111111111111100100 4
b1111111111111111111111111111111111111111111111111111111111110010 5
b0 ;
0'
b1 :
16
b0 (
b11111110000000000000100111100011 3
b1000000 +
1!
#830000
0!
#835000
0%
07
b1111111111111111111111111111111111111111111111111111111111111011 $
b101000 ,
0#
b1111111111111111111111111111111111111111111111111111111111111011 9
b101000 /
b1000100 .
b1010 ;
b100000 4
b1010 (
b101 )
b10000 5
b100101000100001100011 3
b100100 +
1!
#840000
0!
#845000
b101100 ,
b101 $
b101100 /
b101000 .
b101 9
b10 -
b11 ;
1'
b10 :
06
b0 4
b11 (
b10 )
b0 5
b10000011000001100110011 3
b101000 +
1!
#850000
0!
#855000
b110000 ,
b101 $
b110000 /
b101100 .
b101 9
b0 ;
0'
18
10
b0 :
b101 (
b101 )
b11000010011000000100011 3
b101100 +
1!
#860000
0!
#865000
b110 $
b110100 ,
b110 9
b110100 /
b110010 .
1'
00
b1 ;
b10 4
b1010 (
b1 5
b100010000000100010011 3
b110000 +
1!
#870000
0!
#875000
b111000 ,
0#
b111000 /
b110110 .
b110 $
b110 9
b100101000001010010011 3
b110100 +
b101 )
1!
#880000
0!
#885000
b111100 ,
b111100 /
b111000 .
b11 $
b11 9
08
b10 :
b11 ;
b0 4
b11 (
b0 5
b10000000000000110110011 3
b0 )
b111000 +
1!
#890000
0!
#895000
b101 $
b1000000 ,
b101 9
b1000000 /
b111100 .
b101 ;
b101 (
b11000000000001000110011 3
b111100 +
1!
#900000
0!
#905000
17
1#
1%
b0 $
b100100 ,
b0 9
b1000100 /
b100100 .
b110 -
b1111111111111111111111111111111111111111111111111111111111100100 4
b1111111111111111111111111111111111111111111111111111111111110010 5
b0 ;
0'
b1 :
16
b0 (
b11111110000000000000100111100011 3
b1000000 +
1!
#910000
0!
#915000
0%
07
b1111111111111111111111111111111111111111111111111111111111111100 $
b101000 ,
0#
b1111111111111111111111111111111111111111111111111111111111111100 9
b101000 /
b1000100 .
b1010 ;
b100000 4
b1010 (
b110 )
b10000 5
b100101000100001100011 3
b100100 +
1!
#920000
0!
#925000
0#
b101100 ,
b1000 $
b101100 /
b101000 .
b1000 9
b10 -
b101 ;
1'
b10 :
06
b0 4
b101 (
b11 )
b0 5
b10000011000001100110011 3
b101000 +
1!
#930000
0!
#935000
b110000 ,
b110 $
b110000 /
b101100 .
b110 9
b0 ;
0'
18
10
b0 :
b1000 (
b110 )
b11000010011000000100011 3
b101100 +
1!
#940000
0!
#945000
b111 $
b110100 ,
b111 9
b110100 /
b110010 .
1'
00
b1 ;
b10 4
b1010 (
b1 5
b100010000000100010011 3
b110000 +
1!
#950000
0!
#955000
b111000 ,
b111000 /
b110110 .
b111 $
b111 9
b100101000001010010011 3
b110100 +
b110 )
1!
#960000
0!
#965000
b111100 ,
b111100 /
b111000 .
b101 $
b101 9
08
b10 :
b101 ;
b0 4
b101 (
b0 5
b10000000000000110110011 3
b0 )
b111000 +
1!
#970000
0!
#975000
b1000 $
b1000000 ,
b1000 9
b1000000 /
b111100 .
b1000 ;
b1000 (
b11000000000001000110011 3
b111100 +
1!
#980000
0!
#985000
17
1#
1%
b0 $
b100100 ,
b0 9
b1000100 /
b100100 .
b110 -
b1111111111111111111111111111111111111111111111111111111111100100 4
b1111111111111111111111111111111111111111111111111111111111110010 5
b0 ;
0'
b1 :
16
b0 (
b11111110000000000000100111100011 3
b1000000 +
1!
#990000
0!
#995000
0%
07
b1111111111111111111111111111111111111111111111111111111111111101 $
b101000 ,
0#
b1111111111111111111111111111111111111111111111111111111111111101 9
b101000 /
b1000100 .
b1010 ;
b100000 4
b1010 (
b111 )
b10000 5
b100101000100001100011 3
b100100 +
1!
#1000000
0!
#1005000
b101100 ,
b1101 $
b101100 /
b101000 .
b1101 9
b10 -
b1000 ;
1'
b10 :
06
b0 4
b1000 (
b101 )
b0 5
b10000011000001100110011 3
b101000 +
1!
#1010000
0!
#1015000
b110000 ,
b111 $
b110000 /
b101100 .
b111 9
b0 ;
0'
18
10
b0 :
b1101 (
b111 )
b11000010011000000100011 3
b101100 +
1!
#1020000
0!
#1025000
0#
b1000 $
b110100 ,
b1000 9
b110100 /
b110010 .
1'
00
b1 ;
b10 4
b1010 (
b1 5
b100010000000100010011 3
b110000 +
1!
#1030000
0!
#1035000
0#
b111000 ,
b111000 /
b110110 .
b1000 $
b1000 9
b100101000001010010011 3
b110100 +
b111 )
1!
#1040000
0!
#1045000
b111100 ,
b111100 /
b111000 .
b1000 $
b1000 9
08
b10 :
b1000 ;
b0 4
b1000 (
b0 5
b10000000000000110110011 3
b0 )
b111000 +
1!
#1050000
0!
#1055000
b1101 $
b1000000 ,
b1101 9
b1000000 /
b111100 .
b1101 ;
b1101 (
b11000000000001000110011 3
b111100 +
1!
#1060000
0!
#1065000
17
1#
1%
b0 $
b100100 ,
b0 9
b1000100 /
b100100 .
b110 -
b1111111111111111111111111111111111111111111111111111111111100100 4
b1111111111111111111111111111111111111111111111111111111111110010 5
b0 ;
0'
b1 :
16
b0 (
b11111110000000000000100111100011 3
b1000000 +
1!
#1070000
0!
#1075000
0%
07
b1111111111111111111111111111111111111111111111111111111111111110 $
b101000 ,
0#
b1111111111111111111111111111111111111111111111111111111111111110 9
b101000 /
b1000100 .
b1010 ;
b100000 4
b1010 (
b1000 )
b10000 5
b100101000100001100011 3
b100100 +
1!
#1080000
0!
#1085000
b10101 $
b101100 ,
b10101 9
b101100 /
b101000 .
b10 -
b1101 ;
1'
b10 :
06
b0 4
b1101 (
b0 5
b10000011000001100110011 3
b101000 +
1!
#1090000
0!
#1095000
b1000 $
b110000 ,
b1000 9
b110000 /
b101100 .
b0 ;
0'
18
10
b0 :
b10101 (
b11000010011000000100011 3
b101100 +
1!
#1100000
0!
#1105000
b1001 $
b110100 ,
b1001 9
b110100 /
b110010 .
1'
00
b1 ;
b10 4
b1010 (
b1 5
b100010000000100010011 3
b110000 +
1!
#1110000
0!
#1115000
b111000 ,
b111000 /
b110110 .
b1001 $
b1001 9
b100101000001010010011 3
b110100 +
b1000 )
1!
#1120000
0!
#1125000
b111100 ,
b111100 /
b111000 .
b1101 $
b1101 9
08
b10 :
b1101 ;
b0 4
b1101 (
b0 5
b10000000000000110110011 3
b0 )
b111000 +
1!
#1130000
0!
#1135000
b10101 $
b1000000 ,
b10101 9
b1000000 /
b111100 .
b10101 ;
b10101 (
b11000000000001000110011 3
b111100 +
1!
#1140000
0!
#1145000
17
1#
1%
b0 $
b100100 ,
b0 9
b1000100 /
b100100 .
b110 -
b1111111111111111111111111111111111111111111111111111111111100100 4
b1111111111111111111111111111111111111111111111111111111111110010 5
b0 ;
0'
b1 :
16
b0 (
b11111110000000000000100111100011 3
b1000000 +
1!
#1150000
0!
#1155000
0%
07
b1111111111111111111111111111111111111111111111111111111111111111 $
b101000 ,
0#
b1111111111111111111111111111111111111111111111111111111111111111 9
b101000 /
b1000100 .
b1010 ;
b100000 4
b1010 (
b1001 )
b10000 5
b100101000100001100011 3
b100100 +
1!
#1160000
0!
#1165000
b101100 ,
b100010 $
b101100 /
b101000 .
b100010 9
b10 -
b10101 ;
1'
b10 :
06
b0 4
b10101 (
b1101 )
b0 5
b10000011000001100110011 3
b101000 +
1!
#1170000
0!
#1175000
b110000 ,
b1001 $
b110000 /
b101100 .
b1001 9
b0 ;
0'
18
10
b0 :
b100010 (
b1001 )
b11000010011000000100011 3
b101100 +
1!
#1180000
0!
#1185000
b1010 $
b110100 ,
b1010 9
b110100 /
b110010 .
1'
00
b1 ;
b10 4
b1010 (
b1 5
b100010000000100010011 3
b110000 +
1!
#1190000
0!
#1195000
b111000 ,
b111000 /
b110110 .
b1010 $
b1010 9
b100101000001010010011 3
b110100 +
b1001 )
1!
#1200000
0!
#1205000
b111100 ,
0#
b111100 /
b111000 .
b10101 $
b10101 9
08
b10 :
b10101 ;
b0 4
b10101 (
b0 5
b10000000000000110110011 3
b0 )
b111000 +
1!
#1210000
0!
#1215000
b100010 $
b1000000 ,
b100010 9
b1000000 /
b111100 .
b100010 ;
b100010 (
b11000000000001000110011 3
b111100 +
1!
#1220000
0!
#1225000
17
1#
1%
b0 $
b100100 ,
b0 9
b1000100 /
b100100 .
b110 -
b1111111111111111111111111111111111111111111111111111111111100100 4
b1111111111111111111111111111111111111111111111111111111111110010 5
b0 ;
0'
b1 :
16
b0 (
b11111110000000000000100111100011 3
b1000000 +
1!
#1230000
0!
#1235000
0%
17
b0 $
b1000100 ,
1#
b0 9
b101000 /
b1000100 .
b1010 ;
b100000 4
b1010 (
b1010 )
b10000 5
b100101000100001100011 3
b100100 +
1!
#1240000
0!
#1245000
b0 $
b1001000 /
b1000100 .
1#
b0 9
b10 -
b1001000 ,
07
b0 ;
1'
b10 :
06
b0 4
b0 (
b0 )
b0 5
b100110011 3
b1000100 +
1!
#1250000
0!
#1255000
b1001100 ,
b1001100 /
b1001000 .
18
b0 :
11
12
b10011010100000011 3
b1001000 +
1!
#1260000
0!
#1265000
b1 $
b1 *
b1010000 ,
0#
b1 9
b1010000 /
b1001110 .
b1 ;
b10 4
b1010 (
b1 5
b100010011010110000011 3
b1001100 +
1!
#1270000
0!
#1275000
b1010100 ,
b10 9
b1010100 /
b1010100 .
b10 ;
b100 4
b0 (
b10 5
b1000010011011000000011 3
b1010000 +
1!
#1280000
0!
#1285000
b10 $
b10 *
b1011000 ,
b11 9
b1011000 /
b1011010 .
b11 ;
b110 4
b10101 (
b11 5
b1100010011011010000011 3
b1010100 +
1!
#1290000
0!
#1295000
b11 $
b11 *
b1011100 ,
b100 9
b1011100 /
b1100000 .
b100 ;
b1000 4
b100010 (
b100 5
b10000010011011100000011 3
b1011000 +
1!
#1300000
0!
#1305000
b101 $
b101 *
b1100000 ,
b101 9
b1100000 /
b1100110 .
b101 ;
b1010 4
b1010 (
b101 5
b10100010011011110000011 3
b1011100 +
1!
#1310000
0!
#1315000
b1000 $
b1000 *
b1100100 ,
b110 9
b1100100 /
b1101100 .
b110 ;
b1100 4
b100010 (
b110 5
b11000010011100000000011 3
b1100000 +
1!
#1320000
0!
#1325000
b1101 $
b1101 *
b1101000 ,
b111 9
b1101000 /
b1110010 .
b111 ;
b1110 4
b0 (
b111 5
b11100010011100010000011 3
b1100100 +
1!
#1330000
0!
#1335000
b10101 $
b10101 *
b1101100 ,
b1000 9
b1101100 /
b1111000 .
b1000 ;
b10000 4
b1000 5
b100000010011100100000011 3
b1101000 +
1!
#1340000
0!
#1345000
b100010 $
b100010 *
b1110000 ,
b1001 9
b1110000 /
b1111110 .
b1001 ;
b10010 4
b1001 5
b100100010011100110000011 3
b1101100 +
1!
#1350000
0!
#1355000
b1110100 ,
1#
b0 9
b1110100 /
b1110000 .
b0 $
b0 *
0'
08
01
02
b0 ;
b0 4
b0 5
b0 3
b1110000 +
1!
#1360000
0!
#1365000
b1111000 ,
b1111000 /
b1110100 .
b1110100 +
1!
#1370000
0!
#1375000
b1111100 ,
b1111100 /
b1111000 .
b1111000 +
1!
#1380000
0!
#1385000
b10000000 ,
b10000000 /
b1111100 .
b1111100 +
1!
#1390000
0!
#1395000
b10000100 ,
b10000100 /
b10000000 .
b10000000 +
1!
#1400000
0!
#1405000
b10001000 ,
b10001000 /
b10000100 .
b10000100 +
1!
#1410000
0!
#1415000
b10001100 ,
b10001100 /
b10001000 .
b10001000 +
1!
#1420000
0!
#1425000
b10010000 ,
b10010000 /
b10001100 .
b10001100 +
1!
#1430000
0!
#1435000
b10010100 ,
b10010100 /
b10010000 .
b10010000 +
1!
#1440000
0!
#1445000
b10011000 ,
b10011000 /
b10010100 .
b10010100 +
1!
#1450000
0!
#1455000
b10011100 ,
b10011100 /
b10011000 .
b10011000 +
1!
#1460000
0!
#1465000
b10100000 ,
b10100000 /
b10011100 .
b10011100 +
1!
