SEQ/seq_processor_tb.vcd
$date
	Mon Mar 03 15:46:07 2025
$end
$version
	Icarus Verilog
$end
$timescale
	1ps
$end
$scope module seq_processor_tb $end
$scope module uut $end
$var wire 1 ! clk $end
$var wire 1 " reset $end
$var wire 1 # z_flag $end
$var wire 64 $ write_data [63:0] $end
$var wire 1 % tmp_carry_2 $end
$var wire 1 & tmp_carry $end
$var wire 1 ' reg_write_en $end
$var wire 64 ( read_data2 [63:0] $end
$var wire 64 ) read_data1 [63:0] $end
$var wire 64 * read_data [63:0] $end
$var wire 64 + pc_out [63:0] $end
$var wire 64 , pc_in [63:0] $end
$var wire 4 - op [3:0] $end
$var wire 64 . mux_pc_2 [63:0] $end
$var wire 64 / mux_pc_1 [63:0] $end
$var wire 1 0 mem_write $end
$var wire 1 1 mem_to_reg $end
$var wire 1 2 mem_read $end
$var wire 32 3 instr [31:0] $end
$var wire 64 4 imm_shifted [63:0] $end
$var wire 64 5 imm [63:0] $end
$var wire 1 6 branch $end
$var wire 1 7 and_out $end
$var wire 1 8 alu_src $end
$var wire 64 9 alu_out [63:0] $end
$var wire 2 : alu_op [1:0] $end
$var wire 64 ; alu_in_2 [63:0] $end
$upscope $end
$upscope $end
$enddefinitions $end
$comment Show the parameter values. $end
$dumpall
$end
#0
$dumpvars
b1100100 ;
b0 :
b1100100 9
18
07
06
b1100100 5
b11001000 4
b110010000000000000010010011 3
02
01
00
b100 /
b11001000 .
b10 -
b100 ,
b0 +
b0 *
b0 )
b0 (
1'
0&
0%
b1100100 $
0#
1"
0!
$end
#2000
0"
#5000
b0 $
b1000 ,
1#
b0 9
b1000 /
b100 .
b0 ;
b0 4
b0 5
b100010011 3
b100 +
1!
#10000
0!
#15000
b1 $
b1100 ,
0#
b1 9
b1100 /
b1010 .
b1 ;
b10 4
b1100100 (
b1 5
b100000000000110010011 3
b1000 +
1!
#20000
0!
#25000
b10000 ,
b10000 /
b1100 .
08
b10 :
b0 ;
b0 4
b0 (
b1 )
b0 5
b11000010100110011 3
b1100 +
1!
#30000
0!
#35000
b10100 ,
b1 $
b10100 /
b10000 .
0#
b1 9
b1 ;
b1 (
b0 )
b1100010000000100110011 3
b10000 +
1!
#40000
0!
#45000
b11000 ,
b11000 /
b10110 .
b10 $
b10 4
0#
b10 9
b1 5
b1 ;
18
b0 :
b1100100 (
b100011000000110010011 3
b1 )
b10100 +
1!
#50000
0!
#55000
b11100 ,
b110 -
b11100 /
b11000 .
b1111111111111111111111111111111111111111111111111111111110011110 $
08
b10 :
b1100100 ;
b0 4
b1111111111111111111111111111111111111111111111111111111110011110 9
b0 5
b1000000000100011000001000110011 3
b11000 +
b10 )
1!
#60000
0!
#65000
b1111111111111111111111111111111111111111111111111111111110011101 $
b100000 ,
b1111111111111111111111111111111111111111111111111111111110011101 9
b100000 /
b100100 .
b1000 4
b100 5
b1 ;
0'
b1 :
16
b1 (
b1111111111111111111111111111111111111111111111111111111110011110 )
b101000100000001001100011 3
b11100 +
1!
#70000
0!
#75000
17
1#
1%
b0 $
b10000 ,
b0 9
b100100 /
b10000 .
b0 ;
b1111111111111111111111111111111111111111111111111111111111110000 4
b0 (
b0 )
b1111111111111111111111111111111111111111111111111111111111111000 5
b11111110000000000000110011100011 3
b100000 +
1!
#80000
0!
#85000
0%
b11 $
b10100 /
b10000 .
0#
b11 9
b10 -
b10100 ,
07
b10 ;
1'
b10 :
06
b0 4
b10 (
b1 )
b0 5
b1100010000000100110011 3
b10000 +
1!
#90000
0!
#95000
b11000 ,
b11000 /
b10110 .
b10 4
b11 $
b1 5
b1 ;
18
b0 :
b11 9
b1100100 (
b100011000000110010011 3
b10100 +
b10 )
1!
#100000
0!
#105000
b11100 ,
b110 -
b11100 /
b11000 .
b1111111111111111111111111111111111111111111111111111111110011111 $
b1111111111111111111111111111111111111111111111111111111110011111 9
08
b10 :
b1100100 ;
b0 4
b0 5
b1000000000100011000001000110011 3
b11 )
b11000 +
1!
#110000
0!
#115000
b1111111111111111111111111111111111111111111111111111111110011110 $
b100000 ,
b1111111111111111111111111111111111111111111111111111111110011110 9
b100000 /
b100100 .
b1000 4
b100 5
b1 ;
0'
b1 :
16
b1 (
b1111111111111111111111111111111111111111111111111111111110011111 )
b101000100000001001100011 3
b11100 +
1!
#120000
0!
#125000
17
1#
1%
b0 $
b10000 ,
b0 9
b100100 /
b10000 .
b0 ;
b1111111111111111111111111111111111111111111111111111111111110000 4
b0 (
b0 )
b1111111111111111111111111111111111111111111111111111111111111000 5
b11111110000000000000110011100011 3
b100000 +
1!
#130000
0!
#135000
0%
b110 $
b10100 /
b10000 .
0#
b110 9
b10 -
b10100 ,
07
b11 ;
1'
b10 :
06
b0 4
b11 (
b11 )
b0 5
b1100010000000100110011 3
b10000 +
1!
#140000
0!
#145000
0#
b11000 ,
b11000 /
b10110 .
b100 $
b10 4
b100 9
b1 5
b1 ;
18
b0 :
b1100100 (
b100011000000110010011 3
b11 )
b10100 +
1!
#150000
0!
#155000
b11100 ,
b110 -
b11100 /
b11000 .
b1111111111111111111111111111111111111111111111111111111110100000 $
08
b10 :
b1100100 ;
b0 4
b1111111111111111111111111111111111111111111111111111111110100000 9
b0 5
b1000000000100011000001000110011 3
b11000 +
b100 )
1!
#160000
0!
#165000
b1111111111111111111111111111111111111111111111111111111110011111 $
b100000 ,
b1111111111111111111111111111111111111111111111111111111110011111 9
b100000 /
b100100 .
b1000 4
b100 5
b1 ;
0'
b1 :
16
b1 (
b1111111111111111111111111111111111111111111111111111111110100000 )
b101000100000001001100011 3
b11100 +
1!
#170000
0!
#175000
17
1#
1%
b0 $
b10000 ,
b0 9
b100100 /
b10000 .
b0 ;
b1111111111111111111111111111111111111111111111111111111111110000 4
b0 (
b0 )
b1111111111111111111111111111111111111111111111111111111111111000 5
b11111110000000000000110011100011 3
b100000 +
1!
#180000
0!
#185000
0%
b1010 $
b10100 /
b10000 .
0#
b1010 9
b10 -
b10100 ,
07
b100 ;
1'
b10 :
06
b0 4
b100 (
b110 )
b0 5
b1100010000000100110011 3
b10000 +
1!
#190000
0!
#195000
b11000 ,
b11000 /
b10110 .
0#
b10 4
b101 $
b1 5
b1 ;
18
b0 :
b101 9
b1100100 (
b100011000000110010011 3
b10100 +
b100 )
1!
#200000
0!
#205000
0#
b11100 ,
b110 -
b11100 /
b11000 .
b1111111111111111111111111111111111111111111111111111111110100001 $
b1111111111111111111111111111111111111111111111111111111110100001 9
08
b10 :
b1100100 ;
b0 4
b0 5
b1000000000100011000001000110011 3
b101 )
b11000 +
1!
#210000
0!
#215000
b1111111111111111111111111111111111111111111111111111111110100000 $
b100000 ,
b1111111111111111111111111111111111111111111111111111111110100000 9
b100000 /
b100100 .
b1000 4
b100 5
b1 ;
0'
b1 :
16
b1 (
b1111111111111111111111111111111111111111111111111111111110100001 )
b101000100000001001100011 3
b11100 +
1!
#220000
0!
#225000
17
1#
1%
b0 $
b10000 ,
b0 9
b100100 /
b10000 .
b0 ;
b1111111111111111111111111111111111111111111111111111111111110000 4
b0 (
b0 )
b1111111111111111111111111111111111111111111111111111111111111000 5
b11111110000000000000110011100011 3
b100000 +
1!
#230000
0!
#235000
0%
b1111 $
b10100 /
b10000 .
0#
b1111 9
b10 -
b10100 ,
07
b101 ;
1'
b10 :
06
b0 4
b101 (
b1010 )
b0 5
b1100010000000100110011 3
b10000 +
1!
#240000
0!
#245000
b11000 ,
b11000 /
b10110 .
b110 $
b10 4
b110 9
b1 5
b1 ;
18
b0 :
b1100100 (
b100011000000110010011 3
b101 )
b10100 +
1!
#250000
0!
#255000
b11100 ,
b110 -
b11100 /
b11000 .
b1111111111111111111111111111111111111111111111111111111110100010 $
08
b10 :
b1100100 ;
b0 4
b1111111111111111111111111111111111111111111111111111111110100010 9
b0 5
b1000000000100011000001000110011 3
b11000 +
b110 )
1!
#260000
0!
#265000
b1111111111111111111111111111111111111111111111111111111110100001 $
b100000 ,
b1111111111111111111111111111111111111111111111111111111110100001 9
b100000 /
b100100 .
b1000 4
b100 5
b1 ;
0'
b1 :
16
b1 (
b1111111111111111111111111111111111111111111111111111111110100010 )
b101000100000001001100011 3
b11100 +
1!
#270000
0!
#275000
17
1#
1%
b0 $
b10000 ,
b0 9
b100100 /
b10000 .
b0 ;
b1111111111111111111111111111111111111111111111111111111111110000 4
b0 (
b0 )
b1111111111111111111111111111111111111111111111111111111111111000 5
b11111110000000000000110011100011 3
b100000 +
1!
#280000
0!
#285000
0%
b10101 $
b10100 /
b10000 .
0#
b10101 9
b10 -
b10100 ,
07
b110 ;
1'
b10 :
06
b0 4
b110 (
b1111 )
b0 5
b1100010000000100110011 3
b10000 +
1!
#290000
0!
#295000
b11000 ,
b11000 /
b10110 .
b10 4
b111 $
b1 5
b1 ;
18
b0 :
b111 9
b1100100 (
b100011000000110010011 3
b10100 +
b110 )
1!
#300000
0!
#305000
b11100 ,
b110 -
b11100 /
b11000 .
b1111111111111111111111111111111111111111111111111111111110100011 $
b1111111111111111111111111111111111111111111111111111111110100011 9
08
b10 :
b1100100 ;
b0 4
b0 5
b1000000000100011000001000110011 3
b111 )
b11000 +
1!
#310000
0!
#315000
b1111111111111111111111111111111111111111111111111111111110100010 $
b100000 ,
b1111111111111111111111111111111111111111111111111111111110100010 9
b100000 /
b100100 .
b1000 4
b100 5
b1 ;
0'
b1 :
16
b1 (
b1111111111111111111111111111111111111111111111111111111110100011 )
b101000100000001001100011 3
b11100 +
1!
#320000
0!
#325000
17
1#
1%
b0 $
b10000 ,
b0 9
b100100 /
b10000 .
b0 ;
b1111111111111111111111111111111111111111111111111111111111110000 4
b0 (
b0 )
b1111111111111111111111111111111111111111111111111111111111111000 5
b11111110000000000000110011100011 3
b100000 +
1!
#330000
0!
#335000
0%
b11100 $
b10100 /
b10000 .
0#
b11100 9
b10 -
b10100 ,
07
b111 ;
1'
b10 :
06
b0 4
b111 (
b10101 )
b0 5
b1100010000000100110011 3
b10000 +
1!
#340000
0!
#345000
0#
b11000 ,
b11000 /
b10110 .
b1000 $
b10 4
b1000 9
b1 5
b1 ;
18
b0 :
b1100100 (
b100011000000110010011 3
b111 )
b10100 +
1!
#350000
0!
#355000
b11100 ,
b110 -
b11100 /
b11000 .
b1111111111111111111111111111111111111111111111111111111110100100 $
08
b10 :
b1100100 ;
b0 4
b1111111111111111111111111111111111111111111111111111111110100100 9
b0 5
b1000000000100011000001000110011 3
b11000 +
b1000 )
1!
#360000
0!
#365000
b1111111111111111111111111111111111111111111111111111111110100011 $
b100000 ,
b1111111111111111111111111111111111111111111111111111111110100011 9
b100000 /
b100100 .
b1000 4
b100 5
b1 ;
0'
b1 :
16
b1 (
b1111111111111111111111111111111111111111111111111111111110100100 )
b101000100000001001100011 3
b11100 +
1!
#370000
0!
#375000
17
1#
1%
b0 $
b10000 ,
b0 9
b100100 /
b10000 .
b0 ;
b1111111111111111111111111111111111111111111111111111111111110000 4
b0 (
b0 )
b1111111111111111111111111111111111111111111111111111111111111000 5
b11111110000000000000110011100011 3
b100000 +
1!
#380000
0!
#385000
0%
b100100 $
b10100 /
b10000 .
0#
b100100 9
b10 -
b10100 ,
07
b1000 ;
1'
b10 :
06
b0 4
b1000 (
b11100 )
b0 5
b1100010000000100110011 3
b10000 +
1!
#390000
0!
#395000
b11000 ,
b11000 /
b10110 .
0#
b10 4
b1001 $
b1 5
b1 ;
18
b0 :
b1001 9
b1100100 (
b100011000000110010011 3
b10100 +
b1000 )
1!
#400000
0!
#405000
b11100 ,
b110 -
b11100 /
b11000 .
b1111111111111111111111111111111111111111111111111111111110100101 $
b1111111111111111111111111111111111111111111111111111111110100101 9
08
b10 :
b1100100 ;
b0 4
b0 5
b1000000000100011000001000110011 3
b1001 )
b11000 +
1!
#410000
0!
#415000
b1111111111111111111111111111111111111111111111111111111110100100 $
b100000 ,
b1111111111111111111111111111111111111111111111111111111110100100 9
b100000 /
b100100 .
b1000 4
b100 5
b1 ;
0'
b1 :
16
b1 (
b1111111111111111111111111111111111111111111111111111111110100101 )
b101000100000001001100011 3
b11100 +
1!
#420000
0!
#425000
17
1#
1%
b0 $
b10000 ,
b0 9
b100100 /
b10000 .
b0 ;
b1111111111111111111111111111111111111111111111111111111111110000 4
b0 (
b0 )
b1111111111111111111111111111111111111111111111111111111111111000 5
b11111110000000000000110011100011 3
b100000 +
1!
#430000
0!
#435000
0%
b101101 $
b10100 /
b10000 .
0#
b101101 9
b10 -
b10100 ,
07
b1001 ;
1'
b10 :
06
b0 4
b1001 (
b100100 )
b0 5
b1100010000000100110011 3
b10000 +
1!
#440000
0!
#445000
b11000 ,
b11000 /
b10110 .
b1010 $
b10 4
b1010 9
b1 5
b1 ;
18
b0 :
b1100100 (
b100011000000110010011 3
b1001 )
b10100 +
1!
#450000
0!
#455000
b11100 ,
b110 -
b11100 /
b11000 .
b1111111111111111111111111111111111111111111111111111111110100110 $
08
b10 :
b1100100 ;
b0 4
b1111111111111111111111111111111111111111111111111111111110100110 9
b0 5
b1000000000100011000001000110011 3
b11000 +
b1010 )
1!
#460000
0!
#465000
b1111111111111111111111111111111111111111111111111111111110100101 $
b100000 ,
b1111111111111111111111111111111111111111111111111111111110100101 9
b100000 /
b100100 .
b1000 4
b100 5
b1 ;
0'
b1 :
16
b1 (
b1111111111111111111111111111111111111111111111111111111110100110 )
b101000100000001001100011 3
b11100 +
1!
#470000
0!
#475000
17
1#
1%
b0 $
b10000 ,
b0 9
b100100 /
b10000 .
b0 ;
b1111111111111111111111111111111111111111111111111111111111110000 4
b0 (
b0 )
b1111111111111111111111111111111111111111111111111111111111111000 5
b11111110000000000000110011100011 3
b100000 +
1!
#480000
0!
#485000
0%
b110111 $
b10100 /
b10000 .
0#
b110111 9
b10 -
b10100 ,
07
b1010 ;
1'
b10 :
06
b0 4
b1010 (
b101101 )
b0 5
b1100010000000100110011 3
b10000 +
1!
#490000
0!
#495000
b11000 ,
b11000 /
b10110 .
b10 4
b1011 $
b1 5
b1 ;
18
b0 :
b1011 9
b1100100 (
b100011000000110010011 3
b10100 +
b1010 )
1!
#500000
0!
#505000
b11100 ,
b110 -
b11100 /
b11000 .
b1111111111111111111111111111111111111111111111111111111110100111 $
b1111111111111111111111111111111111111111111111111111111110100111 9
08
b10 :
b1100100 ;
b0 4
b0 5
b1000000000100011000001000110011 3
b1011 )
b11000 +
1!
#510000
0!
#515000
b1111111111111111111111111111111111111111111111111111111110100110 $
b100000 ,
b1111111111111111111111111111111111111111111111111111111110100110 9
b100000 /
b100100 .
b1000 4
b100 5
b1 ;
0'
b1 :
16
b1 (
b1111111111111111111111111111111111111111111111111111111110100111 )
b101000100000001001100011 3
b11100 +
1!
#520000
0!
#525000
17
1#
1%
b0 $
b10000 ,
b0 9
b100100 /
b10000 .
b0 ;
b1111111111111111111111111111111111111111111111111111111111110000 4
b0 (
b0 )
b1111111111111111111111111111111111111111111111111111111111111000 5
b11111110000000000000110011100011 3
b100000 +
1!
#530000
0!
#535000
0%
b1000010 $
b10100 /
b10000 .
0#
b1000010 9
b10 -
b10100 ,
07
b1011 ;
1'
b10 :
06
b0 4
b1011 (
b110111 )
b0 5
b1100010000000100110011 3
b10000 +
1!
#540000
0!
#545000
b11000 ,
b11000 /
b10110 .
b1100 $
b10 4
b1100 9
b1 5
b1 ;
18
b0 :
b1100100 (
b100011000000110010011 3
b1011 )
b10100 +
1!
#550000
0!
#555000
b11100 ,
b110 -
b11100 /
b11000 .
b1111111111111111111111111111111111111111111111111111111110101000 $
08
b10 :
b1100100 ;
b0 4
b1111111111111111111111111111111111111111111111111111111110101000 9
b0 5
b1000000000100011000001000110011 3
b11000 +
b1100 )
1!
#560000
0!
#565000
b1111111111111111111111111111111111111111111111111111111110100111 $
b100000 ,
b1111111111111111111111111111111111111111111111111111111110100111 9
b100000 /
b100100 .
b1000 4
b100 5
b1 ;
0'
b1 :
16
b1 (
b1111111111111111111111111111111111111111111111111111111110101000 )
b101000100000001001100011 3
b11100 +
1!
#570000
0!
#575000
17
1#
1%
b0 $
b10000 ,
b0 9
b100100 /
b10000 .
b0 ;
b1111111111111111111111111111111111111111111111111111111111110000 4
b0 (
b0 )
b1111111111111111111111111111111111111111111111111111111111111000 5
b11111110000000000000110011100011 3
b100000 +
1!
#580000
0!
#585000
0%
b1001110 $
b10100 /
b10000 .
0#
b1001110 9
b10 -
b10100 ,
07
b1100 ;
1'
b10 :
06
b0 4
b1100 (
b1000010 )
b0 5
b1100010000000100110011 3
b10000 +
1!
#590000
0!
#595000
b11000 ,
b11000 /
b10110 .
b10 4
b1101 $
b1 5
b1 ;
18
b0 :
b1101 9
b1100100 (
b100011000000110010011 3
b10100 +
b1100 )
1!
#600000
0!
#605000
b11100 ,
b110 -
b11100 /
b11000 .
b1111111111111111111111111111111111111111111111111111111110101001 $
b1111111111111111111111111111111111111111111111111111111110101001 9
08
b10 :
b1100100 ;
b0 4
b0 5
b1000000000100011000001000110011 3
b1101 )
b11000 +
1!
#610000
0!
#615000
b1111111111111111111111111111111111111111111111111111111110101000 $
b100000 ,
b1111111111111111111111111111111111111111111111111111111110101000 9
b100000 /
b100100 .
b1000 4
b100 5
b1 ;
0'
b1 :
16
b1 (
b1111111111111111111111111111111111111111111111111111111110101001 )
b101000100000001001100011 3
b11100 +
1!
#620000
0!
#625000
17
1#
1%
b0 $
b10000 ,
b0 9
b100100 /
b10000 .
b0 ;
b1111111111111111111111111111111111111111111111111111111111110000 4
b0 (
b0 )
b1111111111111111111111111111111111111111111111111111111111111000 5
b11111110000000000000110011100011 3
b100000 +
1!
#630000
0!
#635000
0%
b1011011 $
b10100 /
b10000 .
0#
b1011011 9
b10 -
b10100 ,
07
b1101 ;
1'
b10 :
06
b0 4
b1101 (
b1001110 )
b0 5
b1100010000000100110011 3
b10000 +
1!
#640000
0!
#645000
b11000 ,
b11000 /
b10110 .
b1110 $
b10 4
b1110 9
b1 5
b1 ;
18
b0 :
b1100100 (
b100011000000110010011 3
b1101 )
b10100 +
1!
#650000
0!
#655000
b11100 ,
b110 -
b11100 /
b11000 .
b1111111111111111111111111111111111111111111111111111111110101010 $
08
b10 :
b1100100 ;
b0 4
b1111111111111111111111111111111111111111111111111111111110101010 9
b0 5
b1000000000100011000001000110011 3
b11000 +
b1110 )
1!
#660000
0!
#665000
b1111111111111111111111111111111111111111111111111111111110101001 $
b100000 ,
b1111111111111111111111111111111111111111111111111111111110101001 9
b100000 /
b100100 .
b1000 4
b100 5
b1 ;
0'
b1 :
16
b1 (
b1111111111111111111111111111111111111111111111111111111110101010 )
b101000100000001001100011 3
b11100 +
1!
#670000
0!
#675000
17
1#
1%
b0 $
b10000 ,
b0 9
b100100 /
b10000 .
b0 ;
b1111111111111111111111111111111111111111111111111111111111110000 4
b0 (
b0 )
b1111111111111111111111111111111111111111111111111111111111111000 5
b11111110000000000000110011100011 3
b100000 +
1!
#680000
0!
#685000
0%
b1101001 $
b10100 /
b10000 .
0#
b1101001 9
b10 -
b10100 ,
07
b1110 ;
1'
b10 :
06
b0 4
b1110 (
b1011011 )
b0 5
b1100010000000100110011 3
b10000 +
1!
#690000
0!
#695000
b11000 ,
b11000 /
b10110 .
b10 4
b1111 $
b1 5
b1 ;
18
b0 :
b1111 9
b1100100 (
b100011000000110010011 3
b10100 +
b1110 )
1!
#700000
0!
#705000
b11100 ,
b110 -
b11100 /
b11000 .
b1111111111111111111111111111111111111111111111111111111110101011 $
b1111111111111111111111111111111111111111111111111111111110101011 9
08
b10 :
b1100100 ;
b0 4
b0 5
b1000000000100011000001000110011 3
b1111 )
b11000 +
1!
#710000
0!
#715000
b1111111111111111111111111111111111111111111111111111111110101010 $
b100000 ,
b1111111111111111111111111111111111111111111111111111111110101010 9
b100000 /
b100100 .
b1000 4
b100 5
b1 ;
0'
b1 :
16
b1 (
b1111111111111111111111111111111111111111111111111111111110101011 )
b101000100000001001100011 3
b11100 +
1!
#720000
0!
#725000
17
1#
1%
b0 $
b10000 ,
b0 9
b100100 /
b10000 .
b0 ;
b1111111111111111111111111111111111111111111111111111111111110000 4
b0 (
b0 )
b1111111111111111111111111111111111111111111111111111111111111000 5
b11111110000000000000110011100011 3
b100000 +
1!
#730000
0!
#735000
0%
b1111000 $
b10100 /
b10000 .
0#
b1111000 9
b10 -
b10100 ,
07
b1111 ;
1'
b10 :
06
b0 4
b1111 (
b1101001 )
b0 5
b1100010000000100110011 3
b10000 +
1!
#740000
0!
#745000
0#
b11000 ,
b11000 /
b10110 .
b10000 $
b10 4
b10000 9
b1 5
b1 ;
18
b0 :
b1100100 (
b100011000000110010011 3
b1111 )
b10100 +
1!
#750000
0!
#755000
b11100 ,
b110 -
b11100 /
b11000 .
b1111111111111111111111111111111111111111111111111111111110101100 $
08
b10 :
b1100100 ;
b0 4
b1111111111111111111111111111111111111111111111111111111110101100 9
b0 5
b1000000000100011000001000110011 3
b11000 +
b10000 )
1!
#760000
0!
#765000
b1111111111111111111111111111111111111111111111111111111110101011 $
b100000 ,
b1111111111111111111111111111111111111111111111111111111110101011 9
b100000 /
b100100 .
b1000 4
b100 5
b1 ;
0'
b1 :
16
b1 (
b1111111111111111111111111111111111111111111111111111111110101100 )
b101000100000001001100011 3
b11100 +
1!
#770000
0!
#775000
17
1#
1%
b0 $
b10000 ,
b0 9
b100100 /
b10000 .
b0 ;
b1111111111111111111111111111111111111111111111111111111111110000 4
b0 (
b0 )
b1111111111111111111111111111111111111111111111111111111111111000 5
b11111110000000000000110011100011 3
b100000 +
1!
#780000
0!
#785000
0%
b10001000 $
b10100 /
b10000 .
0#
b10001000 9
b10 -
b10100 ,
07
b10000 ;
1'
b10 :
06
b0 4
b10000 (
b1111000 )
b0 5
b1100010000000100110011 3
b10000 +
1!
#790000
0!
#795000
b11000 ,
b11000 /
b10110 .
b10 4
b10001 $
b1 5
b1 ;
18
b0 :
b10001 9
b1100100 (
b100011000000110010011 3
b10100 +
b10000 )
1!
#800000
0!
#805000
b11100 ,
b110 -
b11100 /
b11000 .
b1111111111111111111111111111111111111111111111111111111110101101 $
b1111111111111111111111111111111111111111111111111111111110101101 9
08
b10 :
b1100100 ;
b0 4
b0 5
b1000000000100011000001000110011 3
b10001 )
b11000 +
1!
#810000
0!
#815000
b1111111111111111111111111111111111111111111111111111111110101100 $
b100000 ,
b1111111111111111111111111111111111111111111111111111111110101100 9
b100000 /
b100100 .
b1000 4
b100 5
b1 ;
0'
b1 :
16
b1 (
b1111111111111111111111111111111111111111111111111111111110101101 )
b101000100000001001100011 3
b11100 +
1!
#820000
0!
#825000
17
1#
1%
b0 $
b10000 ,
b0 9
b100100 /
b10000 .
b0 ;
b1111111111111111111111111111111111111111111111111111111111110000 4
b0 (
b0 )
b1111111111111111111111111111111111111111111111111111111111111000 5
b11111110000000000000110011100011 3
b100000 +
1!
#830000
0!
#835000
0%
b10011001 $
b10100 /
b10000 .
0#
b10011001 9
b10 -
b10100 ,
07
b10001 ;
1'
b10 :
06
b0 4
b10001 (
b10001000 )
b0 5
b1100010000000100110011 3
b10000 +
1!
#840000
0!
#845000
b11000 ,
b11000 /
b10110 .
b10010 $
b10 4
b10010 9
b1 5
b1 ;
18
b0 :
b1100100 (
b100011000000110010011 3
b10001 )
b10100 +
1!
#850000
0!
#855000
b11100 ,
b110 -
b11100 /
b11000 .
b1111111111111111111111111111111111111111111111111111111110101110 $
08
b10 :
b1100100 ;
b0 4
b1111111111111111111111111111111111111111111111111111111110101110 9
b0 5
b1000000000100011000001000110011 3
b11000 +
b10010 )
1!
#860000
0!
#865000
b1111111111111111111111111111111111111111111111111111111110101101 $
b100000 ,
b1111111111111111111111111111111111111111111111111111111110101101 9
b100000 /
b100100 .
b1000 4
b100 5
b1 ;
0'
b1 :
16
b1 (
b1111111111111111111111111111111111111111111111111111111110101110 )
b101000100000001001100011 3
b11100 +
1!
#870000
0!
#875000
17
1#
1%
b0 $
b10000 ,
b0 9
b100100 /
b10000 .
b0 ;
b1111111111111111111111111111111111111111111111111111111111110000 4
b0 (
b0 )
b1111111111111111111111111111111111111111111111111111111111111000 5
b11111110000000000000110011100011 3
b100000 +
1!
#880000
0!
#885000
0%
b10101011 $
b10100 /
b10000 .
0#
b10101011 9
b10 -
b10100 ,
07
b10010 ;
1'
b10 :
06
b0 4
b10010 (
b10011001 )
b0 5
b1100010000000100110011 3
b10000 +
1!
#890000
0!
#895000
b11000 ,
b11000 /
b10110 .
b10 4
b10011 $
b1 5
b1 ;
18
b0 :
b10011 9
b1100100 (
b100011000000110010011 3
b10100 +
b10010 )
1!
#900000
0!
#905000
b11100 ,
b110 -
b11100 /
b11000 .
b1111111111111111111111111111111111111111111111111111111110101111 $
b1111111111111111111111111111111111111111111111111111111110101111 9
08
b10 :
b1100100 ;
b0 4
b0 5
b1000000000100011000001000110011 3
b10011 )
b11000 +
1!
#910000
0!
#915000
b1111111111111111111111111111111111111111111111111111111110101110 $
b100000 ,
b1111111111111111111111111111111111111111111111111111111110101110 9
b100000 /
b100100 .
b1000 4
b100 5
b1 ;
0'
b1 :
16
b1 (
b1111111111111111111111111111111111111111111111111111111110101111 )
b101000100000001001100011 3
b11100 +
1!
#920000
0!
#925000
17
1#
1%
b0 $
b10000 ,
b0 9
b100100 /
b10000 .
b0 ;
b1111111111111111111111111111111111111111111111111111111111110000 4
b0 (
b0 )
b1111111111111111111111111111111111111111111111111111111111111000 5
b11111110000000000000110011100011 3
b100000 +
1!
#930000
0!
#935000
0%
b10111110 $
b10100 /
b10000 .
0#
b10111110 9
b10 -
b10100 ,
07
b10011 ;
1'
b10 :
06
b0 4
b10011 (
b10101011 )
b0 5
b1100010000000100110011 3
b10000 +
1!
#940000
0!
#945000
b11000 ,
b11000 /
b10110 .
b10100 $
b10 4
b10100 9
b1 5
b1 ;
18
b0 :
b1100100 (
b100011000000110010011 3
b10011 )
b10100 +
1!
#950000
0!
#955000
b11100 ,
b110 -
b11100 /
b11000 .
b1111111111111111111111111111111111111111111111111111111110110000 $
08
b10 :
b1100100 ;
b0 4
b1111111111111111111111111111111111111111111111111111111110110000 9
b0 5
b1000000000100011000001000110011 3
b11000 +
b10100 )
1!
#960000
0!
#965000
b1111111111111111111111111111111111111111111111111111111110101111 $
b100000 ,
b1111111111111111111111111111111111111111111111111111111110101111 9
b100000 /
b100100 .
b1000 4
b100 5
b1 ;
0'
b1 :
16
b1 (
b1111111111111111111111111111111111111111111111111111111110110000 )
b101000100000001001100011 3
b11100 +
1!
#970000
0!
#975000
17
1#
1%
b0 $
b10000 ,
b0 9
b100100 /
b10000 .
b0 ;
b1111111111111111111111111111111111111111111111111111111111110000 4
b0 (
b0 )
b1111111111111111111111111111111111111111111111111111111111111000 5
b11111110000000000000110011100011 3
b100000 +
1!
#980000
0!
#985000
0%
b11010010 $
b10100 /
b10000 .
0#
b11010010 9
b10 -
b10100 ,
07
b10100 ;
1'
b10 :
06
b0 4
b10100 (
b10111110 )
b0 5
b1100010000000100110011 3
b10000 +
1!
#990000
0!
#995000
b11000 ,
b11000 /
b10110 .
b10 4
b10101 $
b1 5
b1 ;
18
b0 :
b10101 9
b1100100 (
b100011000000110010011 3
b10100 +
b10100 )
1!
#1000000
0!
#1005000
b11100 ,
b110 -
b11100 /
b11000 .
b1111111111111111111111111111111111111111111111111111111110110001 $
b1111111111111111111111111111111111111111111111111111111110110001 9
08
b10 :
b1100100 ;
b0 4
b0 5
b1000000000100011000001000110011 3
b10101 )
b11000 +
1!
#1010000
0!
#1015000
b1111111111111111111111111111111111111111111111111111111110110000 $
b100000 ,
b1111111111111111111111111111111111111111111111111111111110110000 9
b100000 /
b100100 .
b1000 4
b100 5
b1 ;
0'
b1 :
16
b1 (
b1111111111111111111111111111111111111111111111111111111110110001 )
b101000100000001001100011 3
b11100 +
1!
#1020000
0!
#1025000
17
1#
1%
b0 $
b10000 ,
b0 9
b100100 /
b10000 .
b0 ;
b1111111111111111111111111111111111111111111111111111111111110000 4
b0 (
b0 )
b1111111111111111111111111111111111111111111111111111111111111000 5
b11111110000000000000110011100011 3
b100000 +
1!
#1030000
0!
#1035000
0%
b11100111 $
b10100 /
b10000 .
0#
b11100111 9
b10 -
b10100 ,
07
b10101 ;
1'
b10 :
06
b0 4
b10101 (
b11010010 )
b0 5
b1100010000000100110011 3
b10000 +
1!
#1040000
0!
#1045000
b11000 ,
b11000 /
b10110 .
b10110 $
b10 4
b10110 9
b1 5
b1 ;
18
b0 :
b1100100 (
b100011000000110010011 3
b10101 )
b10100 +
1!
#1050000
0!
#1055000
b11100 ,
b110 -
b11100 /
b11000 .
b1111111111111111111111111111111111111111111111111111111110110010 $
08
b10 :
b1100100 ;
b0 4
b1111111111111111111111111111111111111111111111111111111110110010 9
b0 5
b1000000000100011000001000110011 3
b11000 +
b10110 )
1!
#1060000
0!
#1065000
b1111111111111111111111111111111111111111111111111111111110110001 $
b100000 ,
b1111111111111111111111111111111111111111111111111111111110110001 9
b100000 /
b100100 .
b1000 4
b100 5
b1 ;
0'
b1 :
16
b1 (
b1111111111111111111111111111111111111111111111111111111110110010 )
b101000100000001001100011 3
b11100 +
1!
#1070000
0!
#1075000
17
1#
1%
b0 $
b10000 ,
b0 9
b100100 /
b10000 .
b0 ;
b1111111111111111111111111111111111111111111111111111111111110000 4
b0 (
b0 )
b1111111111111111111111111111111111111111111111111111111111111000 5
b11111110000000000000110011100011 3
b100000 +
1!
#1080000
0!
#1085000
0%
b11111101 $
b10100 /
b10000 .
0#
b11111101 9
b10 -
b10100 ,
07
b10110 ;
1'
b10 :
06
b0 4
b10110 (
b11100111 )
b0 5
b1100010000000100110011 3
b10000 +
1!
#1090000
0!
