SEQ/seq_processor_tb.vcd
$date
	Sat Mar  8 23:08:49 2025
$end
$version
	Icarus Verilog
$end
$timescale
	1ps
$end
$scope module seq_processor_tb $end
$scope module uut $end
$var wire 1 ! clk $end
$var wire 1 " reset $end
$var wire 1 # z_flag $end
$var wire 64 $ write_data [63:0] $end
$var wire 1 % tmp_carry_2 $end
$var wire 1 & tmp_carry $end
$var wire 1 ' reg_write_en $end
$var wire 64 ( read_data2 [63:0] $end
$var wire 64 ) read_data1 [63:0] $end
$var wire 64 * read_data [63:0] $end
$var wire 64 + pc_out [63:0] $end
$var wire 64 , pc_in [63:0] $end
$var wire 4 - op [3:0] $end
$var wire 64 . mux_pc_2 [63:0] $end
$var wire 64 / mux_pc_1 [63:0] $end
$var wire 1 0 mem_write $end
$var wire 1 1 mem_to_reg $end
$var wire 1 2 mem_read $end
$var wire 32 3 instr [31:0] $end
$var wire 64 4 imm_shifted [63:0] $end
$var wire 64 5 imm [63:0] $end
$var wire 1 6 branch $end
$var wire 1 7 and_out $end
$var wire 1 8 alu_src $end
$var wire 64 9 alu_out [63:0] $end
$var wire 2 : alu_op [1:0] $end
$var wire 64 ; alu_in_2 [63:0] $end
$upscope $end
$upscope $end
$enddefinitions $end
$comment Show the parameter values. $end
$dumpall
$end
#0
$dumpvars
b111111 ;
b0 :
b111111 9
18
07
06
b111111 5
b1111110 4
b11111100000000001010010011 3
02
01
00
b100 /
b1111110 .
b10 -
b100 ,
b0 +
b0 *
b0 )
b0 (
1'
0&
0%
b111111 $
0#
1"
0!
$end
#2000
0"
#5000
b1000 ,
b1111110 $
b1000 /
b100 .
b1111110 9
08
b10 :
b111111 ;
b0 4
b111111 (
b111111 )
b0 5
b10100101000001010110011 3
b100 +
1!
#10000
0!
#15000
b1100 ,
b110 -
b1111111111111111111111111111111111111111111111111111111110000010 $
b1100 /
b1000 .
b1111111111111111111111111111111111111111111111111111111110000010 9
b1000000010100000000001100110011 3
b1111110 ;
b1000 +
b0 )
b1111110 (
1!
#20000
0!
#25000
b10001 $
0#
b10001 9
b10000 ,
b10 -
b10000 /
b101110 .
b100010 4
b10001 5
b10001 ;
0'
18
10
b0 :
b1111111111111111111111111111111111111111111111111111111110000010 (
b11000000011100010100011 3
b1100 +
1!
#30000
0!
#35000
b10100 ,
b10001 9
b10100 /
b110010 .
b1111111111111111111111111111111111111111111111111111111110000010 $
b1111111111111111111111111111111111111111111111111111111110000010 *
1'
00
11
12
b10001 ;
b100010 4
b0 (
b10001 5
b1000100000011001110000011 3
b10000 +
1!
#40000
0!
#45000
b11000 ,
b11000 /
b10100 .
b11111100 9
b11111100 $
b0 *
08
b10 :
01
02
b1111110 ;
b0 4
b1111110 (
b1111110 )
b0 5
b10100101000010000110011 3
b10100 +
1!
#50000
0!
#55000
b11100 ,
b11111100 $
b11100 /
b11000 .
b11111100 9
b0 ;
0'
18
10
b0 :
b1111111111111111111111111111111111111111111111111111111110000010 (
b11111100 )
b11101000011000000100011 3
b11000 +
1!
#60000
0!
#65000
b100000 ,
b11111100 9
b100000 /
b11100 .
b1111111111111111111111111111111111111111111111111111111110000010 $
b1111111111111111111111111111111111111111111111111111111110000010 *
1'
00
11
12
b0 ;
b0 4
b0 (
b0 5
b1000011010010000011 3
b11100 +
1!
#70000
0!
#75000
b100100 ,
b100100 /
b1000010 .
b10001 9
b10001 $
b0 *
01
02
b10001 ;
b100010 4
b0 )
b10001 5
b1000100000000010100010011 3
b100000 +
1!
#80000
0!
#85000
b101000 ,
b101000 /
b100100 .
08
b10 :
b0 ;
b0 4
b10001 )
b0 5
b1010000010110110011 3
b100100 +
1!
#90000
0!
#95000
b101100 ,
b101100 /
b101000 .
b1111111111111111111111111111111111111111111111111111111110000010 $
b1111111111111111111111111111111111111111111111111111111110000010 *
18
b0 :
11
12
b1011011011000000011 3
b101000 +
1!
#100000
0!
#105000
b110000 ,
b110000 /
b101100 .
b11111100 9
b11111100 $
b0 *
08
b10 :
01
02
b1111110 ;
b0 4
b1111110 (
b1111110 )
b0 5
b10100101000011010110011 3
b101100 +
1!
#110000
0!
#115000
b111000 ,
17
b0 $
b110100 /
b111000 .
1#
b0 9
b110 -
b1000 4
b100 5
b11111100 ;
0'
b1 :
16
b11111100 (
b11111100 )
b100001101000001001100011 3
b110000 +
1!
#120000
0!
#125000
b111111000 $
0#
b111111000 9
b111100 /
b111000 .
b10 -
b111100 ,
07
1'
b10 :
06
b0 4
b0 5
b110101101000011100110011 3
b111000 +
1!
#130000
0!
#135000
0#
b1111110 $
b1000000 ,
b110 -
b1111110 9
b1000000 /
b111100 .
b1111110 ;
b1111110 (
b1000000010101000000011110110011 3
b111100 +
1!
#140000
0!
#145000
b1001110110 $
b1000100 ,
b10 -
b1001110110 9
b1000100 /
b1000000 .
b111111000 ;
b111111000 (
b1111110 )
b111001111000100000110011 3
b1000000 +
1!
#150000
0!
#155000
b1001000 ,
b1001110110 $
b1001000 /
b1000100 .
b1001110110 9
b1111110 ;
b1111110 (
b111111000 )
b111101110000100010110011 3
b1000100 +
1!
#160000
0!
#165000
b1001100 ,
b10011101100 $
b1001100 /
b1001000 .
b10011101100 9
b1001110110 ;
b1001110110 (
b1001110110 )
b1000110000000100100110011 3
b1001000 +
1!
#170000
0!
#175000
b1010000 ,
b11101100010 $
b1010000 /
b1001100 .
b11101100010 9
b10011101100 )
b1000110010000100100110011 3
b1001100 +
1!
#180000
0!
#185000
b1010100 ,
b1010100 /
b1010000 .
b11101100010 $
b11101100010 9
b0 ;
b0 (
b10010000100110110011 3
b11101100010 )
b1010000 +
1!
#190000
0!
#195000
b1111111111111111111111111111111111111111111111111111111110000010 *
b1011000 ,
b1011000 /
b1010100 .
b10001 9
b1111111111111111111111111111111111111111111111111111111110000010 $
18
b0 :
11
12
b10001 )
b1011011101000000011 3
b1010100 +
1!
#200000
0!
#205000
b1011100 ,
b10001010 9
b1011100 /
b101001010 .
b10001010 $
b0 *
0'
10
01
02
b1111001 ;
b11110010 4
b1111111111111111111111111111111111111111111111111111111110000010 (
b1111001 5
b111010001011011110010100011 3
b1011000 +
1!
#210000
0!
#215000
b1100000 ,
b10001010 9
b1100000 /
b101001110 .
b1111111111111111111111111111111111111111111111111111111110000010 $
b1111111111111111111111111111111111111111111111111111111110000010 *
1'
00
11
12
b1111001 ;
b11110010 4
b0 (
b1111001 5
b111100101011011101010000011 3
b1011100 +
1!
#220000
0!
#225000
b1100100 ,
b1 9
b1100100 /
b1100010 .
b1 $
b0 *
0'
10
01
02
b1 ;
b10 4
b10001 (
b0 )
b1 5
b101000000011000010100011 3
b1100000 +
1!
#230000
0!
#235000
b1101000 ,
b1 9
b1101000 /
b1100110 .
b10001 $
b10001 *
1'
00
11
12
b1 ;
b10 4
b0 (
b1 5
b100000011101100000011 3
b1100100 +
1!
#240000
0!
#245000
b1101100 ,
b1101100 /
b1101010 .
0#
b10010 9
b10010 $
b0 *
0'
10
01
02
b1 ;
b10 4
b1111111111111111111111111111111111111111111111111111111110000010 (
b10001 )
b1 5
b1010110110011000010100011 3
b1101000 +
1!
#250000
0!
#255000
b1110000 ,
b10010 9
b1110000 /
b1101110 .
b1111111111111111111111111111111111111111111111111111111110000010 $
b1111111111111111111111111111111111111111111111111111111110000010 *
1'
00
11
12
b1 ;
b10 4
b0 (
b1 5
b110110011101110000011 3
b1101100 +
1!
#260000
0!
#265000
b1111111111111111111111111111111111111111111111111111111110000010 $
b1111111111111111111111111111111111111111111111111111111110000010 *
b1110100 ,
b10001010 9
b1110100 /
b101100010 .
b1111001 ;
b11110010 4
b1111001 5
b111100101011011110000000011 3
b1110000 +
1!
#270000
0!
#275000
b110 -
b1111000 ,
b1111000 /
b1110100 .
b1111110 9
b1111110 $
b0 *
08
b10 :
01
02
b1111111111111111111111111111111111111111111111111111111110000010 ;
b0 4
b1111111111111111111111111111111111111111111111111111111110000010 (
b0 )
b0 5
b1000001100000000000110010110011 3
b1110100 +
1!
#280000
0!
#285000
b10001 *
0#
b1 9
b1111100 ,
b10 -
b1111100 /
b1111010 .
b10 4
b10001 $
b1 5
b1 ;
18
b0 :
11
12
b0 (
b100000011110100000011 3
b1111000 +
1!
#290000
0!
#295000
17
1#
b10000100 ,
b10000000 /
b10000100 .
b0 9
b110 -
b0 $
b0 *
0'
08
b1 :
01
02
16
b10001 ;
b1000 4
b10001 (
b10001 )
b100 5
b1101001010000001001100011 3
b1111100 +
1!
#300000
0!
#305000
b10001 $
b10001 *
0#
b1 9
b10001000 /
b10000110 .
b10 -
b10001000 ,
07
b1 ;
1'
18
b0 :
11
12
06
b10 4
b0 (
b0 )
b1 5
b100000011110110000011 3
b10000100 +
1!
#310000
0!
#315000
b1111111111111111111111111111111111111111111111111111111110000010 $
b1111111111111111111111111111111111111111111111111111111110000010 *
b10001100 ,
b10001100 /
b10001010 .
b10010 9
b10001 )
b111011011111000000011 3
b10001000 +
1!
#320000
0!
#325000
b10010000 ,
b10010000 /
b10001110 .
b10010 $
b0 *
01
02
b101010000111010010011 3
b10001100 +
1!
#330000
0!
#335000
1#
b10010100 ,
b0 $
b10010100 /
b10010000 .
b0 9
08
b10 :
b0 ;
b0 4
b0 )
b0 5
b110011 3
b10010000 +
1!
#340000
0!
#345000
b1111111111111111111111111111111111111111111111111111111110000010 $
b1111111111111111111111111111111111111111111111111111111110000010 *
b10011000 ,
b10011000 /
b10010100 .
0#
b10010 9
18
b0 :
11
12
b10010 )
b11101011111100000011 3
b10010100 +
1!
#350000
0!
#355000
b10011100 ,
b10011100 /
b10011000 .
1#
b0 9
b0 $
b0 *
08
b10 :
01
02
b0 )
b110011 3
b10011000 +
1!
#360000
0!
#365000
b10100000 ,
b1111111111111111111111111111111111111111111111111111111100000100 $
b10100000 /
b10011100 .
0#
b1111111111111111111111111111111111111111111111111111111100000100 9
b1111111111111111111111111111111111111111111111111111111110000010 ;
b1111111111111111111111111111111111111111111111111111111110000010 (
b1111111111111111111111111111111111111111111111111111111110000010 )
b1111011110000001000110011 3
b10011100 +
1!
#370000
0!
#375000
1#
b10100100 ,
b0 $
b10100100 /
b10100000 .
b0 9
b0 ;
b0 (
b0 )
b110011 3
b10100000 +
1!
#380000
0!
#385000
b10101000 ,
b10101000 /
b10100100 .
b10100100 +
1!
#390000
0!
#395000
b10101100 ,
b1111111111111111111111111111111111111111111111111111111100000100 $
b10101100 /
b10101000 .
0#
b1111111111111111111111111111111111111111111111111111111100000100 9
b1111111111111111111111111111111111111111111111111111111100000100 )
b100000000010110011 3
b10101000 +
1!
#400000
0!
#405000
b10001 *
b10110000 ,
b10110000 /
b10101110 .
0#
b1 9
b1 ;
b10 4
b10001 $
b1 5
18
b0 :
11
12
b1111111111111111111111111111111111111111111111111111111100000100 (
b0 )
b100000011000100000011 3
b10101100 +
1!
#410000
0!
#415000
b10110100 ,
1#
b0 9
b10110100 /
b10110000 .
b0 $
b0 *
08
b10 :
01
02
b0 ;
b0 4
b0 (
b0 5
b110011 3
b10110000 +
1!
#420000
0!
#425000
b10111000 ,
b10111000 /
b10110100 .
b10110100 +
1!
#430000
0!
#435000
b10111100 ,
b10001 $
b10111100 /
b10111000 .
0#
b10001 9
b10001 )
b10000000110110011 3
b10111000 +
1!
#440000
0!
#445000
b11000000 ,
b0 $
b11000000 /
b10111100 .
1#
b0 9
0'
b0 :
b0 )
b0 3
b10111100 +
1!
#450000
0!
#455000
b11000100 ,
b11000100 /
b11000000 .
b11000000 +
1!
#460000
0!
#465000
b11001000 ,
b11001000 /
b11000100 .
b11000100 +
1!
#470000
0!
#475000
b11001100 ,
b11001100 /
b11001000 .
b11001000 +
1!
#480000
0!
#485000
b11010000 ,
b11010000 /
b11001100 .
b11001100 +
1!
#490000
0!
#495000
b11010100 ,
b11010100 /
b11010000 .
b11010000 +
1!
#500000
0!
#505000
b11011000 ,
b11011000 /
b11010100 .
b11010100 +
1!
#510000
0!
#515000
b11011100 ,
b11011100 /
b11011000 .
b11011000 +
1!
#520000
0!
#525000
b11100000 ,
b11100000 /
b11011100 .
b11011100 +
1!
#530000
0!
#535000
b11100100 ,
b11100100 /
b11100000 .
b11100000 +
1!
#540000
0!
#545000
b11101000 ,
b11101000 /
b11100100 .
b11100100 +
1!
#550000
0!
#555000
b11101100 ,
b11101100 /
b11101000 .
b11101000 +
1!
