SEQ/seq_processor_tb.vcd
$date
	Mon Mar 03 15:39:22 2025
$end
$version
	Icarus Verilog
$end
$timescale
	1ps
$end
$scope module seq_processor_tb $end
$scope module uut $end
$var wire 1 ! clk $end
$var wire 1 " reset $end
$var wire 1 # z_flag $end
$var wire 64 $ write_data [63:0] $end
$var wire 1 % tmp_carry_2 $end
$var wire 1 & tmp_carry $end
$var wire 1 ' reg_write_en $end
$var wire 64 ( read_data2 [63:0] $end
$var wire 64 ) read_data1 [63:0] $end
$var wire 64 * read_data [63:0] $end
$var wire 64 + pc_out [63:0] $end
$var wire 64 , pc_in [63:0] $end
$var wire 4 - op [3:0] $end
$var wire 64 . mux_pc_2 [63:0] $end
$var wire 64 / mux_pc_1 [63:0] $end
$var wire 1 0 mem_write $end
$var wire 1 1 mem_to_reg $end
$var wire 1 2 mem_read $end
$var wire 32 3 instr [31:0] $end
$var wire 64 4 imm_shifted [63:0] $end
$var wire 64 5 imm [63:0] $end
$var wire 1 6 branch $end
$var wire 1 7 and_out $end
$var wire 1 8 alu_src $end
$var wire 64 9 alu_out [63:0] $end
$var wire 2 : alu_op [1:0] $end
$var wire 64 ; alu_in_2 [63:0] $end
$upscope $end
$upscope $end
$enddefinitions $end
$comment Show the parameter values. $end
$dumpall
$end
#0
$dumpvars
b1010 ;
b0 :
b1010 9
18
07
06
b1010 5
b10100 4
b101000000000000010010011 3
02
01
00
b100 /
b10100 .
b10 -
b100 ,
b0 +
b0 *
b0 )
b0 (
1'
0&
0%
b1010 $
0#
1"
0!
$end
#2000
0"
#5000
b0 $
b1000 ,
1#
b0 9
b1000 /
b100 .
b0 ;
b0 4
b0 5
b100010011 3
b100 +
1!
#10000
0!
#15000
b1 $
b1100 ,
0#
b1 9
b1100 /
b1010 .
b1 ;
b10 4
b1010 (
b1 5
b100000000000110010011 3
b1000 +
1!
#20000
0!
#25000
b10000 ,
b10000 /
b1100 .
08
b10 :
b0 ;
b0 4
b0 (
b1 )
b0 5
b11000010100110011 3
b1100 +
1!
#30000
0!
#35000
b10100 ,
b1 $
b10100 /
b10000 .
0#
b1 9
b1 ;
b1 (
b0 )
b1100010000000100110011 3
b10000 +
1!
#40000
0!
#45000
b11000 ,
b11000 /
b10110 .
b10 $
b10 4
0#
b10 9
b1 5
b1 ;
18
b0 :
b1010 (
b100011000000110010011 3
b1 )
b10100 +
1!
#50000
0!
#55000
b11100 ,
b110 -
b11100 /
b11000 .
b1111111111111111111111111111111111111111111111111111111111111000 $
08
b10 :
b1010 ;
b0 4
b1111111111111111111111111111111111111111111111111111111111111000 9
b0 5
b1000000000100011000001000110011 3
b11000 +
b10 )
1!
#60000
0!
#65000
b1111111111111111111111111111111111111111111111111111111111110111 $
b100000 ,
b1111111111111111111111111111111111111111111111111111111111110111 9
b100000 /
b100100 .
b1000 4
b100 5
b1 ;
0'
b1 :
16
b1 (
b1111111111111111111111111111111111111111111111111111111111111000 )
b101000100000001001100011 3
b11100 +
1!
#70000
0!
#75000
17
1#
1%
b0 $
b10000 ,
b0 9
b100100 /
b10000 .
b0 ;
b1111111111111111111111111111111111111111111111111111111111110000 4
b0 (
b0 )
b1111111111111111111111111111111111111111111111111111111111111000 5
b11111110000000000000110011100011 3
b100000 +
1!
#80000
0!
#85000
0%
b11 $
b10100 /
b10000 .
0#
b11 9
b10 -
b10100 ,
07
b10 ;
1'
b10 :
06
b0 4
b10 (
b1 )
b0 5
b1100010000000100110011 3
b10000 +
1!
#90000
0!
#95000
b11000 ,
b11000 /
b10110 .
b10 4
b11 $
b1 5
b1 ;
18
b0 :
b11 9
b1010 (
b100011000000110010011 3
b10100 +
b10 )
1!
#100000
0!
#105000
b11100 ,
b110 -
b11100 /
b11000 .
b1111111111111111111111111111111111111111111111111111111111111001 $
b1111111111111111111111111111111111111111111111111111111111111001 9
08
b10 :
b1010 ;
b0 4
b0 5
b1000000000100011000001000110011 3
b11 )
b11000 +
1!
#110000
0!
#115000
b1111111111111111111111111111111111111111111111111111111111111000 $
b100000 ,
b1111111111111111111111111111111111111111111111111111111111111000 9
b100000 /
b100100 .
b1000 4
b100 5
b1 ;
0'
b1 :
16
b1 (
b1111111111111111111111111111111111111111111111111111111111111001 )
b101000100000001001100011 3
b11100 +
1!
#120000
0!
#125000
17
1#
1%
b0 $
b10000 ,
b0 9
b100100 /
b10000 .
b0 ;
b1111111111111111111111111111111111111111111111111111111111110000 4
b0 (
b0 )
b1111111111111111111111111111111111111111111111111111111111111000 5
b11111110000000000000110011100011 3
b100000 +
1!
#130000
0!
#135000
0%
b110 $
b10100 /
b10000 .
0#
b110 9
b10 -
b10100 ,
07
b11 ;
1'
b10 :
06
b0 4
b11 (
b11 )
b0 5
b1100010000000100110011 3
b10000 +
1!
#140000
0!
#145000
0#
b11000 ,
b11000 /
b10110 .
b100 $
b10 4
b100 9
b1 5
b1 ;
18
b0 :
b1010 (
b100011000000110010011 3
b11 )
b10100 +
1!
#150000
0!
#155000
b11100 ,
b110 -
b11100 /
b11000 .
b1111111111111111111111111111111111111111111111111111111111111010 $
08
b10 :
b1010 ;
b0 4
b1111111111111111111111111111111111111111111111111111111111111010 9
b0 5
b1000000000100011000001000110011 3
b11000 +
b100 )
1!
#160000
0!
#165000
b1111111111111111111111111111111111111111111111111111111111111001 $
b100000 ,
b1111111111111111111111111111111111111111111111111111111111111001 9
b100000 /
b100100 .
b1000 4
b100 5
b1 ;
0'
b1 :
16
b1 (
b1111111111111111111111111111111111111111111111111111111111111010 )
b101000100000001001100011 3
b11100 +
1!
#170000
0!
#175000
17
1#
1%
b0 $
b10000 ,
b0 9
b100100 /
b10000 .
b0 ;
b1111111111111111111111111111111111111111111111111111111111110000 4
b0 (
b0 )
b1111111111111111111111111111111111111111111111111111111111111000 5
b11111110000000000000110011100011 3
b100000 +
1!
#180000
0!
#185000
0%
b1010 $
b10100 /
b10000 .
0#
b1010 9
b10 -
b10100 ,
07
b100 ;
1'
b10 :
06
b0 4
b100 (
b110 )
b0 5
b1100010000000100110011 3
b10000 +
1!
#190000
0!
#195000
b11000 ,
b11000 /
b10110 .
0#
b10 4
b101 $
b1 5
b1 ;
18
b0 :
b101 9
b1010 (
b100011000000110010011 3
b10100 +
b100 )
1!
#200000
0!
#205000
0#
b11100 ,
b110 -
b11100 /
b11000 .
b1111111111111111111111111111111111111111111111111111111111111011 $
b1111111111111111111111111111111111111111111111111111111111111011 9
08
b10 :
b1010 ;
b0 4
b0 5
b1000000000100011000001000110011 3
b101 )
b11000 +
1!
#210000
0!
#215000
b1111111111111111111111111111111111111111111111111111111111111010 $
b100000 ,
b1111111111111111111111111111111111111111111111111111111111111010 9
b100000 /
b100100 .
b1000 4
b100 5
b1 ;
0'
b1 :
16
b1 (
b1111111111111111111111111111111111111111111111111111111111111011 )
b101000100000001001100011 3
b11100 +
1!
#220000
0!
#225000
17
1#
1%
b0 $
b10000 ,
b0 9
b100100 /
b10000 .
b0 ;
b1111111111111111111111111111111111111111111111111111111111110000 4
b0 (
b0 )
b1111111111111111111111111111111111111111111111111111111111111000 5
b11111110000000000000110011100011 3
b100000 +
1!
#230000
0!
#235000
0%
b1111 $
b10100 /
b10000 .
0#
b1111 9
b10 -
b10100 ,
07
b101 ;
1'
b10 :
06
b0 4
b101 (
b1010 )
b0 5
b1100010000000100110011 3
b10000 +
1!
#240000
0!
#245000
b11000 ,
b11000 /
b10110 .
b110 $
b10 4
b110 9
b1 5
b1 ;
18
b0 :
b1010 (
b100011000000110010011 3
b101 )
b10100 +
1!
#250000
0!
#255000
b11100 ,
b110 -
b11100 /
b11000 .
b1111111111111111111111111111111111111111111111111111111111111100 $
08
b10 :
b1010 ;
b0 4
b1111111111111111111111111111111111111111111111111111111111111100 9
b0 5
b1000000000100011000001000110011 3
b11000 +
b110 )
1!
#260000
0!
#265000
b1111111111111111111111111111111111111111111111111111111111111011 $
b100000 ,
b1111111111111111111111111111111111111111111111111111111111111011 9
b100000 /
b100100 .
b1000 4
b100 5
b1 ;
0'
b1 :
16
b1 (
b1111111111111111111111111111111111111111111111111111111111111100 )
b101000100000001001100011 3
b11100 +
1!
#270000
0!
#275000
17
1#
1%
b0 $
b10000 ,
b0 9
b100100 /
b10000 .
b0 ;
b1111111111111111111111111111111111111111111111111111111111110000 4
b0 (
b0 )
b1111111111111111111111111111111111111111111111111111111111111000 5
b11111110000000000000110011100011 3
b100000 +
1!
#280000
0!
#285000
0%
b10101 $
b10100 /
b10000 .
0#
b10101 9
b10 -
b10100 ,
07
b110 ;
1'
b10 :
06
b0 4
b110 (
b1111 )
b0 5
b1100010000000100110011 3
b10000 +
1!
#290000
0!
#295000
b11000 ,
b11000 /
b10110 .
b10 4
b111 $
b1 5
b1 ;
18
b0 :
b111 9
b1010 (
b100011000000110010011 3
b10100 +
b110 )
1!
#300000
0!
#305000
b11100 ,
b110 -
b11100 /
b11000 .
b1111111111111111111111111111111111111111111111111111111111111101 $
b1111111111111111111111111111111111111111111111111111111111111101 9
08
b10 :
b1010 ;
b0 4
b0 5
b1000000000100011000001000110011 3
b111 )
b11000 +
1!
#310000
0!
#315000
b1111111111111111111111111111111111111111111111111111111111111100 $
b100000 ,
b1111111111111111111111111111111111111111111111111111111111111100 9
b100000 /
b100100 .
b1000 4
b100 5
b1 ;
0'
b1 :
16
b1 (
b1111111111111111111111111111111111111111111111111111111111111101 )
b101000100000001001100011 3
b11100 +
1!
#320000
0!
#325000
17
1#
1%
b0 $
b10000 ,
b0 9
b100100 /
b10000 .
b0 ;
b1111111111111111111111111111111111111111111111111111111111110000 4
b0 (
b0 )
b1111111111111111111111111111111111111111111111111111111111111000 5
b11111110000000000000110011100011 3
b100000 +
1!
#330000
0!
#335000
0%
b11100 $
b10100 /
b10000 .
0#
b11100 9
b10 -
b10100 ,
07
b111 ;
1'
b10 :
06
b0 4
b111 (
b10101 )
b0 5
b1100010000000100110011 3
b10000 +
1!
#340000
0!
#345000
0#
b11000 ,
b11000 /
b10110 .
b1000 $
b10 4
b1000 9
b1 5
b1 ;
18
b0 :
b1010 (
b100011000000110010011 3
b111 )
b10100 +
1!
#350000
0!
#355000
b11100 ,
b110 -
b11100 /
b11000 .
b1111111111111111111111111111111111111111111111111111111111111110 $
08
b10 :
b1010 ;
b0 4
b1111111111111111111111111111111111111111111111111111111111111110 9
b0 5
b1000000000100011000001000110011 3
b11000 +
b1000 )
1!
#360000
0!
#365000
b1111111111111111111111111111111111111111111111111111111111111101 $
b100000 ,
b1111111111111111111111111111111111111111111111111111111111111101 9
b100000 /
b100100 .
b1000 4
b100 5
b1 ;
0'
b1 :
16
b1 (
b1111111111111111111111111111111111111111111111111111111111111110 )
b101000100000001001100011 3
b11100 +
1!
#370000
0!
#375000
17
1#
1%
b0 $
b10000 ,
b0 9
b100100 /
b10000 .
b0 ;
b1111111111111111111111111111111111111111111111111111111111110000 4
b0 (
b0 )
b1111111111111111111111111111111111111111111111111111111111111000 5
b11111110000000000000110011100011 3
b100000 +
1!
#380000
0!
#385000
0%
b100100 $
b10100 /
b10000 .
0#
b100100 9
b10 -
b10100 ,
07
b1000 ;
1'
b10 :
06
b0 4
b1000 (
b11100 )
b0 5
b1100010000000100110011 3
b10000 +
1!
#390000
0!
#395000
b11000 ,
b11000 /
b10110 .
0#
b10 4
b1001 $
b1 5
b1 ;
18
b0 :
b1001 9
b1010 (
b100011000000110010011 3
b10100 +
b1000 )
1!
#400000
0!
#405000
b11100 ,
b110 -
b11100 /
b11000 .
b1111111111111111111111111111111111111111111111111111111111111111 $
b1111111111111111111111111111111111111111111111111111111111111111 9
08
b10 :
b1010 ;
b0 4
b0 5
b1000000000100011000001000110011 3
b1001 )
b11000 +
1!
#410000
0!
#415000
b1111111111111111111111111111111111111111111111111111111111111110 $
b100000 ,
b1111111111111111111111111111111111111111111111111111111111111110 9
b100000 /
b100100 .
b1000 4
b100 5
b1 ;
0'
b1 :
16
b1 (
b1111111111111111111111111111111111111111111111111111111111111111 )
b101000100000001001100011 3
b11100 +
1!
#420000
0!
#425000
17
1#
1%
b0 $
b10000 ,
b0 9
b100100 /
b10000 .
b0 ;
b1111111111111111111111111111111111111111111111111111111111110000 4
b0 (
b0 )
b1111111111111111111111111111111111111111111111111111111111111000 5
b11111110000000000000110011100011 3
b100000 +
1!
#430000
0!
#435000
0%
b101101 $
b10100 /
b10000 .
0#
b101101 9
b10 -
b10100 ,
07
b1001 ;
1'
b10 :
06
b0 4
b1001 (
b100100 )
b0 5
b1100010000000100110011 3
b10000 +
1!
#440000
0!
#445000
b11000 ,
b11000 /
b10110 .
b1010 $
b10 4
b1010 9
b1 5
b1 ;
18
b0 :
b1010 (
b100011000000110010011 3
b1001 )
b10100 +
1!
#450000
0!
#455000
1#
b11100 ,
b110 -
b11100 /
b11000 .
b0 $
08
b10 :
b1010 ;
b0 4
b0 9
b0 5
b1000000000100011000001000110011 3
b11000 +
b1010 )
1!
#460000
0!
#465000
b1111111111111111111111111111111111111111111111111111111111111111 $
0#
b1111111111111111111111111111111111111111111111111111111111111111 9
b100000 /
b100100 .
b100000 ,
b1000 4
07
b100 5
b1 ;
0'
b1 :
16
b1 (
b0 )
b101000100000001001100011 3
b11100 +
1!
#470000
0!
#475000
17
1#
1%
b0 $
b0 9
b10000 ,
b100100 /
b10000 .
b0 ;
b1111111111111111111111111111111111111111111111111111111111110000 4
b0 (
b1111111111111111111111111111111111111111111111111111111111111000 5
b11111110000000000000110011100011 3
b100000 +
1!
#480000
0!
#485000
0%
b110111 $
b10100 /
b10000 .
0#
b110111 9
b10 -
b10100 ,
07
b1010 ;
1'
b10 :
06
b0 4
b1010 (
b101101 )
b0 5
b1100010000000100110011 3
b10000 +
1!
#490000
0!
#495000
b11000 ,
b11000 /
b10110 .
b10 4
b1 ;
b1011 $
b1 5
18
b0 :
b1011 9
b100011000000110010011 3
b10100 +
b1010 )
1!
#500000
0!
#505000
b11100 ,
b110 -
b11100 /
b11000 .
b1 $
b1 9
08
b10 :
b1010 ;
b0 4
b0 5
b1000000000100011000001000110011 3
b1011 )
b11000 +
1!
#510000
0!
#515000
17
1#
b0 $
b100100 ,
b0 9
b100000 /
b100100 .
b1000 4
b100 5
b1 ;
0'
b1 :
16
b1 (
b1 )
b101000100000001001100011 3
b11100 +
1!
#520000
0!
#525000
b101000 /
b100100 .
b10 -
b101000 ,
07
b0 ;
b0 :
06
b0 4
b0 (
b0 )
b0 5
b0 3
b100100 +
1!
#530000
0!
#535000
b101100 ,
b101100 /
b101000 .
b101000 +
1!
#540000
0!
#545000
b110000 ,
b110000 /
b101100 .
b101100 +
1!
#550000
0!
#555000
b110100 ,
b110100 /
b110000 .
b110000 +
1!
#560000
0!
#565000
b111000 ,
b111000 /
b110100 .
b110100 +
1!
#570000
0!
#575000
b111100 ,
b111100 /
b111000 .
b111000 +
1!
#580000
0!
#585000
b1000000 ,
b1000000 /
b111100 .
b111100 +
1!
#590000
0!
#595000
b1000100 ,
b1000100 /
b1000000 .
b1000000 +
1!
#600000
0!
#605000
b1001000 ,
b1001000 /
b1000100 .
b1000100 +
1!
#610000
0!
#615000
b1001100 ,
b1001100 /
b1001000 .
b1001000 +
1!
#620000
0!
#625000
b1010000 ,
b1010000 /
b1001100 .
b1001100 +
1!
#630000
0!
#635000
b1010100 ,
b1010100 /
b1010000 .
b1010000 +
1!
